C20200507242                                                                                                                                     000
D20200507242001000  000536620110084000000000000A  20200506UF 000000000.22            1002        001710384920INBCOCBF   000000019               C09 CBF242          NO DISPONIBLE EN WEBP
D20200507242001000  000536620110097000000000000A  20200506UF 000000000.22            1002        000070764245INBCOCBF   000000019               C03 CBF242          NO DISPONIBLE EN WEBP
D20200507242001000  000536620110086000000000000A  20200506UF 000000000.22            1002        001710387083INBCOCBF   000000019               C09 CBF242          NO DISPONIBLE EN WEBP
T20200507242    3        0.66   
