C20200524242                                                                                                                                     000
D20200524242001000  000536620110470000000000000A  20200523UF 000000000.22            1002        000073485878INBCOCBF   000000019               C09 CBF242          NO DISPONIBLE EN WEBP
T20200524242    1        0.22   
