C20200525242                                                                                                                                     000
D2020052500000536620110487PAG000015931854000
D2020052500000536620110487CON000015931854000
D2020052500000536620110487ASE000015931854000
T20200525242    3               
