C20200505242                                                                                                                                     000
D20200505  0244387969             JIMENEZ              AZCONA            ANDREAS BORJA19860404 C000000000009826503540000100010                                                          VILLASECA 420 DPTO 302000000000000
T20200505242    1               
