C20200511242                                                                                                                                     000
D20200511  0109763454             AGUIRRE               ROJAS           SERGIO ALFONSO19700504 C000000000007523971050002900165                                            AV CIRCUNVALACION 1602 VILLA GALILEA000000000000
T20200511242    1               
