C20200503242                                                                                                                                     000
D2020050300000536620109906PAG000025583793100
D2020050300000536620109906CON000025583793100
D2020050300000536620109906ASE000025583793100
T20200503242    3               
