C20200519242                                                                                                                                     000
D20200519242001000  000536620110372000000000000A  20200518UF 000000000.22            1002        000071703649INBCOCBF   000000019               C09 CBF242          NO DISPONIBLE EN WEBP
D20200519242001000  000536620110378000000000000B  20200518UF 000000000.32            1002        000063022225INBCOCBF   000000019               C09 CBF242          NO DISPONIBLE EN WEBP
T20200519242    2        0.54   
