C20200520242                                                                                                                                     000
D20200520242001000  000536620110397000000000000B  20200519UF 000000000.32            1002        000072519825INBCOCBF   000000019               C09 CBF242          NO DISPONIBLE EN WEBP
T20200520242    1        0.32   
