C20200506242                                                                                                                                     000
D2020050620110040                                                       RIOSECO 659   236    360991003531
D2020050620110045                                   Avda Lord Cochrane 220 dpto 306     1     10998218827
T20200506242    2               
