C20200508242                                                                                                                                     000
D20200508242001000  0004H5420110115000000000000B  20200507UF 000000000.57            1002        000067285484INBCOCBF   000000019               C02 CBF242          NO DISPONIBLE EN WEBP
D20200508242001000  0004H5420110114000000000000B  20200507UF 000000000.57            1002        000073805929INBCOCBF   000000019               C09 CBF242          NO DISPONIBLE EN WEBP
T20200508242    2        1.14   
