C20200506242                                                                                                                                     000
D20200506000004H5420110040PAG000010963866800
D20200506000004H5420110040CON000010963866800
D20200506000004H5420110040ASE000010963866800
D20200506000004H5420110045PAG000009152856800
D20200506000004H5420110045CON000009152856800
D20200506000004H5420110045ASE000009152856800
T20200506242    6               
