C20200524242                                                                                                                                     000
D2020052420110477                                     ruta F100G km 31,7 Parcela 23   116    220998407737
D2020052420110475                                              Rengo 1001 depto 804    10     10982939049
D2020052420110478                                           pasaje vic.mackenna 653    26     10225325416
T20200524242    3               
