C20200510242                                                                                                                                     000
D20200510  016125682k              RIVERA               PAVEZ         FELIPE ALEJANDRO19850912MC000000000002272426150066800033                                              AVENIDA CASA DE PIEDRA 276 CASA 76000000000000
T20200510242    1               
