C20200515242                                                                                                                                     000
D20200515000004H5420110273PAG000005334908000
D20200515000004H5420110273CON000005334908000
D20200515000004H5420110273ASE000005334908000
T20200515242    3               
