C20200512242                                                                                                                                     000
D20200512242001000  000324120110181000000000000A  20200511UF 000000000.62            1002        000072882474INBCOCBF   000000019               C09 CBF242          NO DISPONIBLE EN WEBP                      N                                                                                                                                                                                                                                                              no 78166     
D20200512242001000  000322120110185000000000000A  20200511UF 000000000.51            1005    5491621003290002INBCOCBF   000000019               C03 CBF242          NO DISPONIBLE EN WEBT                      N                                                                                                                                                                                                                                                                           
D20200512242001000  000330220110182000000000000F  20200511UF 000000000.45            1002        000072753240INBCOCBF   000000019               C03 CBF242          NO DISPONIBLE EN WEBP                      N                                                                                                                                                                                                                                                                           
D20200512242001000  000322120110207000000000000A  20200511UF 000000000.51            1005    5404771024811322INBCOCBF   000000019               C03 CBF242          NO DISPONIBLE EN WEBT                      N                                                                                                                                                                                                                                                                           
D20200512242001000  000322120110184000000000000A  20200511UF 000000000.17            1005    5491621003290002INBCOCBF   000000019               C03 CBF242          NO DISPONIBLE EN WEBT                      N                                                                                                                                                                                                                                                                           
D20200512242001000  000331020110178000000000000A  20200511UF 000000000.49            1002        000003350606INBCOCBF   000000019               C09 CBF242          NO DISPONIBLE EN WEBP                      N                                                                                                                                                                                                                                                                           
D20200512242001000  000324220110204000000000000A  20200511UF 000000000.68            1002        000061930256INBCOCBF   000000019               C09 CBF242          NO DISPONIBLE EN WEBP                      N                                                                                                                                                                                                                                                              no 60159     
D20200512242001000  000324220110212000000000000B  20200511UF 000000001.05            1002        000071502830INBCOCBF   000000019               C03 CBF242          NO DISPONIBLE EN WEBP                      N                                                                                                                                                                                                                                                              no 57160     
T20200512242    8        4.48   
