C20200516242                                                                                                                                     000
D2020051600000324120110305PAG000016355258200
D2020051600000324120110305CON000016355258200
D2020051600000324120110305ASE000016355258200
D2020051600000330220110307PAG000009702727700
D2020051600000330220110307CON000009702727700
D2020051600000330220110307ASE000009702727700
D2020051600000330220110307BEN020008466360307
D2020051600000331020110299PAG000016671631400
D2020051600000331020110299CON000016671631400
D2020051600000331020110299ASE000016671631400
D2020051600000331020110299BEN020025391312603
D2020051600000330420110315PAG000016906935200
D2020051600000330420110315CON000016906935200
D2020051600000330420110315ASE000016906935200
D2020051600000322120110314PAG000015363871300
D2020051600000322120110314CON000015363871300
D2020051600000322120110314ASE000015363871300
D2020051600000322120110314ASE020008000986002
D2020051600000324220110316PAG000014168191500
D2020051600000324220110316CON000014168191500
D2020051600000324220110316ASE000014168191500
D2020051600000324220110316ASE020024407345k03
D2020051600000324220110316ASE030023812561803
D2020051600000322120110325PAG000014088085K00
D2020051600000322120110325CON000014088085K00
D2020051600000322120110325ASE000009082353100
D2020051600000322120110325ASE020015302695503
D2020051600000330420110311PAG000017796359300
D2020051600000330420110311CON000017796359300
D2020051600000330420110311ASE000017796359300
D2020051600000331020110323PAG000016368588400
D2020051600000331020110323CON000016368588400
D2020051600000331020110323ASE000016368588400
D2020051600000331020110323BEN020016645863307
T20200516242   34               
