C20200522242                                                                                                                                     000
D20200522242001000  000331320110446000000000000B  20200521UF 000000007.74            5002        000069615031INBCOCBF   000000019               C09 CBF242          NO DISPONIBLE EN WEBP20200521              N                                                                                                                                                                                                                                                                           
D20200522242001000  000330420110450000000000000A  20200521UF 000000000.31            1002        000075626088INBCOCBF   000000019               C02 CBF242          NO DISPONIBLE EN WEBP                      N                                                                                                                                                                                                                                                                           
D20200522242001000  000330420110443000000000000B  20200521UF 000000002.89            1002        007500082414INBCOCBF   000000019               C09 CBF242          NO DISPONIBLE EN WEBP                      N                                                                                                                                                                                                                                                                           
D20200522242001000  000331320110448000000000000E  20200521UF 000000005.87            5002        000069615031INBCOCBF   000000019               C09 CBF242          NO DISPONIBLE EN WEBP20200521              N                                                                                                                                                                                                                                                                           
T20200522242    4       16.81   
