C20200505242                                                                                                                                     000
D20200505242001000  000331020109959000000000000A  20200504UF 000000000.49            1002        000063497398INBCOCBF   000000019               C09 CBF242          NO DISPONIBLE EN WEBP                      N                                                                                                                                                                                                                                                                           
D20200505242001000  000324120109944000000000000A  20200504UF 000000000.49            1002        000069749917INBCOCBF   000000019               C09 CBF242          NO DISPONIBLE EN WEBP                      N                                                                                                                                                                                                                                                              no 74176     
T20200505242    2        0.98   
