C20200526242                                                                                                                                     000
D2020052600000331020110499 0229496352   100   D
T20200526242    1               
