C20200509242                                                                                                                                     000
D2020050900000324120110146PAG000016589179100
D2020050900000324120110146CON000016589179100
D2020050900000324120110146ASE000013351169500
D2020050900000331020110142PAG000007523675100
D2020050900000331020110142CON000007523675100
D2020050900000331020110142ASE000007523675100
D2020050900000330720110134PAG000012008643K00
D2020050900000330720110134CON000012008643K00
D2020050900000330720110134ASE000012008643k00
T20200509242    9               
