C20200521242                                                                                                                                     000
D2020052100000331020110428 0121086891   075   D
D2020052100000331020110428 027247835k   025   D
T20200521242    2               
