C20200506242                                                                                                                                     000
D20200506242001000  000322120110062000000000000A  20200505UF 000000000.17            1002        001706529345INBCOCBF   000000019               C03 CBF242          NO DISPONIBLE EN WEBP                      N                                                                                                                                                                                                                                                                           
D20200506242001000  000324220110042000000000000B  20200505UF 000000001.43            1005    5218921003563032INBCOCBF   000000019               C09 CBF242          NO DISPONIBLE EN WEBT                      N                                                                                                                                                                                                                                                              no 82173     
D20200506242001000  000330420110043000000000000A  20200505UF 000000000.31            1005    5218921007727088INBCOCBF   000000019               C03 CBF242          NO DISPONIBLE EN WEBT                      N                                                                                                                                                                                                                                                                           
D20200506242001000  000330420110041000000000000C  20200505UF 000000001.94            1005    5218921003563032INBCOCBF   000000019               C09 CBF242          NO DISPONIBLE EN WEBT                      N                                                                                                                                                                                                                                                                           
D20200506242001000  000331020109999000000000000A  20200505UF 000000000.49            1002        000064201778INBCOCBF   000000019               C09 CBF242          NO DISPONIBLE EN WEBP                      N                                                                                                                                                                                                                                                                           
T20200506242    5        4.34   
