C20200515242                                                                                                                                     000
D2020051500000324220110271PAG000012797889100
D2020051500000324220110271CON000012797889100
D2020051500000324220110271ASE000012797889100
D2020051500000324220110271ASE020013429713107
D2020051500000324220110271ASE030023143242603
D2020051500000324220110271ASE040023657082703
D2020051500000324220110271ASE050024244184203
D2020051500000331020110287PAG000015343638K00
D2020051500000331020110287CON000015343638K00
D2020051500000331020110287ASE000015343638k00
D2020051500000331020110287BEN020020533616803
D2020051500000331020110287BEN030021788182k03
D2020051500000331020110287BEN040023406836903
D2020051500000322120110280PAG000015320240000
D2020051500000322120110280CON000015320240000
D2020051500000322120110280ASE000023532962k00
D2020051500000330420110290PAG000015481810300
D2020051500000330420110290CON000015481810300
D2020051500000330420110290ASE000015481810300
D2020051500000330420110290ASE020015373997819
T20200515242   20               
