C20200526242                                                                                                                                     000
D2020052600000331020110499PAG000016149154300
D2020052600000331020110499CON000016149154300
D2020052600000331020110499ASE000016149154300
D2020052600000331020110499BEN020022949635203
D2020052600000330420110560PAG000017210163100
D2020052600000330420110560CON000017210163100
D2020052600000330420110560ASE000017210163100
D2020052600000324120110541PAG000007013333400
D2020052600000324120110541CON000007013333400
D2020052600000324120110541ASE000007013333400
D2020052600000331320110542PAG000017704374500
D2020052600000331320110542CON000017704374500
D2020052600000331320110542ASE000017704374500
T20200526242   13               
