C20200523242                                                                                                                                     000
D20200523  0175370048            ESPINOZA            GONZALEZ          PAMELA GRACIELA19830114 C000000000009847931920000100009                                               MARTIN ALONSO PINZON 5020 DPTO 77000000000000
D20200523  0121725355            Villalon           Hernandez          Lisette Maribel19720720MC000000000009370504610002300120                                                                    La Torre 221000000000000
T20200523242    2               
