C20200502242                                                                                                                                     000
D2020050200000324120109899PAG000018411587500
D2020050200000324120109899CON000018411587500
D2020050200000324120109899ASE000018411587500
D2020050200000322120109901PAG000012585867800
D2020050200000322120109901CON000012585867800
D2020050200000322120109901ASE000012585867800
D2020050200000322120109901ASE020012486414307
D2020050200000322120109901ASE030019539896803
D2020050200000322120109901ASE040022072744003
D2020050200000322120109901ASE050006691873402
D2020050200000324220109894PAG000018672400300
D2020050200000324220109894CON000018672400300
D2020050200000324220109894ASE000011693470100
D2020050200000324220109894ASE020018672400303
D2020050200000331320109893PAG000015415537600
D2020050200000331320109893CON000015415537600
D2020050200000331320109893ASE000015415537600
D2020050200000331320109893ASE020016339757907
D2020050200000331320109893ASE030023369047303
D2020050200000331320109893ASE040021939284203
T20200502242   20               
