C20200504242                                                                                                                                     000
D20200504242001000  000331020109929000000000000A  20200503UF 000000000.49            1002        000072059239INBCOCBF   000000019               C02 CBF242          NO DISPONIBLE EN WEBP                      N                                                                                                                                                                                                                                                                           
T20200504242    1        0.49   
