C20200520242                                                                                                                                     000
D20200520  0113411171                WILD           DEL CAMPO                    PAULA19681105 C000000000009914525410000100009                                                              vasco de gama 4817000000000000
D20200520  0103157463              Aburto            Huilipan                    Irene19621020MC000000000009661874190066900036                                                          parque grecia sur 1240000000000000
D20200520  0130284426                VIAL             ILLANES             MARIA TERESA19761105 C000000000009944912100000100011                                                   RICARDO WAGNER 2161 DEPTO 104000000000000
D20200520  0113411171                WILD           DEL CAMPO                    PAULA19681105 C000000000009914525410000100009                                                     vasco de gama 4817 dpto 303000000000000
T20200520242    4               
