C20200511242                                                                                                                                     000
D2020051100000331020110167PAG000015178044K00
D2020051100000331020110167CON000015178044K00
D2020051100000331020110167ASE000015178044k00
D2020051100000331020110167BEN020020917644003
D2020051100000331020110167BEN030015222794907
D2020051100000324120110168PAG000009179543400
D2020051100000324120110168CON000009179543400
D2020051100000324120110168ASE000019333125400
T20200511242    8               
