C20200507242                                                                                                                                     000
D20200507242001000  000322120110082000000000000A  20200506UF 000000000.17            1002        000063956570INBCOCBF   000000019               C09 CBF242          NO DISPONIBLE EN WEBP                      N                                                                                                                                                                                                                                                                           
T20200507242    1        0.17   
