C20200504242                                                                                                                                     000
D20200504  0175423818          ALTAMIRANO             BASTIAS                  DANIELA19920103 C000000000009768339150003500228                                                                     La vega 749000000000000
T20200504242    1               
