C20200517242                                                                                                                                     000
D20200517242001000  000322120110332000000000000A  20200516UF 000000000.17            1002        000069461433INBCOCBF   000000019               C03 CBF242          NO DISPONIBLE EN WEBP                      N                                                                                                                                                                                                                                                                           
D20200517242001000  000331020110334000000000000A  20200516UF 000000000.49            1002        000072329775INBCOCBF   000000019               C09 CBF242          NO DISPONIBLE EN WEBP                      N                                                                                                                                                                                                                                                                           
D20200517242001000  000330420110338000000000000A  20200516UF 000000000.31            1005    4508811100005031INBCOCBF   000000019               C03 CBF242          NO DISPONIBLE EN WEBT                      N                                                                                                                                                                                                                                                                           
D20200517242001000  000324120110344000000000000A  20200516UF 000000001.25            1002        000003605817INBCOCBF   000000019               C09 CBF242          NO DISPONIBLE EN WEBP                      S                                                                                                                                                                                                                 Hipertension arterial, Artrosis en las rodillas 77158     
D20200517242001000  000324220110328000000000000B  20200516UF 000000001.05            1002        000064666312INBCOCBF   000000019               C09 CBF242          NO DISPONIBLE EN WEBP                      N                                                                                                                                                                                                                                                              no 98179     
D20200517242001000  000330420110337000000000000A  20200516UF 000000000.31            1002        000071900479INBCOCBF   000000019               C03 CBF242          NO DISPONIBLE EN WEBP                      N                                                                                                                                                                                                                                                                           
D20200517242001000  000324220110341000000000000B  20200516UF 000000001.05            1002        000072470842INBCOCBF   000000019               C03 CBF242          NO DISPONIBLE EN WEBP                      N                                                                                                                                                                                                                                                              no 80174     
D20200517242001000  000331020110331000000000000B  20200516UF 000000000.73            1002        000071139549INBCOCBF   000000019               C09 CBF242          NO DISPONIBLE EN WEBP                      N                                                                                                                                                                                                                                                                           
D20200517242001000  000324120110330000000000000A  20200516UF 000000000.49            1002        000071377350INBCOCBF   000000019               C09 CBF242          NO DISPONIBLE EN WEBP                      N                                                                                                                                                                                                                                                              no 85175     
D20200517242001000  000330420110327000000000000C  20200516UF 000000000.73            1002        000064666312INBCOCBF   000000019               C09 CBF242          NO DISPONIBLE EN WEBP                      N                                                                                                                                                                                                                                                                           
T20200517242   10        6.58   
