Rut;Dv;Nombre;Apellido;Email;Telefono;Nombre producto;Fecha Visualizacion;Hora;Estado
25232862;9;JAIRO JHOVANNI;LONDOÑO;JAIRO.LONDONO.G@HOTMAIL.COM;0942375096;Viaje larga Estadia;2020-05-21;13:06:32;Sin culminar
15034511;1;NATALIA ENEDINA;HIDALGO;nataliahidalgocabrera@gmail.com;0988379502;Protección Personal;2020-05-21;18:32:27;Sin culminar
17537004;8;PAMELA GRACIELA;ESPINOZA;PAMELA.EG@GMAIL.COM;0984793192;Viaje larga Estadia;2020-05-22;01:17:07;Sin culminar
15313408;1;FRANCESCA VANESSA;SEITZ;franseitzv@gmail.com;0971355256;Catastrófico Individual;2020-05-21;20:42:50;Sin culminar
15034511;1;NATALIA ENEDINA;HIDALGO;nataliahidalgocabrera@gmail.com;552370258;Protección Personal;2020-05-21;18:29:59;Sin culminar
12059375;7;JUAN PABLO;LAHSEN;JPLAHSEN@GMAIL.COM;0990500172;Catastrófico Familiar;2020-05-21;19:34:06;Sin culminar
24230289;3;IGNACIO ISAAC;ARAYA;NAXITO_05_01_2001@HOTMAIL.COM;0963453548;Hospitalización;2020-05-21;14:13:34;Sin culminar
15192042;k;DANIEL ABRAHAM;ISLA;danislaa@hotmail.com;0986365251;Hogar Protegido;2020-05-21;17:47:46;Sin culminar
25232862;9;JAIRO JHOVANNI;LONDOÑO;JAIRO.LONDONO.G@HOTMAIL.COM;0942375096;Viaje larga Estadia;2020-05-21;13:24:38;Sin culminar
17702463;5;CATALINA;BERGSTROM;catabergstrom@gmail.com;0985285522;Vacaciones Seguras;2020-05-21;11:41:30;Sin culminar
17627985;0;CATALINA;BERGSTROM;catabergstrom@gmail.com;0985285522;Vacaciones Seguras;2020-05-21;14:56:52;Visitado
16711091;6;CATALINA;BERGSTROM;catabergstrom@gmail.com;0985285522;Vacaciones Seguras;2020-05-21;21:20:25;Visitado
11488451;0;CATALINA;BERGSTROM;catabergstrom@gmail.com;0985285522;Vacaciones Seguras;2020-05-21;21:26:48;Visitado
25232862;9;CATALINA;BERGSTROM;catabergstrom@gmail.com;0985285522;Vida + Devolución;2020-05-21;13:06:32;Visitado
25232862;9;CATALINA;BERGSTROM;catabergstrom@gmail.com;0985285522;Vida + Devolución;2020-05-21;13:07:00;Visitado
16641188;2;CATALINA;BERGSTROM;catabergstrom@gmail.com;0985285522;Hogar Protegido;2020-05-21;20:22:23;Visitado
17403761;2;CATALINA;BERGSTROM;catabergstrom@gmail.com;0985285522;Vacaciones Seguras;2020-05-21;13:20:26;Visitado
15313408;1;CATALINA;BERGSTROM;catabergstrom@gmail.com;0985285522;Vacaciones Seguras;2020-05-21;20:41:45;Visitado
17537004;8;CATALINA;BERGSTROM;catabergstrom@gmail.com;0985285522;Vida + Devolución;2020-05-22;01:15:21;Visitado
15380037;5;CATALINA;BERGSTROM;catabergstrom@gmail.com;0985285522;Vida + Devolución;2020-05-21;12:50:35;Visitado
15313408;1;CATALINA;BERGSTROM;catabergstrom@gmail.com;0985285522;Vida + Devolución;2020-05-21;20:38:48;Visitado
25232862;9;CATALINA;BERGSTROM;catabergstrom@gmail.com;0985285522;Vida + Devolución;2020-05-21;13:05:26;Visitado
12059375;7;CATALINA;BERGSTROM;catabergstrom@gmail.com;0985285522;Catastrófico Familiar;2020-05-21;19:34:05;Visitado
13717725;0;CATALINA;BERGSTROM;catabergstrom@gmail.com;0985285522;Catastrófico Familiar;2020-05-21;19:45:53;Visitado
25232862;9;CATALINA;BERGSTROM;catabergstrom@gmail.com;0985285522;Vida + Devolución;2020-05-21;12:41:09;Visitado
12324572;5;CATALINA;BERGSTROM;catabergstrom@gmail.com;0985285522;Hospitalización;2020-05-21;19:44:53;Visitado
17537004;8;CATALINA;BERGSTROM;catabergstrom@gmail.com;0985285522;Vida + Devolución;2020-05-22;01:18:03;Visitado
24230289;3;CATALINA;BERGSTROM;catabergstrom@gmail.com;0985285522;Hospitalización;2020-05-21;14:13:34;Visitado
10266663;1;CATALINA;BERGSTROM;catabergstrom@gmail.com;0985285522;Hospitalización;2020-05-21;21:48:22;Visitado
16996832;2;CATALINA;BERGSTROM;catabergstrom@gmail.com;0985285522;Hospitalización;2020-05-21;15:30:53;Visitado
12059375;7;CATALINA;BERGSTROM;catabergstrom@gmail.com;0985285522;Catastrófico Familiar;2020-05-21;19:30:28;Visitado
20121971;K;CATALINA;BERGSTROM;catabergstrom@gmail.com;0985285522;Vacaciones Seguras;2020-05-21;16:02:15;Visitado
15380037;5;CATALINA;BERGSTROM;catabergstrom@gmail.com;0985285522;Catastrófico Familiar;2020-05-21;12:53:40;Visitado
8935169;3;CATALINA;BERGSTROM;catabergstrom@gmail.com;0985285522;Catastrófico Familiar;2020-05-21;18:06:16;Visitado
15546259;0;CATALINA;BERGSTROM;catabergstrom@gmail.com;0985285522;Catastrófico Familiar;2020-05-21;10:31:17;Visitado
16691123;0;CATALINA;BERGSTROM;catabergstrom@gmail.com;0985285522;Catastrófico Familiar;2020-05-21;15:19:16;Visitado
8893642;6;CATALINA;BERGSTROM;catabergstrom@gmail.com;0985285522;Catastrófico Familiar;2020-05-21;13:13:09;Visitado
17403761;2;CATALINA;BERGSTROM;catabergstrom@gmail.com;0985285522;Viaje;2020-05-21;13:17:57;Visitado
18513560;8;CATALINA;BERGSTROM;catabergstrom@gmail.com;0985285522;Viaje;2020-05-21;17:23:03;Visitado
16126302;8;CATALINA;BERGSTROM;catabergstrom@gmail.com;0985285522;Viaje;2020-05-21;23:10:23;Visitado
11488451;0;CATALINA;BERGSTROM;catabergstrom@gmail.com;0985285522;Viaje;2020-05-21;21:17:11;Visitado
17403761;2;CATALINA;BERGSTROM;catabergstrom@gmail.com;0985285522;Viaje;2020-05-21;13:21:14;Visitado
14282086;2;CATALINA;BERGSTROM;catabergstrom@gmail.com;0985285522;Viaje;2020-05-21;14:08:53;Visitado
15192042;K;CATALINA;BERGSTROM;catabergstrom@gmail.com;0985285522;Hogar Protegido;2020-05-21;17:48:10;Visitado
25232862;9;CATALINA;BERGSTROM;catabergstrom@gmail.com;0985285522;Vida + Devolución;2020-05-21;13:24:38;Visitado
25232862;9;CATALINA;BERGSTROM;catabergstrom@gmail.com;0985285522;Vida + Devolución;2020-05-21;13:25:31;Visitado
17948632;6;CATALINA;BERGSTROM;catabergstrom@gmail.com;0985285522;Viaje;2020-05-21;23:04:05;Visitado
19830726;2;CATALINA;BERGSTROM;catabergstrom@gmail.com;0985285522;Catastrófico Familiar;2020-05-21;23:04:21;Visitado
25389034;7;CATALINA;BERGSTROM;catabergstrom@gmail.com;0985285522;Viaje;2020-05-21;14:55:08;Visitado
13337253;9;CATALINA;BERGSTROM;catabergstrom@gmail.com;0985285522;Viaje;2020-05-21;08:55:06;Visitado
7304459;6;CATALINA;BERGSTROM;catabergstrom@gmail.com;0985285522;Viaje;2020-05-21;09:03:56;Visitado
25389034;7;CATALINA;BERGSTROM;catabergstrom@gmail.com;0985285522;Viaje;2020-05-21;14:56:26;Visitado
25232862;9;CATALINA;BERGSTROM;catabergstrom@gmail.com;0985285522;Vida + Devolución;2020-05-21;13:23:42;Visitado
25232862;9;CATALINA;BERGSTROM;catabergstrom@gmail.com;0985285522;Vida + Devolución;2020-05-21;13:24:47;Visitado
17702463;5;CATALINA;BERGSTROM;catabergstrom@gmail.com;0985285522;Vacaciones Seguras;2020-05-21;11:40:51;Visitado
12444201;K;CATALINA;BERGSTROM;catabergstrom@gmail.com;0985285522;Hospitalización;2020-05-21;22:02:55;Visitado
17537004;8;CATALINA;BERGSTROM;catabergstrom@gmail.com;0985285522;Vida + Devolución;2020-05-22;01:17:06;Visitado
17537004;8;CATALINA;BERGSTROM;catabergstrom@gmail.com;0985285522;Vida + Devolución;2020-05-22;01:17:37;Visitado
7304459;6;CATALINA;BERGSTROM;catabergstrom@gmail.com;0985285522;Vida + Devolución;2020-05-21;09:03:02;Visitado
24230289;3;CATALINA;BERGSTROM;catabergstrom@gmail.com;0985285522;Vida + Devolución;2020-05-21;14:19:09;Visitado
24230289;3;CATALINA;BERGSTROM;catabergstrom@gmail.com;0985285522;Vida + Devolución;2020-05-21;14:20:25;Visitado
24230289;3;CATALINA;BERGSTROM;catabergstrom@gmail.com;0985285522;Vida + Devolución;2020-05-21;14:21:08;Visitado
19830726;2;CATALINA;BERGSTROM;catabergstrom@gmail.com;0985285522;Catastrófico Familiar;2020-05-21;22:57:55;Visitado
15313408;1;CATALINA;BERGSTROM;catabergstrom@gmail.com;0985285522;Catastrófico Familiar;2020-05-21;20:42:49;Visitado
14282086;2;CATALINA;BERGSTROM;catabergstrom@gmail.com;0985285522;Catastrófico Familiar;2020-05-21;14:10:33;Visitado
24230289;3;CATALINA;BERGSTROM;catabergstrom@gmail.com;0985285522;Hospitalización;2020-05-21;14:12:36;Visitado
24230289;3;CATALINA;BERGSTROM;catabergstrom@gmail.com;0985285522;Hospitalización;2020-05-21;14:21:32;Visitado
11488451;0;CATALINA;BERGSTROM;catabergstrom@gmail.com;0985285522;Hospitalización;2020-05-21;21:14:33;Visitado
15192042;K;CATALINA;BERGSTROM;catabergstrom@gmail.com;0985285522;Hogar Protegido;2020-05-21;17:47:46;Visitado
7304459;6;CATALINA;BERGSTROM;catabergstrom@gmail.com;0985285522;Hogar Protegido;2020-05-21;09:07:43;Visitado
15546259;0;CATALINA;BERGSTROM;catabergstrom@gmail.com;0985285522;Hogar Protegido;2020-05-21;10:26:13;Visitado
25232862;9;CATALINA;BERGSTROM;catabergstrom@gmail.com;0985285522;Vida + Devolución;2020-05-21;13:06:51;Visitado
11488451;0;CATALINA;BERGSTROM;catabergstrom@gmail.com;0985285522;Catastrófico Familiar;2020-05-21;21:12:26;Visitado
11488451;0;CATALINA;BERGSTROM;catabergstrom@gmail.com;0985285522;Catastrófico Familiar;2020-05-21;21:20:58;Visitado
18732854;3;CATALINA;BERGSTROM;catabergstrom@gmail.com;0985285522;Catastrófico Familiar;2020-05-21;11:00:12;Visitado
19151164;6;CATALINA;BERGSTROM;catabergstrom@gmail.com;0985285522;Hospitalización;2020-05-21;20:58:44;Visitado
11488451;0;CATALINA;BERGSTROM;catabergstrom@gmail.com;0985285522;Hospitalización;2020-05-21;21:17:52;Visitado
17087039;5;CATALINA;BERGSTROM;catabergstrom@gmail.com;0985285522;Hospitalización;2020-05-21;11:00:28;Visitado
10957635;2;CATALINA;BERGSTROM;catabergstrom@gmail.com;0985285522;Catastrófico Familiar;2020-05-21;19:44:34;Visitado
10266663;1;CATALINA;BERGSTROM;catabergstrom@gmail.com;0985285522;Catastrófico Familiar;2020-05-21;21:55:21;Visitado
13879775;9;CATALINA;BERGSTROM;catabergstrom@gmail.com;0985285522;Hogar Protegido;2020-05-21;17:08:57;Visitado
15192042;K;CATALINA;BERGSTROM;catabergstrom@gmail.com;0985285522;Hogar Protegido;2020-05-21;17:46:25;Visitado
17537004;8;CATALINA;BERGSTROM;catabergstrom@gmail.com;0985285522;Vida + Devolución;2020-05-22;01:17:52;Visitado
17702463;5;CATALINA;BERGSTROM;catabergstrom@gmail.com;0985285522;Vacaciones Seguras;2020-05-21;11:41:30;Visitado
6348670;1;CATALINA;BERGSTROM;catabergstrom@gmail.com;0985285522;Vida + Devolución;2020-05-21;14:41:45;Visitado
17537004;8;CATALINA;BERGSTROM;catabergstrom@gmail.com;0985285522;Vida + Devolución;2020-05-22;01:14:46;Visitado
18513560;8;CATALINA;BERGSTROM;catabergstrom@gmail.com;0985285522;Vida + Devolución;2020-05-21;17:25:31;Visitado
15034511;1;CATALINA;BERGSTROM;catabergstrom@gmail.com;0985285522;Vida + Devolución;2020-05-21;18:31:26;Visitado
15034511;1;CATALINA;BERGSTROM;catabergstrom@gmail.com;0985285522;Vida + Devolución;2020-05-21;18:32:27;Visitado
18665862;0;CATALINA;BERGSTROM;catabergstrom@gmail.com;0985285522;Fraude;2020-05-21;10:53:09;Visitado
15034511;1;CATALINA;BERGSTROM;catabergstrom@gmail.com;0985285522;Fraude;2020-05-21;18:29:58;Visitado
15034511;1;CATALINA;BERGSTROM;catabergstrom@gmail.com;0985285522;Fraude;2020-05-21;18:29:26;Visitado
20768436;8;CATALINA;BERGSTROM;catabergstrom@gmail.com;0985285522;Fraude;2020-05-22;01:30:58;Visitado
26643121;K;CATALINA;BERGSTROM;catabergstrom@gmail.com;0985285522;Fraude;2020-05-21;14:03:00;Visitado
18033334;7;CATALINA;BERGSTROM;catabergstrom@gmail.com;0985285522;Fraude;2020-05-21;09:36:48;Visitado

