Rut;Dv;Nombre;Apellido;Email;Telefono;Nombre producto;Fecha Visualizacion;Hora;Estado
8532535;3;IVAN ILICH;GONZALEZ;ivanilichgr@gmail.com;0996716103;Hogar Protegido;2020-05-07;15:30:58;Sin culminar
13144601;2;RODRIGO ALEJANDRO;ALVARADO;rod.alv.reb@gmail.com;0977483317;Protección Personal;2020-05-07;08:22:29;Sin culminar
20432821;8;KATARI ANDREA;VALENZUELA;cataroa511@gmail.com;0957927987;Protección Personal;2020-05-07;15:48:45;Sin culminar
10598634;3;QUEENIE CAROLINA;ARAYA;CARAYAA@VTR.NET;0998731096;Urgencias Médicas Familiar;2020-05-07;17:36:57;Sin culminar
19422483;4;NICOLAS ENRIQUE;RODRIGUEZ;nico.rodriguezb6@gmail.com;0994584721;Catastrófico Individual;2020-05-08;01:25:45;Sin culminar
13683149;6;RENE ADRIAN;LESCORNEZ;renelescornez@gmail.com;0988812237;Protección Personal;2020-05-07;08:33:40;Sin culminar
8424412;0;PATRICIO JOSE ALEJANDRO;VALDEBENITO;PVR22_5@HOTMAIL.COM;0982659571;Hospitalización;2020-05-07;20:13:10;Sin culminar
9831486;5;VERONICA;CZWIKLITZER;VEROCZW@GMAIL.COM;0227557081;Hogar Protegido;2020-05-07;08:26:55;Sin culminar
16361151;1;KATHERINA MIJAL;MALIS;kathemalis@gmail.com;0992193195;Catastrófico Individual;2020-05-07;22:16:36;Sin culminar
17857035;8;LAURA ESTHER;GALARCE;LAURA.GALARCE@LIVE.CL;0933701759;Urgencias Médicas Familiar;2020-05-07;08:56:42;Sin culminar
27047504;3;CARMEN CECILIA;GUERRA;CARMENCGP17@GMAIL.COM;0989506124;Accidentes con Asistencia Dental;2020-05-07;10:57:11;Sin culminar
10152457;4;RUBEN OMAR;RODRIGUEZ;RUBEN.RODRIGUEZ@APOQUINDO4700.CL;0990783267;Accidentes con Asistencia Dental;2020-05-07;13:46:26;Sin culminar
6513537;k;CARLOS ARTURO;RIOS;carlosriosruiz@hotmail.com;0998012302;Hogar Protegido;2020-05-07;17:35:11;Sin culminar
20432821;8;KATARI ANDREA;VALENZUELA;cataroa511@gmail.com;0957927987;Protección Personal;2020-05-07;15:47:50;Sin culminar
15898892;5;ORLANDO ANDRES;DURAN;ORLANDO.D.459@GMAIL.COM;0932567185;Protección Personal;2020-05-07;20:34:14;Sin culminar
13683149;6;RENE ADRIAN;LESCORNEZ;renelescornez@gmail.com;0988812237;Hogar Protegido;2020-05-07;08:45:52;Sin culminar
13441679;3;JOSE TOMAS;LUHRS;jtluhrs@yahoo.es;0985952134;Accidentes con Asistencia Dental;2020-05-07;14:22:49;Sin culminar
7470623;1;INES;MARTIN POSSE;martinposse@mac.com;0990794399;Hogar Protegido;2020-05-07;10:38:10;Sin culminar
9667388;4;MARIA PAZ;JANSANA;paz.jansana@travel-ch.com;0992356158;Vacaciones Seguras;2020-05-07;15:51:58;Sin culminar
7719395;2;LUIS EDUARDO;RAPOSO;edo.raposo@gmail.com;0966227601;Viaje;2020-05-07;19:07:52;Sin culminar
24711050;k;Paola andrea;Garcia;antonio.casalrepuestos@gmail.com;0996307295;Catastrófico Individual;2020-05-08;02:26:25;Sin culminar
19543445;K;BARBARA CONSTANZA DAFNE;FUENTES;BARBARACONSTANZADAFNE@GMAIL.COM;0945300108;Catastrófico Individual;2020-05-08;01:27:52;Sin culminar
17196613;2;MARIANA STEPHANIE;VALDEBENITO;mary_tefy09@hotmail.com;0958555054;Oncológico;2020-05-07;17:56:33;Sin culminar
10598634;3;QUEENIE CAROLINA;ARAYA;CARAYAA@VTR.NET;0998731096;Urgencias Médicas Familiar;2020-05-07;17:38:06;Sin culminar
15333179;0;OLGA FABIOLA;GODOY;olgagodoy@gmail.com;0222971586;Hogar Protegido;2020-05-07;12:33:20;Sin culminar
6377364;6;MARIA VICTORIA;DONOSO;dra.vdonoso@gmail.com;0993195106;Protección Personal;2020-05-07;15:23:45;Sin culminar
16708054;5;ANA EVELYN;ARAVENA;ANiiieve28@gmail.com;0966823489;Hospitalización;2020-05-08;06:56:01;Sin culminar
19543445;k;BARBARA CONSTANZA DAFNE;FUENTES;BARBARACONSTANZADAFNE@GMAIL.COM;0945300108;Hospitalización;2020-05-08;01:21:17;Sin culminar
9319939;1;BARBARA CONSTANZA DAFNE;FUENTES;BARBARACONSTANZADAFNE@GMAIL.COM;0945300108;Hogar Protegido;2020-05-07;23:08:19;Visitado
7470623;1;BARBARA CONSTANZA DAFNE;FUENTES;BARBARACONSTANZADAFNE@GMAIL.COM;0945300108;Hogar Protegido;2020-05-07;10:36:31;Visitado
5540922;6;BARBARA CONSTANZA DAFNE;FUENTES;BARBARACONSTANZADAFNE@GMAIL.COM;0945300108;Viaje;2020-05-07;15:48:37;Visitado
19301556;5;BARBARA CONSTANZA DAFNE;FUENTES;BARBARACONSTANZADAFNE@GMAIL.COM;0945300108;Viaje;2020-05-07;16:45:03;Visitado
10598634;3;BARBARA CONSTANZA DAFNE;FUENTES;BARBARACONSTANZADAFNE@GMAIL.COM;0945300108;Viaje;2020-05-07;17:36:56;Visitado
17030702;K;BARBARA CONSTANZA DAFNE;FUENTES;BARBARACONSTANZADAFNE@GMAIL.COM;0945300108;Viaje;2020-05-08;02:21:26;Visitado
6687232;7;BARBARA CONSTANZA DAFNE;FUENTES;BARBARACONSTANZADAFNE@GMAIL.COM;0945300108;Hogar Protegido;2020-05-07;11:04:17;Visitado
8532535;3;BARBARA CONSTANZA DAFNE;FUENTES;BARBARACONSTANZADAFNE@GMAIL.COM;0945300108;Hogar Protegido;2020-05-07;15:30:58;Visitado
8424412;0;BARBARA CONSTANZA DAFNE;FUENTES;BARBARACONSTANZADAFNE@GMAIL.COM;0945300108;Hospitalización;2020-05-07;20:13:10;Visitado
16708054;5;BARBARA CONSTANZA DAFNE;FUENTES;BARBARACONSTANZADAFNE@GMAIL.COM;0945300108;Hospitalización;2020-05-08;06:54:18;Visitado
19422483;4;BARBARA CONSTANZA DAFNE;FUENTES;BARBARACONSTANZADAFNE@GMAIL.COM;0945300108;Hospitalización;2020-05-08;01:25:44;Visitado
19151527;7;BARBARA CONSTANZA DAFNE;FUENTES;BARBARACONSTANZADAFNE@GMAIL.COM;0945300108;Vida + Devolución;2020-05-07;13:05:30;Visitado
9997042;1;BARBARA CONSTANZA DAFNE;FUENTES;BARBARACONSTANZADAFNE@GMAIL.COM;0945300108;Hogar Protegido;2020-05-07;18:42:18;Visitado
7719395;2;BARBARA CONSTANZA DAFNE;FUENTES;BARBARACONSTANZADAFNE@GMAIL.COM;0945300108;Viaje;2020-05-07;19:08:16;Visitado
7719395;2;BARBARA CONSTANZA DAFNE;FUENTES;BARBARACONSTANZADAFNE@GMAIL.COM;0945300108;Viaje;2020-05-07;19:09:44;Visitado
11894247;7;BARBARA CONSTANZA DAFNE;FUENTES;BARBARACONSTANZADAFNE@GMAIL.COM;0945300108;Viaje;2020-05-07;20:09:49;Visitado
8424412;0;BARBARA CONSTANZA DAFNE;FUENTES;BARBARACONSTANZADAFNE@GMAIL.COM;0945300108;Hospitalización;2020-05-07;20:13:31;Visitado
8424412;0;BARBARA CONSTANZA DAFNE;FUENTES;BARBARACONSTANZADAFNE@GMAIL.COM;0945300108;Hospitalización;2020-05-07;20:14:29;Visitado
16394542;8;BARBARA CONSTANZA DAFNE;FUENTES;BARBARACONSTANZADAFNE@GMAIL.COM;0945300108;Hospitalización;2020-05-07;13:20:57;Visitado
18685692;9;BARBARA CONSTANZA DAFNE;FUENTES;BARBARACONSTANZADAFNE@GMAIL.COM;0945300108;Hospitalización;2020-05-07;15:20:49;Visitado
9093532;1;BARBARA CONSTANZA DAFNE;FUENTES;BARBARACONSTANZADAFNE@GMAIL.COM;0945300108;Hospitalización;2020-05-07;17:22:05;Visitado
10835526;3;BARBARA CONSTANZA DAFNE;FUENTES;BARBARACONSTANZADAFNE@GMAIL.COM;0945300108;Vida + Devolución;2020-05-07;20:50:28;Visitado
26042233;2;BARBARA CONSTANZA DAFNE;FUENTES;BARBARACONSTANZADAFNE@GMAIL.COM;0945300108;Vacaciones Seguras;2020-05-07;08:55:38;Visitado
15646843;6;BARBARA CONSTANZA DAFNE;FUENTES;BARBARACONSTANZADAFNE@GMAIL.COM;0945300108;Vacaciones Seguras;2020-05-07;10:49:38;Visitado
13917090;3;BARBARA CONSTANZA DAFNE;FUENTES;BARBARACONSTANZADAFNE@GMAIL.COM;0945300108;Hospitalización;2020-05-07;13:48:47;Visitado
13239307;9;BARBARA CONSTANZA DAFNE;FUENTES;BARBARACONSTANZADAFNE@GMAIL.COM;0945300108;Hospitalización;2020-05-07;19:47:55;Visitado
8532535;3;BARBARA CONSTANZA DAFNE;FUENTES;BARBARACONSTANZADAFNE@GMAIL.COM;0945300108;Hogar Protegido;2020-05-07;15:38:49;Visitado
27047504;3;BARBARA CONSTANZA DAFNE;FUENTES;BARBARACONSTANZADAFNE@GMAIL.COM;0945300108;Hogar Protegido;2020-05-07;11:15:54;Visitado
10152457;4;BARBARA CONSTANZA DAFNE;FUENTES;BARBARACONSTANZADAFNE@GMAIL.COM;0945300108;Hogar Protegido;2020-05-07;13:46:50;Visitado
16361151;1;BARBARA CONSTANZA DAFNE;FUENTES;BARBARACONSTANZADAFNE@GMAIL.COM;0945300108;Hogar Protegido;2020-05-07;22:14:18;Visitado
16361151;1;BARBARA CONSTANZA DAFNE;FUENTES;BARBARACONSTANZADAFNE@GMAIL.COM;0945300108;Hogar Protegido;2020-05-07;22:16:35;Visitado
16361151;1;BARBARA CONSTANZA DAFNE;FUENTES;BARBARACONSTANZADAFNE@GMAIL.COM;0945300108;Hogar Protegido;2020-05-07;22:16:45;Visitado
19301556;5;BARBARA CONSTANZA DAFNE;FUENTES;BARBARACONSTANZADAFNE@GMAIL.COM;0945300108;Hogar Protegido;2020-05-07;16:56:12;Visitado
14596315;K;BARBARA CONSTANZA DAFNE;FUENTES;BARBARACONSTANZADAFNE@GMAIL.COM;0945300108;Hogar Protegido;2020-05-07;23:16:33;Visitado
16361151;1;BARBARA CONSTANZA DAFNE;FUENTES;BARBARACONSTANZADAFNE@GMAIL.COM;0945300108;Catastrófico Familiar;2020-05-07;22:17:53;Visitado
17857035;8;BARBARA CONSTANZA DAFNE;FUENTES;BARBARACONSTANZADAFNE@GMAIL.COM;0945300108;Catastrófico Familiar;2020-05-07;08:54:28;Visitado
10152457;4;BARBARA CONSTANZA DAFNE;FUENTES;BARBARACONSTANZADAFNE@GMAIL.COM;0945300108;Catastrófico Familiar;2020-05-07;13:46:26;Visitado
10835526;3;BARBARA CONSTANZA DAFNE;FUENTES;BARBARACONSTANZADAFNE@GMAIL.COM;0945300108;Vida + Devolución;2020-05-07;16:41:16;Visitado
10756614;7;BARBARA CONSTANZA DAFNE;FUENTES;BARBARACONSTANZADAFNE@GMAIL.COM;0945300108;Vida + Devolución;2020-05-07;19:17:49;Visitado
17857035;8;BARBARA CONSTANZA DAFNE;FUENTES;BARBARACONSTANZADAFNE@GMAIL.COM;0945300108;Vida + Devolución;2020-05-07;08:56:42;Visitado
10835526;3;BARBARA CONSTANZA DAFNE;FUENTES;BARBARACONSTANZADAFNE@GMAIL.COM;0945300108;Vida + Devolución;2020-05-07;15:49:46;Visitado
9667388;4;BARBARA CONSTANZA DAFNE;FUENTES;BARBARACONSTANZADAFNE@GMAIL.COM;0945300108;Vacaciones Seguras;2020-05-07;15:50:05;Visitado
6513537;K;BARBARA CONSTANZA DAFNE;FUENTES;BARBARACONSTANZADAFNE@GMAIL.COM;0945300108;Hogar Protegido;2020-05-07;17:35:10;Visitado
18839806;5;BARBARA CONSTANZA DAFNE;FUENTES;BARBARACONSTANZADAFNE@GMAIL.COM;0945300108;Hogar Protegido;2020-05-07;17:18:46;Visitado
17857035;8;BARBARA CONSTANZA DAFNE;FUENTES;BARBARACONSTANZADAFNE@GMAIL.COM;0945300108;Hospitalización;2020-05-07;08:49:10;Visitado
8532535;3;BARBARA CONSTANZA DAFNE;FUENTES;BARBARACONSTANZADAFNE@GMAIL.COM;0945300108;Hogar Protegido;2020-05-07;15:25:55;Visitado
7719395;2;BARBARA CONSTANZA DAFNE;FUENTES;BARBARACONSTANZADAFNE@GMAIL.COM;0945300108;Viaje;2020-05-07;19:19:05;Visitado
26509392;2;BARBARA CONSTANZA DAFNE;FUENTES;BARBARACONSTANZADAFNE@GMAIL.COM;0945300108;Viaje;2020-05-07;22:03:39;Visitado
16394542;8;BARBARA CONSTANZA DAFNE;FUENTES;BARBARACONSTANZADAFNE@GMAIL.COM;0945300108;Viaje;2020-05-07;13:21:42;Visitado
11846577;6;BARBARA CONSTANZA DAFNE;FUENTES;BARBARACONSTANZADAFNE@GMAIL.COM;0945300108;Viaje;2020-05-08;01:27:10;Visitado
13683149;6;BARBARA CONSTANZA DAFNE;FUENTES;BARBARACONSTANZADAFNE@GMAIL.COM;0945300108;Hogar Protegido;2020-05-07;08:45:51;Visitado
16708054;5;BARBARA CONSTANZA DAFNE;FUENTES;BARBARACONSTANZADAFNE@GMAIL.COM;0945300108;Hospitalización;2020-05-08;07:00:07;Visitado
27047504;3;BARBARA CONSTANZA DAFNE;FUENTES;BARBARACONSTANZADAFNE@GMAIL.COM;0945300108;Hospitalización;2020-05-07;10:55:15;Visitado
10227913;1;BARBARA CONSTANZA DAFNE;FUENTES;BARBARACONSTANZADAFNE@GMAIL.COM;0945300108;Hospitalización;2020-05-07;10:56:40;Visitado
13917090;3;BARBARA CONSTANZA DAFNE;FUENTES;BARBARACONSTANZADAFNE@GMAIL.COM;0945300108;Hospitalización;2020-05-07;13:07:31;Visitado
13441679;3;BARBARA CONSTANZA DAFNE;FUENTES;BARBARACONSTANZADAFNE@GMAIL.COM;0945300108;Hospitalización;2020-05-07;14:22:49;Visitado
13441679;3;BARBARA CONSTANZA DAFNE;FUENTES;BARBARACONSTANZADAFNE@GMAIL.COM;0945300108;Hospitalización;2020-05-07;14:23:14;Visitado
24202826;0;BARBARA CONSTANZA DAFNE;FUENTES;BARBARACONSTANZADAFNE@GMAIL.COM;0945300108;Hogar Protegido;2020-05-07;14:58:42;Visitado
17196613;2;BARBARA CONSTANZA DAFNE;FUENTES;BARBARACONSTANZADAFNE@GMAIL.COM;0945300108;Hogar Protegido;2020-05-07;17:56:33;Visitado
10835526;3;BARBARA CONSTANZA DAFNE;FUENTES;BARBARACONSTANZADAFNE@GMAIL.COM;0945300108;Vida + Devolución;2020-05-07;20:46:32;Visitado
14504992;K;BARBARA CONSTANZA DAFNE;FUENTES;BARBARACONSTANZADAFNE@GMAIL.COM;0945300108;Catastrófico Familiar;2020-05-07;22:52:43;Visitado
10740413;9;BARBARA CONSTANZA DAFNE;FUENTES;BARBARACONSTANZADAFNE@GMAIL.COM;0945300108;Catastrófico Familiar;2020-05-07;14:45:57;Visitado
6449149;0;BARBARA CONSTANZA DAFNE;FUENTES;BARBARACONSTANZADAFNE@GMAIL.COM;0945300108;Catastrófico Familiar;2020-05-07;13:49:04;Visitado
6449149;0;BARBARA CONSTANZA DAFNE;FUENTES;BARBARACONSTANZADAFNE@GMAIL.COM;0945300108;Catastrófico Familiar;2020-05-07;13:50:57;Visitado
19301556;5;BARBARA CONSTANZA DAFNE;FUENTES;BARBARACONSTANZADAFNE@GMAIL.COM;0945300108;Catastrófico Familiar;2020-05-07;16:51:12;Visitado
10598634;3;BARBARA CONSTANZA DAFNE;FUENTES;BARBARACONSTANZADAFNE@GMAIL.COM;0945300108;Catastrófico Familiar;2020-05-07;17:38:05;Visitado
14596315;K;BARBARA CONSTANZA DAFNE;FUENTES;BARBARACONSTANZADAFNE@GMAIL.COM;0945300108;Catastrófico Familiar;2020-05-07;23:13:24;Visitado
15597417;6;BARBARA CONSTANZA DAFNE;FUENTES;BARBARACONSTANZADAFNE@GMAIL.COM;0945300108;Catastrófico Familiar;2020-05-07;11:19:49;Visitado
19151527;7;BARBARA CONSTANZA DAFNE;FUENTES;BARBARACONSTANZADAFNE@GMAIL.COM;0945300108;Vida + Devolución;2020-05-07;13:04:14;Visitado
16394542;8;BARBARA CONSTANZA DAFNE;FUENTES;BARBARACONSTANZADAFNE@GMAIL.COM;0945300108;Vida + Devolución;2020-05-08;04:40:36;Visitado
16378266;9;BARBARA CONSTANZA DAFNE;FUENTES;BARBARACONSTANZADAFNE@GMAIL.COM;0945300108;Vida + Devolución;2020-05-07;10:34:43;Visitado
17590176;0;BARBARA CONSTANZA DAFNE;FUENTES;BARBARACONSTANZADAFNE@GMAIL.COM;0945300108;Hospitalización;2020-05-07;17:56:14;Visitado
17671144;2;BARBARA CONSTANZA DAFNE;FUENTES;BARBARACONSTANZADAFNE@GMAIL.COM;0945300108;Hogar Protegido;2020-05-07;09:56:29;Visitado
22969955;5;BARBARA CONSTANZA DAFNE;FUENTES;BARBARACONSTANZADAFNE@GMAIL.COM;0945300108;Catastrófico Familiar;2020-05-07;10:02:28;Visitado
17259257;0;BARBARA CONSTANZA DAFNE;FUENTES;BARBARACONSTANZADAFNE@GMAIL.COM;0945300108;Catastrófico Familiar;2020-05-07;10:07:06;Visitado
7719395;2;BARBARA CONSTANZA DAFNE;FUENTES;BARBARACONSTANZADAFNE@GMAIL.COM;0945300108;Viaje;2020-05-07;19:00:26;Visitado
17857035;8;BARBARA CONSTANZA DAFNE;FUENTES;BARBARACONSTANZADAFNE@GMAIL.COM;0945300108;Viaje;2020-05-07;08:53:04;Visitado
15333179;0;BARBARA CONSTANZA DAFNE;FUENTES;BARBARACONSTANZADAFNE@GMAIL.COM;0945300108;Hogar Protegido;2020-05-07;12:33:20;Visitado
13441679;3;BARBARA CONSTANZA DAFNE;FUENTES;BARBARACONSTANZADAFNE@GMAIL.COM;0945300108;Hogar Protegido;2020-05-07;14:20:06;Visitado
19456831;2;BARBARA CONSTANZA DAFNE;FUENTES;BARBARACONSTANZADAFNE@GMAIL.COM;0945300108;Vida + Devolución;2020-05-07;22:40:15;Visitado
16378266;9;BARBARA CONSTANZA DAFNE;FUENTES;BARBARACONSTANZADAFNE@GMAIL.COM;0945300108;Vida + Devolución;2020-05-07;10:26:13;Visitado
10835526;3;BARBARA CONSTANZA DAFNE;FUENTES;BARBARACONSTANZADAFNE@GMAIL.COM;0945300108;Vida + Devolución;2020-05-07;15:47:34;Visitado
10835526;3;BARBARA CONSTANZA DAFNE;FUENTES;BARBARACONSTANZADAFNE@GMAIL.COM;0945300108;Vida + Devolución;2020-05-07;16:40:56;Visitado
6513537;K;BARBARA CONSTANZA DAFNE;FUENTES;BARBARACONSTANZADAFNE@GMAIL.COM;0945300108;Hogar Protegido;2020-05-07;17:29:38;Visitado
25839087;3;BARBARA CONSTANZA DAFNE;FUENTES;BARBARACONSTANZADAFNE@GMAIL.COM;0945300108;Catastrófico Familiar;2020-05-07;23:12:36;Visitado
19543445;K;BARBARA CONSTANZA DAFNE;FUENTES;BARBARACONSTANZADAFNE@GMAIL.COM;0945300108;Hospitalización;2020-05-08;01:21:17;Visitado
19543445;K;BARBARA CONSTANZA DAFNE;FUENTES;BARBARACONSTANZADAFNE@GMAIL.COM;0945300108;Hospitalización;2020-05-08;01:21:39;Visitado
7470623;1;BARBARA CONSTANZA DAFNE;FUENTES;BARBARACONSTANZADAFNE@GMAIL.COM;0945300108;Hogar Protegido;2020-05-07;10:38:30;Visitado
16881159;4;BARBARA CONSTANZA DAFNE;FUENTES;BARBARACONSTANZADAFNE@GMAIL.COM;0945300108;Hospitalización;2020-05-07;11:59:37;Visitado
10740413;9;BARBARA CONSTANZA DAFNE;FUENTES;BARBARACONSTANZADAFNE@GMAIL.COM;0945300108;Hospitalización;2020-05-07;14:48:09;Visitado
19543445;K;BARBARA CONSTANZA DAFNE;FUENTES;BARBARACONSTANZADAFNE@GMAIL.COM;0945300108;Hospitalización;2020-05-08;01:20:46;Visitado
16708054;5;BARBARA CONSTANZA DAFNE;FUENTES;BARBARACONSTANZADAFNE@GMAIL.COM;0945300108;Hospitalización;2020-05-08;06:56:01;Visitado
16708054;5;BARBARA CONSTANZA DAFNE;FUENTES;BARBARACONSTANZADAFNE@GMAIL.COM;0945300108;Hospitalización;2020-05-08;06:56:14;Visitado
12114649;5;BARBARA CONSTANZA DAFNE;FUENTES;BARBARACONSTANZADAFNE@GMAIL.COM;0945300108;Hogar Protegido;2020-05-07;08:40:51;Visitado
7262433;5;BARBARA CONSTANZA DAFNE;FUENTES;BARBARACONSTANZADAFNE@GMAIL.COM;0945300108;Hogar Protegido;2020-05-07;19:31:36;Visitado
9831486;5;BARBARA CONSTANZA DAFNE;FUENTES;BARBARACONSTANZADAFNE@GMAIL.COM;0945300108;Hogar Protegido;2020-05-07;08:25:30;Visitado
24202826;0;BARBARA CONSTANZA DAFNE;FUENTES;BARBARACONSTANZADAFNE@GMAIL.COM;0945300108;Hogar Protegido;2020-05-07;15:20:34;Visitado
8424412;0;BARBARA CONSTANZA DAFNE;FUENTES;BARBARACONSTANZADAFNE@GMAIL.COM;0945300108;Hospitalización;2020-05-07;20:11:02;Visitado
16144374;3;BARBARA CONSTANZA DAFNE;FUENTES;BARBARACONSTANZADAFNE@GMAIL.COM;0945300108;Hospitalización;2020-05-08;00:46:44;Visitado
16708054;5;BARBARA CONSTANZA DAFNE;FUENTES;BARBARACONSTANZADAFNE@GMAIL.COM;0945300108;Hospitalización;2020-05-08;07:00:40;Visitado
16378266;9;BARBARA CONSTANZA DAFNE;FUENTES;BARBARACONSTANZADAFNE@GMAIL.COM;0945300108;Hospitalización;2020-05-07;10:26:48;Visitado
10598634;3;BARBARA CONSTANZA DAFNE;FUENTES;BARBARACONSTANZADAFNE@GMAIL.COM;0945300108;Hospitalización;2020-05-07;17:38:54;Visitado
9831486;5;BARBARA CONSTANZA DAFNE;FUENTES;BARBARACONSTANZADAFNE@GMAIL.COM;0945300108;Hogar Protegido;2020-05-07;08:26:55;Visitado
6449149;0;BARBARA CONSTANZA DAFNE;FUENTES;BARBARACONSTANZADAFNE@GMAIL.COM;0945300108;Hospitalización;2020-05-07;13:50:27;Visitado
10835526;3;BARBARA CONSTANZA DAFNE;FUENTES;BARBARACONSTANZADAFNE@GMAIL.COM;0945300108;Vida + Devolución;2020-05-07;16:45:31;Visitado
13642945;0;BARBARA CONSTANZA DAFNE;FUENTES;BARBARACONSTANZADAFNE@GMAIL.COM;0945300108;Hogar Protegido;2020-05-07;11:08:45;Visitado
19301556;5;BARBARA CONSTANZA DAFNE;FUENTES;BARBARACONSTANZADAFNE@GMAIL.COM;0945300108;Hogar Protegido;2020-05-07;16:50:19;Visitado
17777956;3;BARBARA CONSTANZA DAFNE;FUENTES;BARBARACONSTANZADAFNE@GMAIL.COM;0945300108;Vacaciones Seguras;2020-05-07;19:56:09;Visitado
10152457;4;BARBARA CONSTANZA DAFNE;FUENTES;BARBARACONSTANZADAFNE@GMAIL.COM;0945300108;Vacaciones Seguras;2020-05-07;13:43:57;Visitado
13917090;3;BARBARA CONSTANZA DAFNE;FUENTES;BARBARACONSTANZADAFNE@GMAIL.COM;0945300108;Hospitalización;2020-05-07;13:57:38;Visitado
7719395;2;BARBARA CONSTANZA DAFNE;FUENTES;BARBARACONSTANZADAFNE@GMAIL.COM;0945300108;Viaje;2020-05-07;19:23:12;Visitado
17838008;7;BARBARA CONSTANZA DAFNE;FUENTES;BARBARACONSTANZADAFNE@GMAIL.COM;0945300108;Viaje;2020-05-07;23:55:23;Visitado
16851593;6;BARBARA CONSTANZA DAFNE;FUENTES;BARBARACONSTANZADAFNE@GMAIL.COM;0945300108;Hogar Protegido;2020-05-07;11:44:24;Visitado
9472556;9;BARBARA CONSTANZA DAFNE;FUENTES;BARBARACONSTANZADAFNE@GMAIL.COM;0945300108;Hogar Protegido;2020-05-07;13:46:10;Visitado
12114649;5;BARBARA CONSTANZA DAFNE;FUENTES;BARBARACONSTANZADAFNE@GMAIL.COM;0945300108;Hogar Protegido;2020-05-07;08:43:37;Visitado
27047504;3;BARBARA CONSTANZA DAFNE;FUENTES;BARBARACONSTANZADAFNE@GMAIL.COM;0945300108;Hogar Protegido;2020-05-07;10:57:11;Visitado
7719395;2;BARBARA CONSTANZA DAFNE;FUENTES;BARBARACONSTANZADAFNE@GMAIL.COM;0945300108;Viaje;2020-05-07;19:20:06;Visitado
6449149;0;BARBARA CONSTANZA DAFNE;FUENTES;BARBARACONSTANZADAFNE@GMAIL.COM;0945300108;Viaje;2020-05-07;13:49:47;Visitado
19755781;8;BARBARA CONSTANZA DAFNE;FUENTES;BARBARACONSTANZADAFNE@GMAIL.COM;0945300108;Viaje;2020-05-07;17:06:10;Visitado
26042233;2;BARBARA CONSTANZA DAFNE;FUENTES;BARBARACONSTANZADAFNE@GMAIL.COM;0945300108;Viaje;2020-05-07;08:49:28;Visitado
27047504;3;BARBARA CONSTANZA DAFNE;FUENTES;BARBARACONSTANZADAFNE@GMAIL.COM;0945300108;Viaje;2020-05-07;11:17:36;Visitado
12919605;K;BARBARA CONSTANZA DAFNE;FUENTES;BARBARACONSTANZADAFNE@GMAIL.COM;0945300108;Viaje;2020-05-07;14:21:23;Visitado
15365909;5;BARBARA CONSTANZA DAFNE;FUENTES;BARBARACONSTANZADAFNE@GMAIL.COM;0945300108;Hogar Protegido;2020-05-07;15:41:01;Visitado
10598634;3;BARBARA CONSTANZA DAFNE;FUENTES;BARBARACONSTANZADAFNE@GMAIL.COM;0945300108;Hogar Protegido;2020-05-07;17:37:26;Visitado
14212159;K;BARBARA CONSTANZA DAFNE;FUENTES;BARBARACONSTANZADAFNE@GMAIL.COM;0945300108;Hospitalización;2020-05-07;17:17:19;Visitado
7719395;2;BARBARA CONSTANZA DAFNE;FUENTES;BARBARACONSTANZADAFNE@GMAIL.COM;0945300108;Viaje;2020-05-07;19:07:52;Visitado
13307530;5;BARBARA CONSTANZA DAFNE;FUENTES;BARBARACONSTANZADAFNE@GMAIL.COM;0945300108;Viaje;2020-05-08;00:19:15;Visitado
15049595;4;BARBARA CONSTANZA DAFNE;FUENTES;BARBARACONSTANZADAFNE@GMAIL.COM;0945300108;Viaje;2020-05-07;15:39:53;Visitado
13683149;6;BARBARA CONSTANZA DAFNE;FUENTES;BARBARACONSTANZADAFNE@GMAIL.COM;0945300108;Hogar Protegido;2020-05-07;08:44:14;Visitado
8532535;3;BARBARA CONSTANZA DAFNE;FUENTES;BARBARACONSTANZADAFNE@GMAIL.COM;0945300108;Hogar Protegido;2020-05-07;15:39:37;Visitado
16460516;7;BARBARA CONSTANZA DAFNE;FUENTES;BARBARACONSTANZADAFNE@GMAIL.COM;0945300108;Catastrófico Familiar;2020-05-08;01:24:36;Visitado
10835526;3;BARBARA CONSTANZA DAFNE;FUENTES;BARBARACONSTANZADAFNE@GMAIL.COM;0945300108;Vida + Devolución;2020-05-07;15:41:08;Visitado
9667388;4;BARBARA CONSTANZA DAFNE;FUENTES;BARBARACONSTANZADAFNE@GMAIL.COM;0945300108;Vacaciones Seguras;2020-05-07;15:51:58;Visitado
7262433;5;BARBARA CONSTANZA DAFNE;FUENTES;BARBARACONSTANZADAFNE@GMAIL.COM;0945300108;Vacaciones Seguras;2020-05-07;19:41:36;Visitado
15333179;0;BARBARA CONSTANZA DAFNE;FUENTES;BARBARACONSTANZADAFNE@GMAIL.COM;0945300108;Hogar Protegido;2020-05-07;12:30:35;Visitado
16998547;2;BARBARA CONSTANZA DAFNE;FUENTES;BARBARACONSTANZADAFNE@GMAIL.COM;0945300108;Hogar Protegido;2020-05-07;14:09:56;Visitado
19543445;K;BARBARA CONSTANZA DAFNE;FUENTES;BARBARACONSTANZADAFNE@GMAIL.COM;0945300108;Hogar Protegido;2020-05-08;01:27:52;Visitado
17030702;K;BARBARA CONSTANZA DAFNE;FUENTES;BARBARACONSTANZADAFNE@GMAIL.COM;0945300108;Hogar Protegido;2020-05-08;02:26:25;Visitado
14552554;3;BARBARA CONSTANZA DAFNE;FUENTES;BARBARACONSTANZADAFNE@GMAIL.COM;0945300108;Hogar Protegido;2020-05-08;03:10:40;Visitado
7470623;1;BARBARA CONSTANZA DAFNE;FUENTES;BARBARACONSTANZADAFNE@GMAIL.COM;0945300108;Hogar Protegido;2020-05-07;10:38:09;Visitado
19301556;5;BARBARA CONSTANZA DAFNE;FUENTES;BARBARACONSTANZADAFNE@GMAIL.COM;0945300108;Hogar Protegido;2020-05-07;16:54:37;Visitado
17706381;9;BARBARA CONSTANZA DAFNE;FUENTES;BARBARACONSTANZADAFNE@GMAIL.COM;0945300108;Hogar Protegido;2020-05-08;00:38:54;Visitado
19543445;K;BARBARA CONSTANZA DAFNE;FUENTES;BARBARACONSTANZADAFNE@GMAIL.COM;0945300108;Hogar Protegido;2020-05-08;01:25:07;Visitado
19543445;K;BARBARA CONSTANZA DAFNE;FUENTES;BARBARACONSTANZADAFNE@GMAIL.COM;0945300108;Hogar Protegido;2020-05-08;01:25:30;Visitado
15235357;K;BARBARA CONSTANZA DAFNE;FUENTES;BARBARACONSTANZADAFNE@GMAIL.COM;0945300108;Hogar Protegido;2020-05-07;11:57:32;Visitado
13917090;3;BARBARA CONSTANZA DAFNE;FUENTES;BARBARACONSTANZADAFNE@GMAIL.COM;0945300108;Hospitalización;2020-05-07;12:51:06;Visitado
15365909;5;BARBARA CONSTANZA DAFNE;FUENTES;BARBARACONSTANZADAFNE@GMAIL.COM;0945300108;Hogar Protegido;2020-05-07;15:39:22;Visitado
13505443;7;BARBARA CONSTANZA DAFNE;FUENTES;BARBARACONSTANZADAFNE@GMAIL.COM;0945300108;Hogar Protegido;2020-05-07;22:11:18;Visitado
12006436;3;BARBARA CONSTANZA DAFNE;FUENTES;BARBARACONSTANZADAFNE@GMAIL.COM;0945300108;Hogar Protegido;2020-05-07;23:25:42;Visitado
17706381;9;BARBARA CONSTANZA DAFNE;FUENTES;BARBARACONSTANZADAFNE@GMAIL.COM;0945300108;Hogar Protegido;2020-05-08;01:55:20;Visitado
17203644;9;BARBARA CONSTANZA DAFNE;FUENTES;BARBARACONSTANZADAFNE@GMAIL.COM;0945300108;Hogar Protegido;2020-05-07;16:45:54;Visitado
17838008;7;BARBARA CONSTANZA DAFNE;FUENTES;BARBARACONSTANZADAFNE@GMAIL.COM;0945300108;Hogar Protegido;2020-05-07;23:55:28;Visitado
10598634;3;BARBARA CONSTANZA DAFNE;FUENTES;BARBARACONSTANZADAFNE@GMAIL.COM;0945300108;Hogar Protegido;2020-05-07;17:36:00;Visitado
15825893;5;BARBARA CONSTANZA DAFNE;FUENTES;BARBARACONSTANZADAFNE@GMAIL.COM;0945300108;Hogar Protegido;2020-05-07;14:34:05;Visitado
18934293;4;BARBARA CONSTANZA DAFNE;FUENTES;BARBARACONSTANZADAFNE@GMAIL.COM;0945300108;Hogar Protegido;2020-05-07;09:40:53;Visitado
21699889;8;BARBARA CONSTANZA DAFNE;FUENTES;BARBARACONSTANZADAFNE@GMAIL.COM;0945300108;Viaje;2020-05-07;23:51:08;Visitado
17838008;7;BARBARA CONSTANZA DAFNE;FUENTES;BARBARACONSTANZADAFNE@GMAIL.COM;0945300108;Viaje;2020-05-07;23:54:20;Visitado
17590176;0;BARBARA CONSTANZA DAFNE;FUENTES;BARBARACONSTANZADAFNE@GMAIL.COM;0945300108;Hospitalización;2020-05-07;17:47:30;Visitado
17196613;2;BARBARA CONSTANZA DAFNE;FUENTES;BARBARACONSTANZADAFNE@GMAIL.COM;0945300108;Hospitalización;2020-05-07;17:52:27;Visitado
16708054;5;BARBARA CONSTANZA DAFNE;FUENTES;BARBARACONSTANZADAFNE@GMAIL.COM;0945300108;Hospitalización;2020-05-08;06:59:04;Visitado
19422483;4;BARBARA CONSTANZA DAFNE;FUENTES;BARBARACONSTANZADAFNE@GMAIL.COM;0945300108;Hospitalización;2020-05-08;01:23:56;Visitado
16378266;9;BARBARA CONSTANZA DAFNE;FUENTES;BARBARACONSTANZADAFNE@GMAIL.COM;0945300108;Hogar Protegido;2020-05-07;10:07:32;Visitado
14596315;K;BARBARA CONSTANZA DAFNE;FUENTES;BARBARACONSTANZADAFNE@GMAIL.COM;0945300108;Hospitalización;2020-05-07;23:15:34;Visitado
11485616;9;BARBARA CONSTANZA DAFNE;FUENTES;BARBARACONSTANZADAFNE@GMAIL.COM;0945300108;Hospitalización;2020-05-07;16:42:17;Visitado
25958958;4;BARBARA CONSTANZA DAFNE;FUENTES;BARBARACONSTANZADAFNE@GMAIL.COM;0945300108;Hospitalización;2020-05-07;15:17:53;Visitado
10453913;0;BARBARA CONSTANZA DAFNE;FUENTES;BARBARACONSTANZADAFNE@GMAIL.COM;0945300108;Hogar Protegido;2020-05-07;19:40:01;Visitado
17032445;5;BARBARA CONSTANZA DAFNE;FUENTES;BARBARACONSTANZADAFNE@GMAIL.COM;0945300108;Hogar Protegido;2020-05-07;13:27:15;Visitado
20432821;8;BARBARA CONSTANZA DAFNE;FUENTES;BARBARACONSTANZADAFNE@GMAIL.COM;0945300108;Hogar Protegido;2020-05-07;15:48:45;Visitado
13683149;6;BARBARA CONSTANZA DAFNE;FUENTES;BARBARACONSTANZADAFNE@GMAIL.COM;0945300108;Hogar Protegido;2020-05-07;08:30:11;Visitado
16118588;4;BARBARA CONSTANZA DAFNE;FUENTES;BARBARACONSTANZADAFNE@GMAIL.COM;0945300108;Hogar Protegido;2020-05-07;13:48:48;Visitado
13683149;6;BARBARA CONSTANZA DAFNE;FUENTES;BARBARACONSTANZADAFNE@GMAIL.COM;0945300108;Hogar Protegido;2020-05-07;08:33:40;Visitado
11862637;0;BARBARA CONSTANZA DAFNE;FUENTES;BARBARACONSTANZADAFNE@GMAIL.COM;0945300108;Hogar Protegido;2020-05-07;11:29:04;Visitado
20432821;8;BARBARA CONSTANZA DAFNE;FUENTES;BARBARACONSTANZADAFNE@GMAIL.COM;0945300108;Hogar Protegido;2020-05-07;15:48:28;Visitado
20432821;8;BARBARA CONSTANZA DAFNE;FUENTES;BARBARACONSTANZADAFNE@GMAIL.COM;0945300108;Hogar Protegido;2020-05-07;15:50:00;Visitado
13296339;8;BARBARA CONSTANZA DAFNE;FUENTES;BARBARACONSTANZADAFNE@GMAIL.COM;0945300108;Fraude;2020-05-08;00:35:39;Visitado
15898892;5;BARBARA CONSTANZA DAFNE;FUENTES;BARBARACONSTANZADAFNE@GMAIL.COM;0945300108;Fraude;2020-05-07;20:34:13;Visitado
6354595;3;BARBARA CONSTANZA DAFNE;FUENTES;BARBARACONSTANZADAFNE@GMAIL.COM;0945300108;Fraude;2020-05-07;17:56:36;Visitado
20432821;8;BARBARA CONSTANZA DAFNE;FUENTES;BARBARACONSTANZADAFNE@GMAIL.COM;0945300108;Fraude;2020-05-07;15:46:31;Visitado
20432821;8;BARBARA CONSTANZA DAFNE;FUENTES;BARBARACONSTANZADAFNE@GMAIL.COM;0945300108;Fraude;2020-05-07;15:47:50;Visitado
6377364;6;BARBARA CONSTANZA DAFNE;FUENTES;BARBARACONSTANZADAFNE@GMAIL.COM;0945300108;Fraude;2020-05-07;15:23:59;Visitado
13436053;4;BARBARA CONSTANZA DAFNE;FUENTES;BARBARACONSTANZADAFNE@GMAIL.COM;0945300108;Fraude;2020-05-07;18:38:40;Visitado
6354595;3;BARBARA CONSTANZA DAFNE;FUENTES;BARBARACONSTANZADAFNE@GMAIL.COM;0945300108;Fraude;2020-05-07;17:56:49;Visitado
18393721;9;BARBARA CONSTANZA DAFNE;FUENTES;BARBARACONSTANZADAFNE@GMAIL.COM;0945300108;Fraude;2020-05-07;10:20:09;Visitado
25460828;9;BARBARA CONSTANZA DAFNE;FUENTES;BARBARACONSTANZADAFNE@GMAIL.COM;0945300108;Fraude;2020-05-07;12:06:01;Visitado
13144601;2;BARBARA CONSTANZA DAFNE;FUENTES;BARBARACONSTANZADAFNE@GMAIL.COM;0945300108;Fraude;2020-05-07;08:22:49;Visitado
13296339;8;BARBARA CONSTANZA DAFNE;FUENTES;BARBARACONSTANZADAFNE@GMAIL.COM;0945300108;Fraude;2020-05-08;00:36:13;Visitado
13144601;2;BARBARA CONSTANZA DAFNE;FUENTES;BARBARACONSTANZADAFNE@GMAIL.COM;0945300108;Fraude;2020-05-07;08:22:29;Visitado
16378266;9;BARBARA CONSTANZA DAFNE;FUENTES;BARBARACONSTANZADAFNE@GMAIL.COM;0945300108;Fraude;2020-05-07;10:09:32;Visitado
19373646;7;BARBARA CONSTANZA DAFNE;FUENTES;BARBARACONSTANZADAFNE@GMAIL.COM;0945300108;Fraude;2020-05-07;22:18:48;Visitado
10782772;2;BARBARA CONSTANZA DAFNE;FUENTES;BARBARACONSTANZADAFNE@GMAIL.COM;0945300108;Fraude;2020-05-07;13:54:37;Visitado
17957530;2;BARBARA CONSTANZA DAFNE;FUENTES;BARBARACONSTANZADAFNE@GMAIL.COM;0945300108;Fraude;2020-05-07;13:04:08;Visitado
15898892;5;BARBARA CONSTANZA DAFNE;FUENTES;BARBARACONSTANZADAFNE@GMAIL.COM;0945300108;Fraude;2020-05-07;20:33:19;Visitado
8204017;K;BARBARA CONSTANZA DAFNE;FUENTES;BARBARACONSTANZADAFNE@GMAIL.COM;0945300108;Fraude;2020-05-07;12:22:14;Visitado
17160635;7;BARBARA CONSTANZA DAFNE;FUENTES;BARBARACONSTANZADAFNE@GMAIL.COM;0945300108;Fraude;2020-05-07;15:17:05;Visitado
15924154;8;BARBARA CONSTANZA DAFNE;FUENTES;BARBARACONSTANZADAFNE@GMAIL.COM;0945300108;Fraude;2020-05-08;04:30:18;Visitado
13144601;2;BARBARA CONSTANZA DAFNE;FUENTES;BARBARACONSTANZADAFNE@GMAIL.COM;0945300108;Fraude;2020-05-07;08:21:12;Visitado
6377364;6;BARBARA CONSTANZA DAFNE;FUENTES;BARBARACONSTANZADAFNE@GMAIL.COM;0945300108;Fraude;2020-05-07;15:22:29;Visitado
6377364;6;BARBARA CONSTANZA DAFNE;FUENTES;BARBARACONSTANZADAFNE@GMAIL.COM;0945300108;Fraude;2020-05-07;15:23:44;Visitado

