Rut;Dv;Nombre;Apellido;Email;Telefono;Nombre producto;Fecha Visualizacion;Hora;Estado
5057131;9;JUAN CARLOS;DOYHAMBERRY;jcdoyhamberry@gmail.com;0989006008;Hogar Protegido;2020-05-05;03:55:34;Sin culminar
18252779;3;XIMENA DEL CARMEN;MARCIAL;marcialximena487@gmail.com;0935438945;Protección Personal;2020-05-04;09:25:14;Sin culminar
18252779;3;XIMENA DEL CARMEN;MARCIAL;marcialximena487@gmail.com;0935438945;Protección Personal;2020-05-04;09:29:55;Sin culminar
6230121;k;ISIDRO ROBERTO;BARRA;irbarra54@gmail.com;0984251771;Catastrófico Familiar;2020-05-05;01:37:24;Sin culminar
15538029;2;RANDY ANDRES;TRUJILLO;ratrujillo06@gmail.com;0931413456;Urgencias Médicas Familiar;2020-05-04;20:51:49;Sin culminar
18252779;3;XIMENA DEL CARMEN;MARCIAL;marcialximena487@gmail.com;0935438945;Protección Personal;2020-05-04;09:22:50;Sin culminar
17404250;0;Graciela;Gamboa;gracce@gmail.com;0988994024;Viaje;2020-05-04;18:31:06;Sin culminar
15780856;7;ANGELA ISABEL;TAUCAN;ANGELA.TAUCAN@SANTANDER.CL;0966187509;Oncológico;2020-05-04;18:25:41;Sin culminar
16475082;5;MIGUEL LORGGIO;MORELLI;MMORRELLID@GMAIL.COM;0994432002;Protección Personal;2020-05-04;18:25:15;Sin culminar
9047354;9;FRANCISCO GABRIEL;CARVAJAL;fcocarvajalp@gmail.com;0993194327;Hogar Protegido;2020-05-04;18:43:02;Sin culminar
17411332;7;ANAYN ALEXANDRA;PAVEZ;gtorresweb@gmail.com;0979468347;Hogar Protegido;2020-05-04;20:30:33;Sin culminar
17411332;7;ANAYN ALEXANDRA;PAVEZ;gtorresweb@gmail.com;0979468347;Hogar Protegido;2020-05-04;20:29:09;Sin culminar
20499478;1;EVELYN ALONDRA;CERDA;evelyncerdag20@gmail.com;0937400458;Viaje larga Estadia;2020-05-04;10:24:58;Sin culminar
18252779;3;XIMENA DEL CARMEN;MARCIAL;marcialximena487@gmail.com;0935438945;Protección Personal;2020-05-04;09:48:38;Sin culminar
24438796;9;ANDREAS BORJA;JIMENEZ;andreasjimenezazcona@gmail.com;0982650354;Protección Personal;2020-05-04;11:36:09;Sin culminar
7001628;1;ANDREAS BORJA;JIMENEZ;andreasjimenezazcona@gmail.com;0982650354;Viaje;2020-05-04;17:38:49;Visitado
15538029;2;ANDREAS BORJA;JIMENEZ;andreasjimenezazcona@gmail.com;0982650354;Viaje;2020-05-04;20:51:17;Visitado
10500762;0;ANDREAS BORJA;JIMENEZ;andreasjimenezazcona@gmail.com;0982650354;Viaje;2020-05-04;12:51:53;Visitado
9289509;2;ANDREAS BORJA;JIMENEZ;andreasjimenezazcona@gmail.com;0982650354;Catastrófico Familiar;2020-05-04;17:30:48;Visitado
15538029;2;ANDREAS BORJA;JIMENEZ;andreasjimenezazcona@gmail.com;0982650354;Catastrófico Familiar;2020-05-04;20:51:48;Visitado
3707932;4;ANDREAS BORJA;JIMENEZ;andreasjimenezazcona@gmail.com;0982650354;Hogar Protegido;2020-05-04;12:25:37;Visitado
22217579;8;ANDREAS BORJA;JIMENEZ;andreasjimenezazcona@gmail.com;0982650354;Hogar Protegido;2020-05-04;09:18:49;Visitado
18133251;4;ANDREAS BORJA;JIMENEZ;andreasjimenezazcona@gmail.com;0982650354;Hogar Protegido;2020-05-04;19:20:54;Visitado
5057131;9;ANDREAS BORJA;JIMENEZ;andreasjimenezazcona@gmail.com;0982650354;Hogar Protegido;2020-05-05;03:55:34;Visitado
17411332;7;ANDREAS BORJA;JIMENEZ;andreasjimenezazcona@gmail.com;0982650354;Hogar Protegido;2020-05-04;20:29:26;Visitado
15538029;2;ANDREAS BORJA;JIMENEZ;andreasjimenezazcona@gmail.com;0982650354;Hogar Protegido;2020-05-04;20:47:10;Visitado
8849921;2;ANDREAS BORJA;JIMENEZ;andreasjimenezazcona@gmail.com;0982650354;Viaje;2020-05-04;18:31:05;Visitado
9047354;9;ANDREAS BORJA;JIMENEZ;andreasjimenezazcona@gmail.com;0982650354;Hogar Protegido;2020-05-04;18:44:12;Visitado
9289509;2;ANDREAS BORJA;JIMENEZ;andreasjimenezazcona@gmail.com;0982650354;Hogar Protegido;2020-05-04;17:38:18;Visitado
7001628;1;ANDREAS BORJA;JIMENEZ;andreasjimenezazcona@gmail.com;0982650354;Vida + Devolución;2020-05-04;17:38:03;Visitado
12811643;5;ANDREAS BORJA;JIMENEZ;andreasjimenezazcona@gmail.com;0982650354;Vida + Devolución;2020-05-04;23:38:48;Visitado
17411332;7;ANDREAS BORJA;JIMENEZ;andreasjimenezazcona@gmail.com;0982650354;Hogar Protegido;2020-05-04;20:31:02;Visitado
15538029;2;ANDREAS BORJA;JIMENEZ;andreasjimenezazcona@gmail.com;0982650354;Hogar Protegido;2020-05-04;20:53:05;Visitado
10712708;9;ANDREAS BORJA;JIMENEZ;andreasjimenezazcona@gmail.com;0982650354;Hogar Protegido;2020-05-04;16:17:35;Visitado
10332754;7;ANDREAS BORJA;JIMENEZ;andreasjimenezazcona@gmail.com;0982650354;Hogar Protegido;2020-05-04;17:12:37;Visitado
16939316;8;ANDREAS BORJA;JIMENEZ;andreasjimenezazcona@gmail.com;0982650354;Hogar Protegido;2020-05-04;18:40:27;Visitado
9047354;9;ANDREAS BORJA;JIMENEZ;andreasjimenezazcona@gmail.com;0982650354;Hogar Protegido;2020-05-04;18:38:16;Visitado
25985173;4;ANDREAS BORJA;JIMENEZ;andreasjimenezazcona@gmail.com;0982650354;Hogar Protegido;2020-05-05;00:51:17;Visitado
9047354;9;ANDREAS BORJA;JIMENEZ;andreasjimenezazcona@gmail.com;0982650354;Hogar Protegido;2020-05-04;18:43:02;Visitado
15538029;2;ANDREAS BORJA;JIMENEZ;andreasjimenezazcona@gmail.com;0982650354;Hogar Protegido;2020-05-04;20:52:48;Visitado
17213523;4;ANDREAS BORJA;JIMENEZ;andreasjimenezazcona@gmail.com;0982650354;Hogar Protegido;2020-05-04;15:41:53;Visitado
17411332;7;ANDREAS BORJA;JIMENEZ;andreasjimenezazcona@gmail.com;0982650354;Hogar Protegido;2020-05-04;20:30:33;Visitado
10278658;0;ANDREAS BORJA;JIMENEZ;andreasjimenezazcona@gmail.com;0982650354;Hogar Protegido;2020-05-05;00:05:45;Visitado
15780856;7;ANDREAS BORJA;JIMENEZ;andreasjimenezazcona@gmail.com;0982650354;Hogar Protegido;2020-05-04;18:25:27;Visitado
8849921;2;ANDREAS BORJA;JIMENEZ;andreasjimenezazcona@gmail.com;0982650354;Viaje;2020-05-04;18:26:24;Visitado
5927472;4;ANDREAS BORJA;JIMENEZ;andreasjimenezazcona@gmail.com;0982650354;Viaje;2020-05-04;22:10:26;Visitado
6230121;K;ANDREAS BORJA;JIMENEZ;andreasjimenezazcona@gmail.com;0982650354;Catastrófico Familiar;2020-05-05;01:38:26;Visitado
19942158;1;ANDREAS BORJA;JIMENEZ;andreasjimenezazcona@gmail.com;0982650354;Catastrófico Familiar;2020-05-04;22:42:21;Visitado
4431439;8;ANDREAS BORJA;JIMENEZ;andreasjimenezazcona@gmail.com;0982650354;Hogar Protegido;2020-05-04;12:14:25;Visitado
9047354;9;ANDREAS BORJA;JIMENEZ;andreasjimenezazcona@gmail.com;0982650354;Hogar Protegido;2020-05-04;18:37:05;Visitado
15966135;0;ANDREAS BORJA;JIMENEZ;andreasjimenezazcona@gmail.com;0982650354;Hogar Protegido;2020-05-04;18:47:57;Visitado
5927472;4;ANDREAS BORJA;JIMENEZ;andreasjimenezazcona@gmail.com;0982650354;Catastrófico Familiar;2020-05-04;21:53:10;Visitado
12106359;K;ANDREAS BORJA;JIMENEZ;andreasjimenezazcona@gmail.com;0982650354;Catastrófico Familiar;2020-05-04;23:33:02;Visitado
11687351;6;ANDREAS BORJA;JIMENEZ;andreasjimenezazcona@gmail.com;0982650354;Catastrófico Familiar;2020-05-04;21:27:32;Visitado
13093328;9;ANDREAS BORJA;JIMENEZ;andreasjimenezazcona@gmail.com;0982650354;Catastrófico Familiar;2020-05-05;01:21:37;Visitado
17584048;6;ANDREAS BORJA;JIMENEZ;andreasjimenezazcona@gmail.com;0982650354;Catastrófico Familiar;2020-05-04;16:28:02;Visitado
12811643;5;ANDREAS BORJA;JIMENEZ;andreasjimenezazcona@gmail.com;0982650354;Catastrófico Familiar;2020-05-04;23:38:25;Visitado
13093328;9;ANDREAS BORJA;JIMENEZ;andreasjimenezazcona@gmail.com;0982650354;Catastrófico Familiar;2020-05-05;01:19:47;Visitado
12000306;2;ANDREAS BORJA;JIMENEZ;andreasjimenezazcona@gmail.com;0982650354;Catastrófico Familiar;2020-05-04;16:03:09;Visitado
10749354;9;ANDREAS BORJA;JIMENEZ;andreasjimenezazcona@gmail.com;0982650354;Catastrófico Familiar;2020-05-04;11:49:03;Visitado
6230121;K;ANDREAS BORJA;JIMENEZ;andreasjimenezazcona@gmail.com;0982650354;Catastrófico Familiar;2020-05-05;01:37:24;Visitado
8768165;3;ANDREAS BORJA;JIMENEZ;andreasjimenezazcona@gmail.com;0982650354;Catastrófico Familiar;2020-05-04;22:44:55;Visitado
20499478;1;ANDREAS BORJA;JIMENEZ;andreasjimenezazcona@gmail.com;0982650354;Catastrófico Familiar;2020-05-04;10:48:52;Visitado
15143139;9;ANDREAS BORJA;JIMENEZ;andreasjimenezazcona@gmail.com;0982650354;Vida;2020-05-04;11:17:32;Visitado
8141259;6;ANDREAS BORJA;JIMENEZ;andreasjimenezazcona@gmail.com;0982650354;Vida;2020-05-04;11:20:37;Visitado
10983769;5;ANDREAS BORJA;JIMENEZ;andreasjimenezazcona@gmail.com;0982650354;Catastrófico Familiar;2020-05-04;10:21:05;Visitado
20499478;1;ANDREAS BORJA;JIMENEZ;andreasjimenezazcona@gmail.com;0982650354;Vida + Devolución;2020-05-04;10:22:02;Visitado
15780856;7;ANDREAS BORJA;JIMENEZ;andreasjimenezazcona@gmail.com;0982650354;Catastrófico Familiar;2020-05-04;18:20:53;Visitado
15780856;7;ANDREAS BORJA;JIMENEZ;andreasjimenezazcona@gmail.com;0982650354;Catastrófico Familiar;2020-05-04;18:25:41;Visitado
12444372;5;ANDREAS BORJA;JIMENEZ;andreasjimenezazcona@gmail.com;0982650354;Vacaciones Seguras;2020-05-05;01:15:32;Visitado
20679770;3;ANDREAS BORJA;JIMENEZ;andreasjimenezazcona@gmail.com;0982650354;Vacaciones Seguras;2020-05-05;02:25:09;Visitado
12000306;2;ANDREAS BORJA;JIMENEZ;andreasjimenezazcona@gmail.com;0982650354;Vacaciones Seguras;2020-05-04;16:01:16;Visitado
11505646;8;ANDREAS BORJA;JIMENEZ;andreasjimenezazcona@gmail.com;0982650354;Vacaciones Seguras;2020-05-04;19:58:31;Visitado
17411332;7;ANDREAS BORJA;JIMENEZ;andreasjimenezazcona@gmail.com;0982650354;Hogar Protegido;2020-05-04;20:29:08;Visitado
16046689;8;ANDREAS BORJA;JIMENEZ;andreasjimenezazcona@gmail.com;0982650354;Catastrófico Familiar;2020-05-04;21:44:41;Visitado
5057131;9;ANDREAS BORJA;JIMENEZ;andreasjimenezazcona@gmail.com;0982650354;Hogar Protegido;2020-05-05;03:52:47;Visitado
12555562;4;ANDREAS BORJA;JIMENEZ;andreasjimenezazcona@gmail.com;0982650354;Hogar Protegido;2020-05-04;11:52:32;Visitado
3707932;4;ANDREAS BORJA;JIMENEZ;andreasjimenezazcona@gmail.com;0982650354;Hogar Protegido;2020-05-04;12:32:35;Visitado
12555562;4;ANDREAS BORJA;JIMENEZ;andreasjimenezazcona@gmail.com;0982650354;Hogar Protegido;2020-05-04;13:36:06;Visitado
6859921;0;ANDREAS BORJA;JIMENEZ;andreasjimenezazcona@gmail.com;0982650354;Hogar Protegido;2020-05-04;22:40:44;Visitado
6230121;K;ANDREAS BORJA;JIMENEZ;andreasjimenezazcona@gmail.com;0982650354;Catastrófico Familiar;2020-05-05;01:31:13;Visitado
17411332;7;ANDREAS BORJA;JIMENEZ;andreasjimenezazcona@gmail.com;0982650354;Hogar Protegido;2020-05-04;20:27:12;Visitado
25707295;9;ANDREAS BORJA;JIMENEZ;andreasjimenezazcona@gmail.com;0982650354;Vida;2020-05-04;17:03:18;Visitado
17590322;4;ANDREAS BORJA;JIMENEZ;andreasjimenezazcona@gmail.com;0982650354;Hogar Protegido;2020-05-04;10:52:36;Visitado
6859921;0;ANDREAS BORJA;JIMENEZ;andreasjimenezazcona@gmail.com;0982650354;Hogar Protegido;2020-05-04;22:35:39;Visitado
20499478;1;ANDREAS BORJA;JIMENEZ;andreasjimenezazcona@gmail.com;0982650354;Vida + Devolución;2020-05-04;10:23:37;Visitado
17368050;3;ANDREAS BORJA;JIMENEZ;andreasjimenezazcona@gmail.com;0982650354;Vacaciones Seguras;2020-05-04;23:29:35;Visitado
5057131;9;ANDREAS BORJA;JIMENEZ;andreasjimenezazcona@gmail.com;0982650354;Hogar Protegido;2020-05-05;03:56:47;Visitado
7414588;4;ANDREAS BORJA;JIMENEZ;andreasjimenezazcona@gmail.com;0982650354;Catastrófico Familiar;2020-05-04;11:48:19;Visitado
9858343;2;ANDREAS BORJA;JIMENEZ;andreasjimenezazcona@gmail.com;0982650354;Catastrófico Familiar;2020-05-04;11:59:11;Visitado
7989655;1;ANDREAS BORJA;JIMENEZ;andreasjimenezazcona@gmail.com;0982650354;Catastrófico Familiar;2020-05-04;22:00:45;Visitado
6859921;0;ANDREAS BORJA;JIMENEZ;andreasjimenezazcona@gmail.com;0982650354;Catastrófico Familiar;2020-05-04;22:29:21;Visitado
20499478;1;ANDREAS BORJA;JIMENEZ;andreasjimenezazcona@gmail.com;0982650354;Vida + Devolución;2020-05-04;10:24:58;Visitado
9289509;2;ANDREAS BORJA;JIMENEZ;andreasjimenezazcona@gmail.com;0982650354;Catastrófico Familiar;2020-05-04;17:18:16;Visitado
10500762;0;ANDREAS BORJA;JIMENEZ;andreasjimenezazcona@gmail.com;0982650354;Catastrófico Familiar;2020-05-04;13:00:00;Visitado
16671631;4;ANDREAS BORJA;JIMENEZ;andreasjimenezazcona@gmail.com;0982650354;Catastrófico Familiar;2020-05-04;15:32:55;Visitado
7001628;1;ANDREAS BORJA;JIMENEZ;andreasjimenezazcona@gmail.com;0982650354;Vacaciones Seguras;2020-05-04;17:40:17;Visitado
24438796;9;ANDREAS BORJA;JIMENEZ;andreasjimenezazcona@gmail.com;0982650354;Vacaciones Seguras;2020-05-04;11:36:55;Visitado
15362528;K;ANDREAS BORJA;JIMENEZ;andreasjimenezazcona@gmail.com;0982650354;Fraude;2020-05-04;20:10:56;Visitado
18252779;3;ANDREAS BORJA;JIMENEZ;andreasjimenezazcona@gmail.com;0982650354;Fraude;2020-05-04;09:49:09;Visitado
16475082;5;ANDREAS BORJA;JIMENEZ;andreasjimenezazcona@gmail.com;0982650354;Fraude;2020-05-04;18:24:52;Visitado
10279696;9;ANDREAS BORJA;JIMENEZ;andreasjimenezazcona@gmail.com;0982650354;Fraude;2020-05-04;12:49:02;Visitado
10279696;9;ANDREAS BORJA;JIMENEZ;andreasjimenezazcona@gmail.com;0982650354;Fraude;2020-05-04;12:53:56;Visitado
26063251;5;ANDREAS BORJA;JIMENEZ;andreasjimenezazcona@gmail.com;0982650354;Fraude;2020-05-04;17:24:21;Visitado
17213523;4;ANDREAS BORJA;JIMENEZ;andreasjimenezazcona@gmail.com;0982650354;Fraude;2020-05-04;15:43:15;Visitado
16475082;5;ANDREAS BORJA;JIMENEZ;andreasjimenezazcona@gmail.com;0982650354;Fraude;2020-05-04;18:25:14;Visitado
5927472;4;ANDREAS BORJA;JIMENEZ;andreasjimenezazcona@gmail.com;0982650354;Fraude;2020-05-04;22:09:27;Visitado
18252779;3;ANDREAS BORJA;JIMENEZ;andreasjimenezazcona@gmail.com;0982650354;Fraude;2020-05-04;09:48:37;Visitado
18252779;3;ANDREAS BORJA;JIMENEZ;andreasjimenezazcona@gmail.com;0982650354;Fraude;2020-05-04;09:26:12;Visitado
19073945;7;ANDREAS BORJA;JIMENEZ;andreasjimenezazcona@gmail.com;0982650354;Fraude;2020-05-04;21:47:08;Visitado
24438796;9;ANDREAS BORJA;JIMENEZ;andreasjimenezazcona@gmail.com;0982650354;Fraude;2020-05-04;11:37:21;Visitado
18252779;3;ANDREAS BORJA;JIMENEZ;andreasjimenezazcona@gmail.com;0982650354;Fraude;2020-05-04;09:25:14;Visitado
18252779;3;ANDREAS BORJA;JIMENEZ;andreasjimenezazcona@gmail.com;0982650354;Fraude;2020-05-04;09:29:54;Visitado
18252779;3;ANDREAS BORJA;JIMENEZ;andreasjimenezazcona@gmail.com;0982650354;Fraude;2020-05-04;09:30:58;Visitado
12825699;7;ANDREAS BORJA;JIMENEZ;andreasjimenezazcona@gmail.com;0982650354;Fraude;2020-05-04;22:31:51;Visitado
20036673;5;ANDREAS BORJA;JIMENEZ;andreasjimenezazcona@gmail.com;0982650354;Fraude;2020-05-05;03:13:37;Visitado
18252779;3;ANDREAS BORJA;JIMENEZ;andreasjimenezazcona@gmail.com;0982650354;Fraude;2020-05-04;09:25:08;Visitado
24438796;9;ANDREAS BORJA;JIMENEZ;andreasjimenezazcona@gmail.com;0982650354;Fraude;2020-05-04;11:18:43;Visitado
11985945;K;ANDREAS BORJA;JIMENEZ;andreasjimenezazcona@gmail.com;0982650354;Fraude;2020-05-04;22:09:17;Visitado
18252779;3;ANDREAS BORJA;JIMENEZ;andreasjimenezazcona@gmail.com;0982650354;Fraude;2020-05-04;09:22:12;Visitado
18252779;3;ANDREAS BORJA;JIMENEZ;andreasjimenezazcona@gmail.com;0982650354;Fraude;2020-05-04;09:22:50;Visitado
20679770;3;ANDREAS BORJA;JIMENEZ;andreasjimenezazcona@gmail.com;0982650354;Fraude;2020-05-05;02:22:50;Visitado
18570423;8;ANDREAS BORJA;JIMENEZ;andreasjimenezazcona@gmail.com;0982650354;Fraude;2020-05-04;14:48:29;Visitado
18252779;3;ANDREAS BORJA;JIMENEZ;andreasjimenezazcona@gmail.com;0982650354;Fraude;2020-05-04;09:29:13;Visitado
17313350;2;ANDREAS BORJA;JIMENEZ;andreasjimenezazcona@gmail.com;0982650354;Fraude;2020-05-04;14:05:25;Visitado
18252779;3;ANDREAS BORJA;JIMENEZ;andreasjimenezazcona@gmail.com;0982650354;Fraude;2020-05-04;09:48:22;Visitado
18382082;6;ANDREAS BORJA;JIMENEZ;andreasjimenezazcona@gmail.com;0982650354;Fraude;2020-05-04;21:16:43;Visitado
20417469;5;ANDREAS BORJA;JIMENEZ;andreasjimenezazcona@gmail.com;0982650354;Fraude;2020-05-04;16:18:27;Visitado
24438796;9;ANDREAS BORJA;JIMENEZ;andreasjimenezazcona@gmail.com;0982650354;Fraude;2020-05-04;11:34:21;Visitado
17552833;4;ANDREAS BORJA;JIMENEZ;andreasjimenezazcona@gmail.com;0982650354;Fraude;2020-05-04;17:39:11;Visitado
24438796;9;ANDREAS BORJA;JIMENEZ;andreasjimenezazcona@gmail.com;0982650354;Fraude;2020-05-04;11:36:09;Visitado

