Rut;Dv;Nombre;Apellido;Email;Telefono;Nombre producto;Fecha Visualizacion;Hora;Estado
13050593;7;NELSON;RUZ;NELSONVISION12345@GMAIL.COM;0991022582;Accidentes con Asistencia Dental;2020-05-09;10:35:35;Sin culminar
6242476;1;Pilar Antonia;Lazcano;pilarlazcano@yahoo.es;0992764876;Catastrófico Individual;2020-05-09;17:15:36;Sin culminar
7107142;1;GABRIEL ALEJANDRO;MOSSO;gmossogomez@gmail.com;0945159669;Hospitalización;2020-05-09;11:43:32;Sin culminar
13436053;4;CAROLINE ALEJANDRA;VIGAS;Caritovigas@gmail.com;0994791968;Protección Personal;2020-05-09;22:16:57;Sin culminar
26342014;4;KATIA;BRAZ;KATIA.BRAZ@HOTMAIL.COM;0932316869;Hospitalización;2020-05-09;18:31:02;Sin culminar
17494194;7;VERONICA ANDREA;ARAYA;varayao@uc.cl;0977063107;Urgencias Médicas Familiar;2020-05-10;05:26:56;Sin culminar
16125682;k;FELIPE ALEJANDRO;RIVERA;felipe.rivera@vtr.cl;0963711500;Hogar Protegido;2020-05-09;20:00:21;Sin culminar
19607987;4;FELIPE ALEJANDRO;RIVERA;felipe.rivera@vtr.cl;0963711500;Vacaciones Seguras;2020-05-09;09:04:04;Visitado
18928228;1;FELIPE ALEJANDRO;RIVERA;felipe.rivera@vtr.cl;0963711500;Vida + Devolución;2020-05-09;09:57:13;Visitado
15640178;1;FELIPE ALEJANDRO;RIVERA;felipe.rivera@vtr.cl;0963711500;Catastrófico Familiar;2020-05-09;09:23:04;Visitado
13050593;7;FELIPE ALEJANDRO;RIVERA;felipe.rivera@vtr.cl;0963711500;Catastrófico Familiar;2020-05-09;10:35:34;Visitado
25212000;9;FELIPE ALEJANDRO;RIVERA;felipe.rivera@vtr.cl;0963711500;Hospitalización;2020-05-09;08:50:59;Visitado
26326030;9;FELIPE ALEJANDRO;RIVERA;felipe.rivera@vtr.cl;0963711500;Hospitalización;2020-05-09;18:16:21;Visitado
16708054;5;FELIPE ALEJANDRO;RIVERA;felipe.rivera@vtr.cl;0963711500;Hospitalización;2020-05-10;07:00:51;Visitado
14007006;8;FELIPE ALEJANDRO;RIVERA;felipe.rivera@vtr.cl;0963711500;Hospitalización;2020-05-09;14:16:37;Visitado
26342014;4;FELIPE ALEJANDRO;RIVERA;felipe.rivera@vtr.cl;0963711500;Hospitalización;2020-05-09;18:29:30;Visitado
17494194;7;FELIPE ALEJANDRO;RIVERA;felipe.rivera@vtr.cl;0963711500;Hospitalización;2020-05-10;05:25:12;Visitado
12194231;3;FELIPE ALEJANDRO;RIVERA;felipe.rivera@vtr.cl;0963711500;Hogar Protegido;2020-05-09;20:10:39;Visitado
14745783;9;FELIPE ALEJANDRO;RIVERA;felipe.rivera@vtr.cl;0963711500;Hogar Protegido;2020-05-09;22:30:35;Visitado
10923255;6;FELIPE ALEJANDRO;RIVERA;felipe.rivera@vtr.cl;0963711500;Vida + Devolución;2020-05-09;20:14:31;Visitado
16125682;K;FELIPE ALEJANDRO;RIVERA;felipe.rivera@vtr.cl;0963711500;Hogar Protegido;2020-05-09;19:59:37;Visitado
17494194;7;FELIPE ALEJANDRO;RIVERA;felipe.rivera@vtr.cl;0963711500;Hogar Protegido;2020-05-10;05:26:56;Visitado
24403573;6;FELIPE ALEJANDRO;RIVERA;felipe.rivera@vtr.cl;0963711500;Hogar Protegido;2020-05-09;10:58:42;Visitado
25933488;8;FELIPE ALEJANDRO;RIVERA;felipe.rivera@vtr.cl;0963711500;Hogar Protegido;2020-05-09;12:37:03;Visitado
16125682;K;FELIPE ALEJANDRO;RIVERA;felipe.rivera@vtr.cl;0963711500;Hogar Protegido;2020-05-09;20:06:55;Visitado
16125682;K;FELIPE ALEJANDRO;RIVERA;felipe.rivera@vtr.cl;0963711500;Hogar Protegido;2020-05-09;20:07:28;Visitado
18997798;0;FELIPE ALEJANDRO;RIVERA;felipe.rivera@vtr.cl;0963711500;Hospitalización;2020-05-09;15:17:57;Visitado
5838508;5;FELIPE ALEJANDRO;RIVERA;felipe.rivera@vtr.cl;0963711500;Hospitalización;2020-05-09;15:22:55;Visitado
14427643;4;FELIPE ALEJANDRO;RIVERA;felipe.rivera@vtr.cl;0963711500;Hogar Protegido;2020-05-10;00:37:48;Visitado
16708054;5;FELIPE ALEJANDRO;RIVERA;felipe.rivera@vtr.cl;0963711500;Hogar Protegido;2020-05-09;10:12:02;Visitado
7107142;1;FELIPE ALEJANDRO;RIVERA;felipe.rivera@vtr.cl;0963711500;Hogar Protegido;2020-05-09;11:36:20;Visitado
26342014;4;FELIPE ALEJANDRO;RIVERA;felipe.rivera@vtr.cl;0963711500;Hospitalización;2020-05-09;18:31:01;Visitado
25212000;9;FELIPE ALEJANDRO;RIVERA;felipe.rivera@vtr.cl;0963711500;Catastrófico Familiar;2020-05-09;08:49:22;Visitado
25212000;9;FELIPE ALEJANDRO;RIVERA;felipe.rivera@vtr.cl;0963711500;Hospitalización;2020-05-09;09:24:23;Visitado
5838508;5;FELIPE ALEJANDRO;RIVERA;felipe.rivera@vtr.cl;0963711500;Hospitalización;2020-05-09;19:42:20;Visitado
13196039;5;FELIPE ALEJANDRO;RIVERA;felipe.rivera@vtr.cl;0963711500;Hospitalización;2020-05-09;17:59:24;Visitado
14228398;0;FELIPE ALEJANDRO;RIVERA;felipe.rivera@vtr.cl;0963711500;Vida + Devolución;2020-05-09;18:00:20;Visitado
14748675;8;FELIPE ALEJANDRO;RIVERA;felipe.rivera@vtr.cl;0963711500;Vida + Devolución;2020-05-09;20:36:52;Visitado
14228398;0;FELIPE ALEJANDRO;RIVERA;felipe.rivera@vtr.cl;0963711500;Vida + Devolución;2020-05-09;17:56:53;Visitado
17031779;3;FELIPE ALEJANDRO;RIVERA;felipe.rivera@vtr.cl;0963711500;Vida + Devolución;2020-05-09;13:22:22;Visitado
16708054;5;FELIPE ALEJANDRO;RIVERA;felipe.rivera@vtr.cl;0963711500;Vida + Devolución;2020-05-09;10:00:25;Visitado
13408781;1;FELIPE ALEJANDRO;RIVERA;felipe.rivera@vtr.cl;0963711500;Vida + Devolución;2020-05-09;14:37:52;Visitado
10564821;9;FELIPE ALEJANDRO;RIVERA;felipe.rivera@vtr.cl;0963711500;Vida + Devolución;2020-05-09;17:15:35;Visitado
18423735;0;FELIPE ALEJANDRO;RIVERA;felipe.rivera@vtr.cl;0963711500;Catastrófico Familiar;2020-05-09;19:05:01;Visitado
14748675;8;FELIPE ALEJANDRO;RIVERA;felipe.rivera@vtr.cl;0963711500;Vida + Devolución;2020-05-09;20:37:00;Visitado
25212000;9;FELIPE ALEJANDRO;RIVERA;felipe.rivera@vtr.cl;0963711500;Hogar Protegido;2020-05-09;09:34:55;Visitado
7107142;1;FELIPE ALEJANDRO;RIVERA;felipe.rivera@vtr.cl;0963711500;Catastrófico Familiar;2020-05-09;11:37:57;Visitado
10564821;9;FELIPE ALEJANDRO;RIVERA;felipe.rivera@vtr.cl;0963711500;Catastrófico Familiar;2020-05-09;17:17:39;Visitado
6552713;8;FELIPE ALEJANDRO;RIVERA;felipe.rivera@vtr.cl;0963711500;Hogar Protegido;2020-05-09;23:13:38;Visitado
10564821;9;FELIPE ALEJANDRO;RIVERA;felipe.rivera@vtr.cl;0963711500;Hogar Protegido;2020-05-09;17:12:31;Visitado
27097984;K;FELIPE ALEJANDRO;RIVERA;felipe.rivera@vtr.cl;0963711500;Catastrófico Familiar;2020-05-09;22:02:56;Visitado
16650475;9;FELIPE ALEJANDRO;RIVERA;felipe.rivera@vtr.cl;0963711500;Catastrófico Familiar;2020-05-09;10:29:31;Visitado
13050593;7;FELIPE ALEJANDRO;RIVERA;felipe.rivera@vtr.cl;0963711500;Catastrófico Familiar;2020-05-09;10:33:33;Visitado
13408781;1;FELIPE ALEJANDRO;RIVERA;felipe.rivera@vtr.cl;0963711500;Hospitalización;2020-05-09;14:36:59;Visitado
10039891;5;FELIPE ALEJANDRO;RIVERA;felipe.rivera@vtr.cl;0963711500;Hogar Protegido;2020-05-09;10:46:13;Visitado
7107142;1;FELIPE ALEJANDRO;RIVERA;felipe.rivera@vtr.cl;0963711500;Hospitalización;2020-05-09;11:39:19;Visitado
7107142;1;FELIPE ALEJANDRO;RIVERA;felipe.rivera@vtr.cl;0963711500;Hospitalización;2020-05-09;11:43:31;Visitado
25698439;3;FELIPE ALEJANDRO;RIVERA;felipe.rivera@vtr.cl;0963711500;Viaje;2020-05-09;10:09:17;Visitado
16708054;5;FELIPE ALEJANDRO;RIVERA;felipe.rivera@vtr.cl;0963711500;Viaje;2020-05-09;09:55:07;Visitado
10564821;9;FELIPE ALEJANDRO;RIVERA;felipe.rivera@vtr.cl;0963711500;Viaje;2020-05-09;17:09:15;Visitado
26326030;9;FELIPE ALEJANDRO;RIVERA;felipe.rivera@vtr.cl;0963711500;Hospitalización;2020-05-09;18:16:45;Visitado
6603852;1;FELIPE ALEJANDRO;RIVERA;felipe.rivera@vtr.cl;0963711500;Catastrófico Familiar;2020-05-09;09:21:09;Visitado
13050593;7;FELIPE ALEJANDRO;RIVERA;felipe.rivera@vtr.cl;0963711500;Catastrófico Familiar;2020-05-09;10:36:49;Visitado
17031779;3;FELIPE ALEJANDRO;RIVERA;felipe.rivera@vtr.cl;0963711500;Catastrófico Familiar;2020-05-09;13:20:44;Visitado
16139256;1;FELIPE ALEJANDRO;RIVERA;felipe.rivera@vtr.cl;0963711500;Hogar Protegido;2020-05-09;15:10:27;Visitado
16125682;K;FELIPE ALEJANDRO;RIVERA;felipe.rivera@vtr.cl;0963711500;Hogar Protegido;2020-05-09;20:00:20;Visitado
16125682;K;FELIPE ALEJANDRO;RIVERA;felipe.rivera@vtr.cl;0963711500;Hogar Protegido;2020-05-09;20:02:00;Visitado
9201434;7;FELIPE ALEJANDRO;RIVERA;felipe.rivera@vtr.cl;0963711500;Hogar Protegido;2020-05-09;18:51:05;Visitado
13196039;5;FELIPE ALEJANDRO;RIVERA;felipe.rivera@vtr.cl;0963711500;Hogar Protegido;2020-05-09;17:56:06;Visitado
16501148;1;FELIPE ALEJANDRO;RIVERA;felipe.rivera@vtr.cl;0963711500;Hogar Protegido;2020-05-09;16:27:38;Visitado
14745783;9;FELIPE ALEJANDRO;RIVERA;felipe.rivera@vtr.cl;0963711500;Hogar Protegido;2020-05-09;22:29:46;Visitado
26342014;4;FELIPE ALEJANDRO;RIVERA;felipe.rivera@vtr.cl;0963711500;Hospitalización;2020-05-09;18:31:17;Visitado
25212000;9;FELIPE ALEJANDRO;RIVERA;felipe.rivera@vtr.cl;0963711500;Catastrófico Familiar;2020-05-09;09:23:46;Visitado
7107142;1;FELIPE ALEJANDRO;RIVERA;felipe.rivera@vtr.cl;0963711500;Hospitalización;2020-05-09;11:43:05;Visitado
16906088;6;FELIPE ALEJANDRO;RIVERA;felipe.rivera@vtr.cl;0963711500;Fraude;2020-05-09;10:03:30;Visitado
17383254;0;FELIPE ALEJANDRO;RIVERA;felipe.rivera@vtr.cl;0963711500;Fraude;2020-05-09;22:02:46;Visitado
20192139;2;FELIPE ALEJANDRO;RIVERA;felipe.rivera@vtr.cl;0963711500;Fraude;2020-05-09;21:41:59;Visitado
13050593;7;FELIPE ALEJANDRO;RIVERA;felipe.rivera@vtr.cl;0963711500;Fraude;2020-05-09;10:32:15;Visitado
11946281;9;FELIPE ALEJANDRO;RIVERA;felipe.rivera@vtr.cl;0963711500;Fraude;2020-05-09;21:46:26;Visitado
26096738;K;FELIPE ALEJANDRO;RIVERA;felipe.rivera@vtr.cl;0963711500;Fraude;2020-05-10;00:47:10;Visitado
24827882;K;FELIPE ALEJANDRO;RIVERA;felipe.rivera@vtr.cl;0963711500;Fraude;2020-05-09;11:29:27;Visitado
13436053;4;FELIPE ALEJANDRO;RIVERA;felipe.rivera@vtr.cl;0963711500;Fraude;2020-05-09;22:15:31;Visitado
26846898;6;FELIPE ALEJANDRO;RIVERA;felipe.rivera@vtr.cl;0963711500;Fraude;2020-05-09;10:00:11;Visitado
13436053;4;FELIPE ALEJANDRO;RIVERA;felipe.rivera@vtr.cl;0963711500;Fraude;2020-05-09;22:16:56;Visitado
9920495;8;FELIPE ALEJANDRO;RIVERA;felipe.rivera@vtr.cl;0963711500;Fraude;2020-05-09;21:41:49;Visitado
15307125;K;FELIPE ALEJANDRO;RIVERA;felipe.rivera@vtr.cl;0963711500;Fraude;2020-05-09;21:29:41;Visitado

