Rut;Dv;Nombre;Apellido;Email;Telefono;Nombre producto;Fecha Visualizacion;Hora;Estado
25814506;2;JUAN SEBASTIAN;OCAMPO;JUANSE.OCAMPO@SPECIALIZED.COM;0940046521;Hogar Protegido;2020-05-01;01:41:05;Sin culminar
15965296;3;PAULINA ALEJANDRA;PEREZ;xaskita28@gmail.com;0932320098;Protección Personal;2020-04-30;08:28:24;Sin culminar
18933826;0;JAVIERA ANDREA;DOMINGUEZ;JAVIERA.DOMINGUEZ@MAYOR.CL;0978329056;Viaje larga Estadia;2020-04-30;13:13:13;Sin culminar
12616965;5;MIGUEL EDUARDO;ROJAS;MROJAS@COLLAHUASI.CL;0982307867;Hogar Protegido;2020-04-30;12:49:30;Sin culminar
14345096;1;ELISA DEL CARMEN;ALARCON;EDCAM_COTY@HOTMAIL.COM;712246679;Hogar Protegido;2020-04-30;11:25:39;Sin culminar
7389703;3;DOMINGO ANTONIO;PRATS;dpr_1954@hotmail.com;412312916;Hogar Protegido;2020-04-30;12:23:18;Sin culminar
6498207;9;MARIA MERCEDES;DUCCI;MERCEDES.DUCCI@GMAIL.COM;0982494825;Hospitalización;2020-04-30;14:57:41;Sin culminar
7389703;3;DOMINGO ANTONIO;PRATS;dpr_1954@hotmail.com;412312916;Hogar Protegido;2020-04-30;12:25:50;Sin culminar
16564384;4;CLAUDIO ANTONIO;ITURRA;claudioiturra87@gmail.com;0962465298;Protección Personal;2020-04-30;10:38:48;Sin culminar
17089265;8;CAMILA;CERCOS;CAMICERCOS@GMAIL.COM;0977949936;Hogar Protegido;2020-04-30;16:19:08;Sin culminar
19112120;1;CRISTOBAL MIGUEL;DIAZ;cristobaldiazdy@gmail.com;0986947224;Protección Personal;2020-04-30;12:26:36;Sin culminar
8632511;k;LUIS CHRISTIAN;SOBARZO;ebenezeroficina@gmail.com;0229953515;Urgencias Médicas Familiar;2020-04-30;14:47:21;Sin culminar
18145607;8;Pablo;ROJAS;gestion@fellay.cl;0996381504;Catastrófico Individual;2020-04-30;16:15:12;Sin culminar
18629156;5;NICOLE ANDREA;LOPEZ;NLOPEZMENDEZ.94@GMAIL.COM;0985408794;Accidentes con Asistencia Dental;2020-04-30;11:33:38;Sin culminar
5057131;9;JUAN CARLOS;DOYHAMBERRY;jcdoyhamberry@gmail.com;0227614299;Hogar Protegido;2020-04-30;13:04:59;Sin culminar
17777914;8;FRANCISCA MACARENA;SALINAS;FRANCISCASALINAS125@GMAIL.COM;0963546720;Accidentes con Asistencia Dental;2020-04-30;13:55:35;Sin culminar
7578815;0;MIGUEL ANGEL;CANCINO;miguelcancinoster@gmail.com;0225419283;Hogar Protegido;2020-04-30;10:41:46;Sin culminar
13442803;1;LUIS FERNANDO;BASCUR;luis.bascur@mallplaza.com;0966567899;Hogar Protegido;2020-04-30;15:29:21;Sin culminar
9483160;1;HERIBERTO DEL CARMEN;LOPEZ;HLOPEZC7@YAHOO.ES;0984808686;Oncológico;2020-04-30;21:59:14;Sin culminar
7389703;3;DOMINGO ANTONIO;PRATS;dpr_1954@hotmail.com;412312916;Hogar Protegido;2020-04-30;12:37:24;Sin culminar
15771155;5;DOMINGO ANTONIO;PRATS;dpr_1954@hotmail.com;412312916;Hogar Protegido;2020-04-30;10:07:26;Visitado
14345096;1;DOMINGO ANTONIO;PRATS;dpr_1954@hotmail.com;412312916;Hogar Protegido;2020-04-30;11:25:39;Visitado
9409762;2;DOMINGO ANTONIO;PRATS;dpr_1954@hotmail.com;412312916;Hogar Protegido;2020-04-30;14:09:09;Visitado
11700991;2;DOMINGO ANTONIO;PRATS;dpr_1954@hotmail.com;412312916;Viaje;2020-04-30;20:02:32;Visitado
8450217;0;DOMINGO ANTONIO;PRATS;dpr_1954@hotmail.com;412312916;Viaje;2020-04-30;23:11:25;Visitado
7813609;K;DOMINGO ANTONIO;PRATS;dpr_1954@hotmail.com;412312916;Viaje;2020-04-30;12:36:05;Visitado
10371218;1;DOMINGO ANTONIO;PRATS;dpr_1954@hotmail.com;412312916;Hogar Protegido;2020-04-30;09:09:27;Visitado
18339802;4;DOMINGO ANTONIO;PRATS;dpr_1954@hotmail.com;412312916;Hogar Protegido;2020-04-30;16:49:58;Visitado
13860737;2;DOMINGO ANTONIO;PRATS;dpr_1954@hotmail.com;412312916;Hogar Protegido;2020-04-30;23:34:47;Visitado
18933826;0;DOMINGO ANTONIO;PRATS;dpr_1954@hotmail.com;412312916;Vida + Devolución;2020-04-30;13:13:12;Visitado
9748603;4;DOMINGO ANTONIO;PRATS;dpr_1954@hotmail.com;412312916;Hogar Protegido;2020-04-30;15:08:07;Visitado
15693991;9;DOMINGO ANTONIO;PRATS;dpr_1954@hotmail.com;412312916;Hogar Protegido;2020-04-30;15:49:03;Visitado
16804910;2;DOMINGO ANTONIO;PRATS;dpr_1954@hotmail.com;412312916;Hospitalización;2020-04-30;21:27:08;Visitado
10817160;K;DOMINGO ANTONIO;PRATS;dpr_1954@hotmail.com;412312916;Catastrófico Familiar;2020-04-30;22:04:54;Visitado
15693990;0;DOMINGO ANTONIO;PRATS;dpr_1954@hotmail.com;412312916;Hogar Protegido;2020-04-30;09:34:45;Visitado
9858659;8;DOMINGO ANTONIO;PRATS;dpr_1954@hotmail.com;412312916;Hogar Protegido;2020-04-30;16:22:51;Visitado
9396864;6;DOMINGO ANTONIO;PRATS;dpr_1954@hotmail.com;412312916;Hogar Protegido;2020-05-01;06:55:05;Visitado
22961830;K;DOMINGO ANTONIO;PRATS;dpr_1954@hotmail.com;412312916;Hogar Protegido;2020-04-30;12:24:36;Visitado
15820484;3;DOMINGO ANTONIO;PRATS;dpr_1954@hotmail.com;412312916;Hogar Protegido;2020-04-30;18:43:49;Visitado
17687722;7;DOMINGO ANTONIO;PRATS;dpr_1954@hotmail.com;412312916;Hogar Protegido;2020-04-30;21:45:53;Visitado
7050861;3;DOMINGO ANTONIO;PRATS;dpr_1954@hotmail.com;412312916;Hogar Protegido;2020-04-30;09:44:18;Visitado
5598505;7;DOMINGO ANTONIO;PRATS;dpr_1954@hotmail.com;412312916;Hogar Protegido;2020-04-30;14:39:16;Visitado
7389703;3;DOMINGO ANTONIO;PRATS;dpr_1954@hotmail.com;412312916;Hogar Protegido;2020-04-30;12:25:18;Visitado
12403634;8;DOMINGO ANTONIO;PRATS;dpr_1954@hotmail.com;412312916;Hogar Protegido;2020-04-30;12:52:13;Visitado
13242147;1;DOMINGO ANTONIO;PRATS;dpr_1954@hotmail.com;412312916;Hogar Protegido;2020-05-01;02:03:16;Visitado
17251778;1;DOMINGO ANTONIO;PRATS;dpr_1954@hotmail.com;412312916;Hogar Protegido;2020-05-01;01:58:27;Visitado
7389703;3;DOMINGO ANTONIO;PRATS;dpr_1954@hotmail.com;412312916;Hogar Protegido;2020-04-30;12:25:50;Visitado
10813565;4;DOMINGO ANTONIO;PRATS;dpr_1954@hotmail.com;412312916;Hogar Protegido;2020-04-30;20:03:16;Visitado
7578815;0;DOMINGO ANTONIO;PRATS;dpr_1954@hotmail.com;412312916;Hogar Protegido;2020-04-30;10:41:57;Visitado
5786673;K;DOMINGO ANTONIO;PRATS;dpr_1954@hotmail.com;412312916;Hogar Protegido;2020-04-30;13:42:01;Visitado
14345096;1;DOMINGO ANTONIO;PRATS;dpr_1954@hotmail.com;412312916;Hogar Protegido;2020-04-30;11:24:37;Visitado
15315288;8;DOMINGO ANTONIO;PRATS;dpr_1954@hotmail.com;412312916;Hogar Protegido;2020-04-30;13:48:00;Visitado
17687722;7;DOMINGO ANTONIO;PRATS;dpr_1954@hotmail.com;412312916;Hogar Protegido;2020-04-30;21:45:15;Visitado
17089265;8;DOMINGO ANTONIO;PRATS;dpr_1954@hotmail.com;412312916;Hogar Protegido;2020-04-30;16:19:08;Visitado
13006929;0;DOMINGO ANTONIO;PRATS;dpr_1954@hotmail.com;412312916;Vacaciones Seguras;2020-04-30;19:29:22;Visitado
6498207;9;DOMINGO ANTONIO;PRATS;dpr_1954@hotmail.com;412312916;Hospitalización;2020-04-30;14:56:42;Visitado
15726375;7;DOMINGO ANTONIO;PRATS;dpr_1954@hotmail.com;412312916;Hospitalización;2020-04-30;14:56:46;Visitado
25814506;2;DOMINGO ANTONIO;PRATS;dpr_1954@hotmail.com;412312916;Hogar Protegido;2020-05-01;01:38:38;Visitado
5057131;9;DOMINGO ANTONIO;PRATS;dpr_1954@hotmail.com;412312916;Hogar Protegido;2020-04-30;13:01:31;Visitado
18933826;0;DOMINGO ANTONIO;PRATS;dpr_1954@hotmail.com;412312916;Vida + Devolución;2020-04-30;13:13:33;Visitado
10985595;2;DOMINGO ANTONIO;PRATS;dpr_1954@hotmail.com;412312916;Vida;2020-04-30;14:12:28;Visitado
13006929;0;DOMINGO ANTONIO;PRATS;dpr_1954@hotmail.com;412312916;Vacaciones Seguras;2020-04-30;09:43:39;Visitado
7389703;3;DOMINGO ANTONIO;PRATS;dpr_1954@hotmail.com;412312916;Hogar Protegido;2020-04-30;12:36:23;Visitado
8632511;K;DOMINGO ANTONIO;PRATS;dpr_1954@hotmail.com;412312916;Hogar Protegido;2020-04-30;14:45:01;Visitado
8632511;K;DOMINGO ANTONIO;PRATS;dpr_1954@hotmail.com;412312916;Hogar Protegido;2020-04-30;14:47:38;Visitado
26885087;2;DOMINGO ANTONIO;PRATS;dpr_1954@hotmail.com;412312916;Hogar Protegido;2020-04-30;08:50:09;Visitado
16064490;7;DOMINGO ANTONIO;PRATS;dpr_1954@hotmail.com;412312916;Viaje;2020-04-30;10:54:44;Visitado
7044602;2;DOMINGO ANTONIO;PRATS;dpr_1954@hotmail.com;412312916;Vacaciones Seguras;2020-04-30;12:00:36;Visitado
8632511;K;DOMINGO ANTONIO;PRATS;dpr_1954@hotmail.com;412312916;Vacaciones Seguras;2020-04-30;14:47:20;Visitado
10924209;8;DOMINGO ANTONIO;PRATS;dpr_1954@hotmail.com;412312916;Hogar Protegido;2020-04-30;15:20:47;Visitado
16228414;2;DOMINGO ANTONIO;PRATS;dpr_1954@hotmail.com;412312916;Catastrófico Familiar;2020-04-30;19:46:04;Visitado
10727812;5;DOMINGO ANTONIO;PRATS;dpr_1954@hotmail.com;412312916;Catastrófico Familiar;2020-04-30;21:59:46;Visitado
11625587;1;DOMINGO ANTONIO;PRATS;dpr_1954@hotmail.com;412312916;Hogar Protegido;2020-04-30;10:03:08;Visitado
5057131;9;DOMINGO ANTONIO;PRATS;dpr_1954@hotmail.com;412312916;Hogar Protegido;2020-04-30;13:04:59;Visitado
5057131;9;DOMINGO ANTONIO;PRATS;dpr_1954@hotmail.com;412312916;Hogar Protegido;2020-04-30;13:07:35;Visitado
16717603;8;DOMINGO ANTONIO;PRATS;dpr_1954@hotmail.com;412312916;Hogar Protegido;2020-04-30;20:16:11;Visitado
7076830;5;DOMINGO ANTONIO;PRATS;dpr_1954@hotmail.com;412312916;Hogar Protegido;2020-04-30;23:56:47;Visitado
10371218;1;DOMINGO ANTONIO;PRATS;dpr_1954@hotmail.com;412312916;Hogar Protegido;2020-04-30;09:10:28;Visitado
7145368;5;DOMINGO ANTONIO;PRATS;dpr_1954@hotmail.com;412312916;Catastrófico Familiar;2020-04-30;12:48:12;Visitado
14175448;3;DOMINGO ANTONIO;PRATS;dpr_1954@hotmail.com;412312916;Catastrófico Familiar;2020-04-30;17:14:34;Visitado
8450217;0;DOMINGO ANTONIO;PRATS;dpr_1954@hotmail.com;412312916;Hospitalización;2020-04-30;23:04:50;Visitado
10063703;0;DOMINGO ANTONIO;PRATS;dpr_1954@hotmail.com;412312916;Hogar Protegido;2020-04-30;10:19:21;Visitado
13854743;4;DOMINGO ANTONIO;PRATS;dpr_1954@hotmail.com;412312916;Hogar Protegido;2020-04-30;16:05:25;Visitado
16015199;4;DOMINGO ANTONIO;PRATS;dpr_1954@hotmail.com;412312916;Hogar Protegido;2020-04-30;18:30:44;Visitado
6139246;7;DOMINGO ANTONIO;PRATS;dpr_1954@hotmail.com;412312916;Hogar Protegido;2020-04-30;11:38:04;Visitado
14175448;3;DOMINGO ANTONIO;PRATS;dpr_1954@hotmail.com;412312916;Hogar Protegido;2020-04-30;17:10:50;Visitado
17263405;2;DOMINGO ANTONIO;PRATS;dpr_1954@hotmail.com;412312916;Hogar Protegido;2020-04-30;17:55:43;Visitado
15089450;6;DOMINGO ANTONIO;PRATS;dpr_1954@hotmail.com;412312916;Hogar Protegido;2020-04-30;21:58:15;Visitado
9483160;1;DOMINGO ANTONIO;PRATS;dpr_1954@hotmail.com;412312916;Hogar Protegido;2020-04-30;21:59:13;Visitado
2737055;1;DOMINGO ANTONIO;PRATS;dpr_1954@hotmail.com;412312916;Hogar Protegido;2020-04-30;10:18:52;Visitado
13327230;5;DOMINGO ANTONIO;PRATS;dpr_1954@hotmail.com;412312916;Hogar Protegido;2020-04-30;15:16:02;Visitado
16804910;2;DOMINGO ANTONIO;PRATS;dpr_1954@hotmail.com;412312916;Hospitalización;2020-04-30;21:24:24;Visitado
17089265;8;DOMINGO ANTONIO;PRATS;dpr_1954@hotmail.com;412312916;Hogar Protegido;2020-04-30;16:18:13;Visitado
16804910;2;DOMINGO ANTONIO;PRATS;dpr_1954@hotmail.com;412312916;Catastrófico Familiar;2020-04-30;21:26:06;Visitado
19237700;5;DOMINGO ANTONIO;PRATS;dpr_1954@hotmail.com;412312916;Hogar Protegido;2020-05-01;01:22:01;Visitado
6865870;5;DOMINGO ANTONIO;PRATS;dpr_1954@hotmail.com;412312916;Hogar Protegido;2020-04-30;22:06:25;Visitado
18746831;0;DOMINGO ANTONIO;PRATS;dpr_1954@hotmail.com;412312916;Vida + Devolución;2020-04-30;13:03:52;Visitado
21849522;2;DOMINGO ANTONIO;PRATS;dpr_1954@hotmail.com;412312916;Hogar Protegido;2020-04-30;10:02:30;Visitado
12847148;0;DOMINGO ANTONIO;PRATS;dpr_1954@hotmail.com;412312916;Hogar Protegido;2020-04-30;10:51:03;Visitado
15313616;5;DOMINGO ANTONIO;PRATS;dpr_1954@hotmail.com;412312916;Hogar Protegido;2020-04-30;22:07:30;Visitado
14017784;9;DOMINGO ANTONIO;PRATS;dpr_1954@hotmail.com;412312916;Hogar Protegido;2020-04-30;22:46:29;Visitado
7578815;0;DOMINGO ANTONIO;PRATS;dpr_1954@hotmail.com;412312916;Hogar Protegido;2020-04-30;10:41:45;Visitado
16924100;7;DOMINGO ANTONIO;PRATS;dpr_1954@hotmail.com;412312916;Hogar Protegido;2020-04-30;11:36:38;Visitado
7154077;4;DOMINGO ANTONIO;PRATS;dpr_1954@hotmail.com;412312916;Hogar Protegido;2020-04-30;15:49:57;Visitado
10568607;2;DOMINGO ANTONIO;PRATS;dpr_1954@hotmail.com;412312916;Hogar Protegido;2020-04-30;10:26:00;Visitado
15959960;4;DOMINGO ANTONIO;PRATS;dpr_1954@hotmail.com;412312916;Hospitalización;2020-04-30;10:34:40;Visitado
15726375;7;DOMINGO ANTONIO;PRATS;dpr_1954@hotmail.com;412312916;Hospitalización;2020-04-30;14:52:34;Visitado
14430097;1;DOMINGO ANTONIO;PRATS;dpr_1954@hotmail.com;412312916;Hospitalización;2020-04-30;21:32:40;Visitado
25814506;2;DOMINGO ANTONIO;PRATS;dpr_1954@hotmail.com;412312916;Hogar Protegido;2020-05-01;01:41:05;Visitado
20498508;1;DOMINGO ANTONIO;PRATS;dpr_1954@hotmail.com;412312916;Hogar Protegido;2020-04-30;11:03:19;Visitado
12616965;5;DOMINGO ANTONIO;PRATS;dpr_1954@hotmail.com;412312916;Hogar Protegido;2020-04-30;12:49:29;Visitado
16924100;7;DOMINGO ANTONIO;PRATS;dpr_1954@hotmail.com;412312916;Catastrófico Familiar;2020-04-30;11:39:39;Visitado
9483160;1;DOMINGO ANTONIO;PRATS;dpr_1954@hotmail.com;412312916;Catastrófico Familiar;2020-04-30;21:56:42;Visitado
6498207;9;DOMINGO ANTONIO;PRATS;dpr_1954@hotmail.com;412312916;Hospitalización;2020-04-30;14:57:41;Visitado
16902313;1;DOMINGO ANTONIO;PRATS;dpr_1954@hotmail.com;412312916;Hospitalización;2020-04-30;16:52:59;Visitado
13857758;9;DOMINGO ANTONIO;PRATS;dpr_1954@hotmail.com;412312916;Hospitalización;2020-04-30;17:57:50;Visitado
10646004;3;DOMINGO ANTONIO;PRATS;dpr_1954@hotmail.com;412312916;Catastrófico Familiar;2020-04-30;23:45:33;Visitado
16924100;7;DOMINGO ANTONIO;PRATS;dpr_1954@hotmail.com;412312916;Catastrófico Familiar;2020-04-30;11:44:25;Visitado
7389703;3;DOMINGO ANTONIO;PRATS;dpr_1954@hotmail.com;412312916;Hogar Protegido;2020-04-30;12:23:18;Visitado
17684343;8;DOMINGO ANTONIO;PRATS;dpr_1954@hotmail.com;412312916;Hogar Protegido;2020-04-30;14:54:53;Visitado
6550162;7;DOMINGO ANTONIO;PRATS;dpr_1954@hotmail.com;412312916;Hogar Protegido;2020-04-30;19:30:02;Visitado
16451864;7;DOMINGO ANTONIO;PRATS;dpr_1954@hotmail.com;412312916;Catastrófico Familiar;2020-05-01;00:41:20;Visitado
14345096;1;DOMINGO ANTONIO;PRATS;dpr_1954@hotmail.com;412312916;Hogar Protegido;2020-04-30;11:25:54;Visitado
14023349;8;DOMINGO ANTONIO;PRATS;dpr_1954@hotmail.com;412312916;Hogar Protegido;2020-04-30;12:45:24;Visitado
16447596;4;DOMINGO ANTONIO;PRATS;dpr_1954@hotmail.com;412312916;Hospitalización;2020-04-30;18:51:43;Visitado
17875121;2;DOMINGO ANTONIO;PRATS;dpr_1954@hotmail.com;412312916;Hogar Protegido;2020-04-30;23:07:36;Visitado
21849522;2;DOMINGO ANTONIO;PRATS;dpr_1954@hotmail.com;412312916;Hogar Protegido;2020-04-30;10:03:21;Visitado
14651011;6;DOMINGO ANTONIO;PRATS;dpr_1954@hotmail.com;412312916;Hogar Protegido;2020-04-30;13:19:41;Visitado
14065373;K;DOMINGO ANTONIO;PRATS;dpr_1954@hotmail.com;412312916;Hogar Protegido;2020-04-30;22:20:04;Visitado
8450217;0;DOMINGO ANTONIO;PRATS;dpr_1954@hotmail.com;412312916;Hogar Protegido;2020-04-30;23:12:46;Visitado
17953520;3;DOMINGO ANTONIO;PRATS;dpr_1954@hotmail.com;412312916;Hogar Protegido;2020-04-30;10:26:45;Visitado
12922638;2;DOMINGO ANTONIO;PRATS;dpr_1954@hotmail.com;412312916;Hogar Protegido;2020-04-30;11:29:33;Visitado
49027318;2;DOMINGO ANTONIO;PRATS;dpr_1954@hotmail.com;412312916;Hogar Protegido;2020-04-30;11:33:39;Visitado
11479291;8;DOMINGO ANTONIO;PRATS;dpr_1954@hotmail.com;412312916;Hogar Protegido;2020-04-30;11:56:48;Visitado
17040560;9;DOMINGO ANTONIO;PRATS;dpr_1954@hotmail.com;412312916;Catastrófico Familiar;2020-04-30;16:29:47;Visitado
18339802;4;DOMINGO ANTONIO;PRATS;dpr_1954@hotmail.com;412312916;Catastrófico Familiar;2020-04-30;16:48:19;Visitado
9259890;K;DOMINGO ANTONIO;PRATS;dpr_1954@hotmail.com;412312916;Hogar Protegido;2020-04-30;10:22:53;Visitado
15726375;7;DOMINGO ANTONIO;PRATS;dpr_1954@hotmail.com;412312916;Catastrófico Familiar;2020-04-30;14:57:13;Visitado
7960314;7;DOMINGO ANTONIO;PRATS;dpr_1954@hotmail.com;412312916;Catastrófico Familiar;2020-04-30;18:18:14;Visitado
13242147;1;DOMINGO ANTONIO;PRATS;dpr_1954@hotmail.com;412312916;Hogar Protegido;2020-05-01;02:03:43;Visitado
14388497;K;DOMINGO ANTONIO;PRATS;dpr_1954@hotmail.com;412312916;Hogar Protegido;2020-04-30;10:52:33;Visitado
18933826;0;DOMINGO ANTONIO;PRATS;dpr_1954@hotmail.com;412312916;Vida + Devolución;2020-04-30;13:10:37;Visitado
16203205;4;DOMINGO ANTONIO;PRATS;dpr_1954@hotmail.com;412312916;Catastrófico Familiar;2020-04-30;14:43:43;Visitado
11844520;1;DOMINGO ANTONIO;PRATS;dpr_1954@hotmail.com;412312916;Catastrófico Familiar;2020-04-30;18:12:41;Visitado
6550162;7;DOMINGO ANTONIO;PRATS;dpr_1954@hotmail.com;412312916;Hospitalización;2020-04-30;19:25:12;Visitado
9483160;1;DOMINGO ANTONIO;PRATS;dpr_1954@hotmail.com;412312916;Hospitalización;2020-04-30;21:59:59;Visitado
17777914;8;DOMINGO ANTONIO;PRATS;dpr_1954@hotmail.com;412312916;Hospitalización;2020-04-30;13:55:43;Visitado
18573946;5;DOMINGO ANTONIO;PRATS;dpr_1954@hotmail.com;412312916;Hospitalización;2020-05-01;05:04:29;Visitado
15512900;K;DOMINGO ANTONIO;PRATS;dpr_1954@hotmail.com;412312916;Hospitalización;2020-04-30;13:21:32;Visitado
13442803;1;DOMINGO ANTONIO;PRATS;dpr_1954@hotmail.com;412312916;Hogar Protegido;2020-04-30;15:31:04;Visitado
14439363;5;DOMINGO ANTONIO;PRATS;dpr_1954@hotmail.com;412312916;Hogar Protegido;2020-04-30;19:24:07;Visitado
7578815;0;DOMINGO ANTONIO;PRATS;dpr_1954@hotmail.com;412312916;Hogar Protegido;2020-04-30;10:40:11;Visitado
10063703;0;DOMINGO ANTONIO;PRATS;dpr_1954@hotmail.com;412312916;Hogar Protegido;2020-04-30;10:20:33;Visitado
16924100;7;DOMINGO ANTONIO;PRATS;dpr_1954@hotmail.com;412312916;Catastrófico Familiar;2020-04-30;10:47:27;Visitado
8450217;0;DOMINGO ANTONIO;PRATS;dpr_1954@hotmail.com;412312916;Hospitalización;2020-04-30;23:09:39;Visitado
18629156;5;DOMINGO ANTONIO;PRATS;dpr_1954@hotmail.com;412312916;Hospitalización;2020-04-30;11:33:37;Visitado
18629156;5;DOMINGO ANTONIO;PRATS;dpr_1954@hotmail.com;412312916;Hospitalización;2020-04-30;11:33:10;Visitado
11479291;8;DOMINGO ANTONIO;PRATS;dpr_1954@hotmail.com;412312916;Hogar Protegido;2020-04-30;11:58:12;Visitado
14065373;K;DOMINGO ANTONIO;PRATS;dpr_1954@hotmail.com;412312916;Catastrófico Familiar;2020-04-30;22:24:04;Visitado
8694667;K;DOMINGO ANTONIO;PRATS;dpr_1954@hotmail.com;412312916;Catastrófico Familiar;2020-04-30;12:23:31;Visitado
17040560;9;DOMINGO ANTONIO;PRATS;dpr_1954@hotmail.com;412312916;Catastrófico Familiar;2020-04-30;16:31:47;Visitado
17777914;8;DOMINGO ANTONIO;PRATS;dpr_1954@hotmail.com;412312916;Catastrófico Familiar;2020-04-30;13:55:35;Visitado
19237700;5;DOMINGO ANTONIO;PRATS;dpr_1954@hotmail.com;412312916;Hospitalización;2020-05-01;01:19:24;Visitado
18199130;5;DOMINGO ANTONIO;PRATS;dpr_1954@hotmail.com;412312916;Hospitalización;2020-04-30;16:54:58;Visitado
13834236;0;DOMINGO ANTONIO;PRATS;dpr_1954@hotmail.com;412312916;Vacaciones Seguras;2020-04-30;20:47:29;Visitado
14017784;9;DOMINGO ANTONIO;PRATS;dpr_1954@hotmail.com;412312916;Vacaciones Seguras;2020-04-30;22:37:14;Visitado
23934187;K;DOMINGO ANTONIO;PRATS;dpr_1954@hotmail.com;412312916;Hogar Protegido;2020-04-30;23:07:00;Visitado
8482040;7;DOMINGO ANTONIO;PRATS;dpr_1954@hotmail.com;412312916;Hogar Protegido;2020-04-30;16:15:12;Visitado
8482040;7;DOMINGO ANTONIO;PRATS;dpr_1954@hotmail.com;412312916;Hogar Protegido;2020-04-30;16:12:10;Visitado
8053780;8;DOMINGO ANTONIO;PRATS;dpr_1954@hotmail.com;412312916;Hogar Protegido;2020-04-30;16:54:01;Visitado
21849522;2;DOMINGO ANTONIO;PRATS;dpr_1954@hotmail.com;412312916;Hogar Protegido;2020-04-30;10:03:32;Visitado
4687026;3;DOMINGO ANTONIO;PRATS;dpr_1954@hotmail.com;412312916;Catastrófico Familiar;2020-04-30;10:59:35;Visitado
12616965;5;DOMINGO ANTONIO;PRATS;dpr_1954@hotmail.com;412312916;Hogar Protegido;2020-04-30;12:48:05;Visitado
8473996;0;DOMINGO ANTONIO;PRATS;dpr_1954@hotmail.com;412312916;Catastrófico Familiar;2020-04-30;15:10:48;Visitado
16953738;0;DOMINGO ANTONIO;PRATS;dpr_1954@hotmail.com;412312916;Catastrófico Familiar;2020-04-30;16:25:14;Visitado
7044602;2;DOMINGO ANTONIO;PRATS;dpr_1954@hotmail.com;412312916;Vacaciones Seguras;2020-04-30;11:20:34;Visitado
16393227;K;DOMINGO ANTONIO;PRATS;dpr_1954@hotmail.com;412312916;Hogar Protegido;2020-04-30;12:18:08;Visitado
7389703;3;DOMINGO ANTONIO;PRATS;dpr_1954@hotmail.com;412312916;Hogar Protegido;2020-04-30;12:37:23;Visitado
11700991;2;DOMINGO ANTONIO;PRATS;dpr_1954@hotmail.com;412312916;Viaje;2020-04-30;20:02:26;Visitado
17777914;8;DOMINGO ANTONIO;PRATS;dpr_1954@hotmail.com;412312916;Viaje;2020-04-30;13:52:16;Visitado
7044602;2;DOMINGO ANTONIO;PRATS;dpr_1954@hotmail.com;412312916;Vacaciones Seguras;2020-04-30;12:03:29;Visitado
8473996;0;DOMINGO ANTONIO;PRATS;dpr_1954@hotmail.com;412312916;Vacaciones Seguras;2020-04-30;15:12:04;Visitado
7389703;3;DOMINGO ANTONIO;PRATS;dpr_1954@hotmail.com;412312916;Hogar Protegido;2020-04-30;12:21:32;Visitado
14496124;2;DOMINGO ANTONIO;PRATS;dpr_1954@hotmail.com;412312916;Hogar Protegido;2020-04-30;13:07:07;Visitado
13442803;1;DOMINGO ANTONIO;PRATS;dpr_1954@hotmail.com;412312916;Hogar Protegido;2020-04-30;15:28:04;Visitado
13442803;1;DOMINGO ANTONIO;PRATS;dpr_1954@hotmail.com;412312916;Hogar Protegido;2020-04-30;15:29:20;Visitado
16128354;1;DOMINGO ANTONIO;PRATS;dpr_1954@hotmail.com;412312916;Hogar Protegido;2020-04-30;22:47:07;Visitado
14017784;9;DOMINGO ANTONIO;PRATS;dpr_1954@hotmail.com;412312916;Hogar Protegido;2020-04-30;22:48:06;Visitado
15965296;3;DOMINGO ANTONIO;PRATS;dpr_1954@hotmail.com;412312916;Hogar Protegido;2020-04-30;08:28:23;Visitado
3894298;0;DOMINGO ANTONIO;PRATS;dpr_1954@hotmail.com;412312916;Fraude;2020-04-30;09:56:45;Visitado
17754455;8;DOMINGO ANTONIO;PRATS;dpr_1954@hotmail.com;412312916;Fraude;2020-05-01;00:41:25;Visitado
14748443;7;DOMINGO ANTONIO;PRATS;dpr_1954@hotmail.com;412312916;Fraude;2020-04-30;13:41:09;Visitado
15965296;3;DOMINGO ANTONIO;PRATS;dpr_1954@hotmail.com;412312916;Fraude;2020-04-30;08:28:00;Visitado
7389703;3;DOMINGO ANTONIO;PRATS;dpr_1954@hotmail.com;412312916;Fraude;2020-04-30;12:49:42;Visitado
13178779;0;DOMINGO ANTONIO;PRATS;dpr_1954@hotmail.com;412312916;Fraude;2020-04-30;19:49:24;Visitado
9097448;3;DOMINGO ANTONIO;PRATS;dpr_1954@hotmail.com;412312916;Fraude;2020-04-30;10:56:37;Visitado
17850213;1;DOMINGO ANTONIO;PRATS;dpr_1954@hotmail.com;412312916;Fraude;2020-04-30;08:23:23;Visitado
19112120;1;DOMINGO ANTONIO;PRATS;dpr_1954@hotmail.com;412312916;Fraude;2020-04-30;12:26:12;Visitado
7389703;3;DOMINGO ANTONIO;PRATS;dpr_1954@hotmail.com;412312916;Fraude;2020-04-30;12:49:35;Visitado
18138972;9;DOMINGO ANTONIO;PRATS;dpr_1954@hotmail.com;412312916;Fraude;2020-04-30;15:56:32;Visitado
7760777;3;DOMINGO ANTONIO;PRATS;dpr_1954@hotmail.com;412312916;Fraude;2020-04-30;11:13:50;Visitado
18962782;3;DOMINGO ANTONIO;PRATS;dpr_1954@hotmail.com;412312916;Fraude;2020-04-30;21:48:18;Visitado
16564384;4;DOMINGO ANTONIO;PRATS;dpr_1954@hotmail.com;412312916;Fraude;2020-04-30;10:38:48;Visitado
14748443;7;DOMINGO ANTONIO;PRATS;dpr_1954@hotmail.com;412312916;Fraude;2020-04-30;13:38:23;Visitado
13882756;9;DOMINGO ANTONIO;PRATS;dpr_1954@hotmail.com;412312916;Fraude;2020-04-30;14:43:10;Visitado
18138972;9;DOMINGO ANTONIO;PRATS;dpr_1954@hotmail.com;412312916;Fraude;2020-04-30;15:56:37;Visitado
16564384;4;DOMINGO ANTONIO;PRATS;dpr_1954@hotmail.com;412312916;Fraude;2020-04-30;10:37:46;Visitado
19112120;1;DOMINGO ANTONIO;PRATS;dpr_1954@hotmail.com;412312916;Fraude;2020-04-30;12:26:36;Visitado
7389703;3;DOMINGO ANTONIO;PRATS;dpr_1954@hotmail.com;412312916;Fraude;2020-04-30;12:49:03;Visitado
10959331;1;DOMINGO ANTONIO;PRATS;dpr_1954@hotmail.com;412312916;Fraude;2020-04-30;17:37:37;Visitado
19605884;2;DOMINGO ANTONIO;PRATS;dpr_1954@hotmail.com;412312916;Fraude;2020-05-01;00:10:15;Visitado
9097448;3;DOMINGO ANTONIO;PRATS;dpr_1954@hotmail.com;412312916;Fraude;2020-04-30;11:04:46;Visitado

