Rut;Dv;Nombre;Apellido;Email;Telefono;Nombre producto;Fecha Visualizacion;Hora;Estado
18384700;7;CRISTIAN IVAN;HERRERA;nicolo.salina@gmail.com;0932727522;Hogar Protegido;2020-05-12;19:14:11;Sin culminar
16389476;9;FABIAN GONZALO;ANTUNEZ;fabian.antunez@gmail.com;0973975645;Hogar Protegido;2020-05-12;09:27:06;Sin culminar
18384700;7;CRISTIAN IVAN;HERRERA;nicolo.salina@gmail.com;0932727522;Catastrófico Individual;2020-05-12;19:15:32;Sin culminar
14122458;1;CARLA ANDREA;CUEVAS;ccuevasgu@gmail.com;0993598721;Catastrófico Individual;2020-05-12;23:19:46;Sin culminar
17411332;7;ANAYN ALEXANDRA;PAVEZ;anaynpavez@udec.cl;0979468347;Hogar Protegido;2020-05-12;20:56:36;Sin culminar
10793227;5;MITSI DAYANA;SANDOVAL;mitsi.sandoval@santander.cl;0988281380;Protección Personal;2020-05-12;12:47:04;Sin culminar
7351331;6;PATRICIO EUGENIO;BRIONES;patric209@hotmail.com;0225445520;Catastrófico Individual;2020-05-13;01:21:00;Sin culminar
7060263;6;MARIA EUGENIA PATRICIA;MISLE;memisle@gmail.com;0224753552;Viaje larga Estadia;2020-05-13;06:58:59;Sin culminar
15731533;1;PABLO ANDRES;LIZAMA;pablo.lizama.cabrera@gmail.com;0995372483;Hogar Protegido;2020-05-12;14:26:53;Sin culminar
16389476;9;FABIAN GONZALO;ANTUNEZ;fabian.antunez@gmail.com;0973975645;Protección Personal;2020-05-12;09:23:44;Sin culminar
11891151;2;edison;mellado;marjoriefriz.m@gmail.com;0222874390;Catastrófico Individual;2020-05-12;18:35:04;Sin culminar
17411332;7;ANAYN ALEXANDRA;PAVEZ;anaynpavez@udec.cl;0979468347;Hogar Protegido;2020-05-12;21:56:58;Sin culminar
20080413;9;CAMILA VANESSA;GODOY;C.GODOY12@UFROMAIL.CL;0955369493;Hogar Protegido;2020-05-12;22:12:05;Sin culminar
10325039;0;PAULA LORETO;SIERRALTA;PSIERRALTA@ELBARRIO.CL;0942427613;Urgencias Médicas Familiar;2020-05-12;19:33:10;Sin culminar
10511084;7;PAULA LORETO;SIERRALTA;PSIERRALTA@ELBARRIO.CL;0942427613;Hospitalización;2020-05-12;11:29:44;Visitado
10288844;8;PAULA LORETO;SIERRALTA;PSIERRALTA@ELBARRIO.CL;0942427613;Catastrófico Familiar;2020-05-12;20:56:09;Visitado
17411332;7;PAULA LORETO;SIERRALTA;PSIERRALTA@ELBARRIO.CL;0942427613;Hogar Protegido;2020-05-12;20:56:36;Visitado
10288844;8;PAULA LORETO;SIERRALTA;PSIERRALTA@ELBARRIO.CL;0942427613;Hospitalización;2020-05-12;20:56:52;Visitado
14584395;2;PAULA LORETO;SIERRALTA;PSIERRALTA@ELBARRIO.CL;0942427613;Hospitalización;2020-05-12;18:43:04;Visitado
7351331;6;PAULA LORETO;SIERRALTA;PSIERRALTA@ELBARRIO.CL;0942427613;Hospitalización;2020-05-13;00:28:20;Visitado
16096611;4;PAULA LORETO;SIERRALTA;PSIERRALTA@ELBARRIO.CL;0942427613;Hospitalización;2020-05-12;08:23:28;Visitado
16389476;9;PAULA LORETO;SIERRALTA;PSIERRALTA@ELBARRIO.CL;0942427613;Hogar Protegido;2020-05-12;09:27:06;Visitado
14122458;1;PAULA LORETO;SIERRALTA;PSIERRALTA@ELBARRIO.CL;0942427613;Hogar Protegido;2020-05-12;23:19:45;Visitado
14171990;4;PAULA LORETO;SIERRALTA;PSIERRALTA@ELBARRIO.CL;0942427613;Hogar Protegido;2020-05-12;14:53:53;Visitado
10099293;0;PAULA LORETO;SIERRALTA;PSIERRALTA@ELBARRIO.CL;0942427613;Viaje;2020-05-12;18:04:42;Visitado
26589025;3;PAULA LORETO;SIERRALTA;PSIERRALTA@ELBARRIO.CL;0942427613;Viaje;2020-05-13;00:51:24;Visitado
7060263;6;PAULA LORETO;SIERRALTA;PSIERRALTA@ELBARRIO.CL;0942427613;Vida + Devolución;2020-05-13;07:02:53;Visitado
13190265;4;PAULA LORETO;SIERRALTA;PSIERRALTA@ELBARRIO.CL;0942427613;Catastrófico Familiar;2020-05-12;10:55:22;Visitado
16480297;3;PAULA LORETO;SIERRALTA;PSIERRALTA@ELBARRIO.CL;0942427613;Catastrófico Familiar;2020-05-12;14:56:40;Visitado
15731533;1;PAULA LORETO;SIERRALTA;PSIERRALTA@ELBARRIO.CL;0942427613;Hogar Protegido;2020-05-12;14:26:42;Visitado
15378886;3;PAULA LORETO;SIERRALTA;PSIERRALTA@ELBARRIO.CL;0942427613;Hogar Protegido;2020-05-13;00:59:01;Visitado
15378886;3;PAULA LORETO;SIERRALTA;PSIERRALTA@ELBARRIO.CL;0942427613;Catastrófico Familiar;2020-05-13;01:00:46;Visitado
11466695;5;PAULA LORETO;SIERRALTA;PSIERRALTA@ELBARRIO.CL;0942427613;Catastrófico Familiar;2020-05-12;12:24:50;Visitado
16389476;9;PAULA LORETO;SIERRALTA;PSIERRALTA@ELBARRIO.CL;0942427613;Hogar Protegido;2020-05-12;09:26:49;Visitado
17150095;8;PAULA LORETO;SIERRALTA;PSIERRALTA@ELBARRIO.CL;0942427613;Hogar Protegido;2020-05-12;14:15:13;Visitado
12263225;3;PAULA LORETO;SIERRALTA;PSIERRALTA@ELBARRIO.CL;0942427613;Hogar Protegido;2020-05-12;18:35:04;Visitado
15244219;K;PAULA LORETO;SIERRALTA;PSIERRALTA@ELBARRIO.CL;0942427613;Hogar Protegido;2020-05-12;22:03:30;Visitado
7060263;6;PAULA LORETO;SIERRALTA;PSIERRALTA@ELBARRIO.CL;0942427613;Vida + Devolución;2020-05-13;06:56:59;Visitado
7060263;6;PAULA LORETO;SIERRALTA;PSIERRALTA@ELBARRIO.CL;0942427613;Vida + Devolución;2020-05-13;06:58:59;Visitado
13009290;K;PAULA LORETO;SIERRALTA;PSIERRALTA@ELBARRIO.CL;0942427613;Hogar Protegido;2020-05-13;07:02:32;Visitado
9571250;9;PAULA LORETO;SIERRALTA;PSIERRALTA@ELBARRIO.CL;0942427613;Catastrófico Familiar;2020-05-13;07:56:30;Visitado
20353802;2;PAULA LORETO;SIERRALTA;PSIERRALTA@ELBARRIO.CL;0942427613;Catastrófico Familiar;2020-05-12;11:23:40;Visitado
17616649;5;PAULA LORETO;SIERRALTA;PSIERRALTA@ELBARRIO.CL;0942427613;Catastrófico Familiar;2020-05-12;11:45:36;Visitado
8066345;5;PAULA LORETO;SIERRALTA;PSIERRALTA@ELBARRIO.CL;0942427613;Hogar Protegido;2020-05-12;18:52:19;Visitado
7351331;6;PAULA LORETO;SIERRALTA;PSIERRALTA@ELBARRIO.CL;0942427613;Hogar Protegido;2020-05-13;01:21:00;Visitado
10325039;0;PAULA LORETO;SIERRALTA;PSIERRALTA@ELBARRIO.CL;0942427613;Hogar Protegido;2020-05-12;19:31:40;Visitado
17411332;7;PAULA LORETO;SIERRALTA;PSIERRALTA@ELBARRIO.CL;0942427613;Hogar Protegido;2020-05-12;21:56:28;Visitado
20080413;9;PAULA LORETO;SIERRALTA;PSIERRALTA@ELBARRIO.CL;0942427613;Hogar Protegido;2020-05-12;22:10:21;Visitado
17168099;9;PAULA LORETO;SIERRALTA;PSIERRALTA@ELBARRIO.CL;0942427613;Catastrófico Familiar;2020-05-12;15:31:12;Visitado
18261329;0;PAULA LORETO;SIERRALTA;PSIERRALTA@ELBARRIO.CL;0942427613;Catastrófico Familiar;2020-05-12;19:03:36;Visitado
6968492;0;PAULA LORETO;SIERRALTA;PSIERRALTA@ELBARRIO.CL;0942427613;Catastrófico Familiar;2020-05-12;16:01:12;Visitado
10364978;1;PAULA LORETO;SIERRALTA;PSIERRALTA@ELBARRIO.CL;0942427613;Catastrófico Familiar;2020-05-12;19:43:57;Visitado
27199461;3;PAULA LORETO;SIERRALTA;PSIERRALTA@ELBARRIO.CL;0942427613;Viaje;2020-05-12;20:58:51;Visitado
16480297;3;PAULA LORETO;SIERRALTA;PSIERRALTA@ELBARRIO.CL;0942427613;Catastrófico Familiar;2020-05-12;15:00:31;Visitado
18107580;5;PAULA LORETO;SIERRALTA;PSIERRALTA@ELBARRIO.CL;0942427613;Catastrófico Familiar;2020-05-12;15:37:48;Visitado
15293887;K;PAULA LORETO;SIERRALTA;PSIERRALTA@ELBARRIO.CL;0942427613;Catastrófico Familiar;2020-05-12;16:42:41;Visitado
18096964;0;PAULA LORETO;SIERRALTA;PSIERRALTA@ELBARRIO.CL;0942427613;Catastrófico Familiar;2020-05-12;17:44:56;Visitado
10562359;3;PAULA LORETO;SIERRALTA;PSIERRALTA@ELBARRIO.CL;0942427613;Hogar Protegido;2020-05-12;19:05:35;Visitado
17497781;K;PAULA LORETO;SIERRALTA;PSIERRALTA@ELBARRIO.CL;0942427613;Hospitalización;2020-05-12;11:29:04;Visitado
18261329;0;PAULA LORETO;SIERRALTA;PSIERRALTA@ELBARRIO.CL;0942427613;Hospitalización;2020-05-12;19:04:04;Visitado
16607275;1;PAULA LORETO;SIERRALTA;PSIERRALTA@ELBARRIO.CL;0942427613;Hogar Protegido;2020-05-12;20:46:51;Visitado
14407163;8;PAULA LORETO;SIERRALTA;PSIERRALTA@ELBARRIO.CL;0942427613;Hogar Protegido;2020-05-12;22:02:08;Visitado
14122458;1;PAULA LORETO;SIERRALTA;PSIERRALTA@ELBARRIO.CL;0942427613;Hogar Protegido;2020-05-12;23:17:50;Visitado
16739974;6;PAULA LORETO;SIERRALTA;PSIERRALTA@ELBARRIO.CL;0942427613;Hogar Protegido;2020-05-12;13:52:30;Visitado
15244219;K;PAULA LORETO;SIERRALTA;PSIERRALTA@ELBARRIO.CL;0942427613;Hogar Protegido;2020-05-12;15:49:20;Visitado
10668247;K;PAULA LORETO;SIERRALTA;PSIERRALTA@ELBARRIO.CL;0942427613;Catastrófico Familiar;2020-05-12;22:56:41;Visitado
19707451;5;PAULA LORETO;SIERRALTA;PSIERRALTA@ELBARRIO.CL;0942427613;Hospitalización;2020-05-12;12:59:08;Visitado
18725864;2;PAULA LORETO;SIERRALTA;PSIERRALTA@ELBARRIO.CL;0942427613;Hogar Protegido;2020-05-12;13:56:01;Visitado
13996047;5;PAULA LORETO;SIERRALTA;PSIERRALTA@ELBARRIO.CL;0942427613;Hogar Protegido;2020-05-12;22:00:17;Visitado
7351331;6;PAULA LORETO;SIERRALTA;PSIERRALTA@ELBARRIO.CL;0942427613;Hogar Protegido;2020-05-13;01:18:14;Visitado
15332116;7;PAULA LORETO;SIERRALTA;PSIERRALTA@ELBARRIO.CL;0942427613;Catastrófico Familiar;2020-05-12;08:54:40;Visitado
9901937;9;PAULA LORETO;SIERRALTA;PSIERRALTA@ELBARRIO.CL;0942427613;Catastrófico Familiar;2020-05-12;10:53:28;Visitado
24566524;5;PAULA LORETO;SIERRALTA;PSIERRALTA@ELBARRIO.CL;0942427613;Hospitalización;2020-05-12;12:51:33;Visitado
15609559;1;PAULA LORETO;SIERRALTA;PSIERRALTA@ELBARRIO.CL;0942427613;Hospitalización;2020-05-12;13:29:07;Visitado
16654187;5;PAULA LORETO;SIERRALTA;PSIERRALTA@ELBARRIO.CL;0942427613;Hogar Protegido;2020-05-12;13:22:11;Visitado
17411332;7;PAULA LORETO;SIERRALTA;PSIERRALTA@ELBARRIO.CL;0942427613;Hogar Protegido;2020-05-12;21:56:57;Visitado
20353802;2;PAULA LORETO;SIERRALTA;PSIERRALTA@ELBARRIO.CL;0942427613;Vida + Devolución;2020-05-12;11:24:12;Visitado
12263225;3;PAULA LORETO;SIERRALTA;PSIERRALTA@ELBARRIO.CL;0942427613;Vida + Devolución;2020-05-12;18:35:11;Visitado
14122458;1;PAULA LORETO;SIERRALTA;PSIERRALTA@ELBARRIO.CL;0942427613;Vida + Devolución;2020-05-12;23:20:07;Visitado
17670457;8;PAULA LORETO;SIERRALTA;PSIERRALTA@ELBARRIO.CL;0942427613;Vida + Devolución;2020-05-12;14:00:17;Visitado
17497781;K;PAULA LORETO;SIERRALTA;PSIERRALTA@ELBARRIO.CL;0942427613;Hogar Protegido;2020-05-12;11:26:50;Visitado
17616765;3;PAULA LORETO;SIERRALTA;PSIERRALTA@ELBARRIO.CL;0942427613;Hogar Protegido;2020-05-12;13:46:56;Visitado
15609559;1;PAULA LORETO;SIERRALTA;PSIERRALTA@ELBARRIO.CL;0942427613;Hogar Protegido;2020-05-12;13:28:08;Visitado
18725864;2;PAULA LORETO;SIERRALTA;PSIERRALTA@ELBARRIO.CL;0942427613;Hogar Protegido;2020-05-12;13:56:05;Visitado
17150095;8;PAULA LORETO;SIERRALTA;PSIERRALTA@ELBARRIO.CL;0942427613;Hogar Protegido;2020-05-12;14:15:28;Visitado
13459439;K;PAULA LORETO;SIERRALTA;PSIERRALTA@ELBARRIO.CL;0942427613;Catastrófico Familiar;2020-05-12;11:05:56;Visitado
7097707;9;PAULA LORETO;SIERRALTA;PSIERRALTA@ELBARRIO.CL;0942427613;Catastrófico Familiar;2020-05-12;18:24:07;Visitado
12876978;1;PAULA LORETO;SIERRALTA;PSIERRALTA@ELBARRIO.CL;0942427613;Catastrófico Familiar;2020-05-12;15:51:51;Visitado
12878853;0;PAULA LORETO;SIERRALTA;PSIERRALTA@ELBARRIO.CL;0942427613;Catastrófico Familiar;2020-05-12;16:02:15;Visitado
18384700;7;PAULA LORETO;SIERRALTA;PSIERRALTA@ELBARRIO.CL;0942427613;Hogar Protegido;2020-05-12;19:14:10;Visitado
12263225;3;PAULA LORETO;SIERRALTA;PSIERRALTA@ELBARRIO.CL;0942427613;Hogar Protegido;2020-05-12;18:32:19;Visitado
26954698;0;PAULA LORETO;SIERRALTA;PSIERRALTA@ELBARRIO.CL;0942427613;Hogar Protegido;2020-05-12;15:10:39;Visitado
15293887;K;PAULA LORETO;SIERRALTA;PSIERRALTA@ELBARRIO.CL;0942427613;Hogar Protegido;2020-05-12;16:50:23;Visitado
10364978;1;PAULA LORETO;SIERRALTA;PSIERRALTA@ELBARRIO.CL;0942427613;Catastrófico Familiar;2020-05-12;19:40:06;Visitado
19837252;8;PAULA LORETO;SIERRALTA;PSIERRALTA@ELBARRIO.CL;0942427613;Catastrófico Familiar;2020-05-13;06:40:35;Visitado
17150095;8;PAULA LORETO;SIERRALTA;PSIERRALTA@ELBARRIO.CL;0942427613;Catastrófico Familiar;2020-05-12;14:14:02;Visitado
17150095;8;PAULA LORETO;SIERRALTA;PSIERRALTA@ELBARRIO.CL;0942427613;Catastrófico Familiar;2020-05-12;14:14:44;Visitado
9459248;8;PAULA LORETO;SIERRALTA;PSIERRALTA@ELBARRIO.CL;0942427613;Catastrófico Familiar;2020-05-12;17:25:47;Visitado
18384700;7;PAULA LORETO;SIERRALTA;PSIERRALTA@ELBARRIO.CL;0942427613;Catastrófico Familiar;2020-05-12;19:15:32;Visitado
20353802;2;PAULA LORETO;SIERRALTA;PSIERRALTA@ELBARRIO.CL;0942427613;Vacaciones Seguras;2020-05-12;22:03:35;Visitado
6075673;2;PAULA LORETO;SIERRALTA;PSIERRALTA@ELBARRIO.CL;0942427613;Hogar Protegido;2020-05-12;16:09:01;Visitado
10325039;0;PAULA LORETO;SIERRALTA;PSIERRALTA@ELBARRIO.CL;0942427613;Hogar Protegido;2020-05-12;19:34:12;Visitado
16099395;2;PAULA LORETO;SIERRALTA;PSIERRALTA@ELBARRIO.CL;0942427613;Hogar Protegido;2020-05-12;17:43:13;Visitado
18405846;4;PAULA LORETO;SIERRALTA;PSIERRALTA@ELBARRIO.CL;0942427613;Hogar Protegido;2020-05-12;17:46:20;Visitado
15731533;1;PAULA LORETO;SIERRALTA;PSIERRALTA@ELBARRIO.CL;0942427613;Hogar Protegido;2020-05-12;14:26:52;Visitado
17372862;K;PAULA LORETO;SIERRALTA;PSIERRALTA@ELBARRIO.CL;0942427613;Viaje;2020-05-12;12:02:38;Visitado
18570423;8;PAULA LORETO;SIERRALTA;PSIERRALTA@ELBARRIO.CL;0942427613;Catastrófico Familiar;2020-05-12;16:26:17;Visitado
20080413;9;PAULA LORETO;SIERRALTA;PSIERRALTA@ELBARRIO.CL;0942427613;Hogar Protegido;2020-05-12;22:16:43;Visitado
26964782;5;PAULA LORETO;SIERRALTA;PSIERRALTA@ELBARRIO.CL;0942427613;Viaje;2020-05-12;19:26:14;Visitado
13170235;3;PAULA LORETO;SIERRALTA;PSIERRALTA@ELBARRIO.CL;0942427613;Hogar Protegido;2020-05-12;09:39:00;Visitado
8929768;0;PAULA LORETO;SIERRALTA;PSIERRALTA@ELBARRIO.CL;0942427613;Hogar Protegido;2020-05-12;16:12:02;Visitado
16286165;4;PAULA LORETO;SIERRALTA;PSIERRALTA@ELBARRIO.CL;0942427613;Hogar Protegido;2020-05-12;08:12:00;Visitado
7204637;4;PAULA LORETO;SIERRALTA;PSIERRALTA@ELBARRIO.CL;0942427613;Catastrófico Familiar;2020-05-12;16:17:09;Visitado
18405846;4;PAULA LORETO;SIERRALTA;PSIERRALTA@ELBARRIO.CL;0942427613;Catastrófico Familiar;2020-05-12;17:51:59;Visitado
14584395;2;PAULA LORETO;SIERRALTA;PSIERRALTA@ELBARRIO.CL;0942427613;Catastrófico Familiar;2020-05-12;18:50:14;Visitado
12655247;5;PAULA LORETO;SIERRALTA;PSIERRALTA@ELBARRIO.CL;0942427613;Catastrófico Familiar;2020-05-12;21:43:00;Visitado
24687643;6;PAULA LORETO;SIERRALTA;PSIERRALTA@ELBARRIO.CL;0942427613;Vacaciones Seguras;2020-05-12;18:55:57;Visitado
17083429;1;PAULA LORETO;SIERRALTA;PSIERRALTA@ELBARRIO.CL;0942427613;Hospitalización;2020-05-12;17:35:06;Visitado
9459248;8;PAULA LORETO;SIERRALTA;PSIERRALTA@ELBARRIO.CL;0942427613;Hospitalización;2020-05-12;17:35:09;Visitado
16554056;5;PAULA LORETO;SIERRALTA;PSIERRALTA@ELBARRIO.CL;0942427613;Vida;2020-05-12;18:15:32;Visitado
19545026;9;PAULA LORETO;SIERRALTA;PSIERRALTA@ELBARRIO.CL;0942427613;Vida;2020-05-12;18:22:06;Visitado
17213476;9;PAULA LORETO;SIERRALTA;PSIERRALTA@ELBARRIO.CL;0942427613;Hospitalización;2020-05-12;12:52:10;Visitado
15972132;9;PAULA LORETO;SIERRALTA;PSIERRALTA@ELBARRIO.CL;0942427613;Catastrófico Familiar;2020-05-12;17:10:42;Visitado
15776652;K;PAULA LORETO;SIERRALTA;PSIERRALTA@ELBARRIO.CL;0942427613;Viaje;2020-05-12;15:41:53;Visitado
18384700;7;PAULA LORETO;SIERRALTA;PSIERRALTA@ELBARRIO.CL;0942427613;Viaje;2020-05-12;19:15:05;Visitado
20080413;9;PAULA LORETO;SIERRALTA;PSIERRALTA@ELBARRIO.CL;0942427613;Hogar Protegido;2020-05-12;22:22:29;Visitado
13891500;K;PAULA LORETO;SIERRALTA;PSIERRALTA@ELBARRIO.CL;0942427613;Hogar Protegido;2020-05-12;08:59:01;Visitado
13903096;6;PAULA LORETO;SIERRALTA;PSIERRALTA@ELBARRIO.CL;0942427613;Hogar Protegido;2020-05-12;09:53:45;Visitado
14309181;3;PAULA LORETO;SIERRALTA;PSIERRALTA@ELBARRIO.CL;0942427613;Hogar Protegido;2020-05-12;19:55:12;Visitado
20080413;9;PAULA LORETO;SIERRALTA;PSIERRALTA@ELBARRIO.CL;0942427613;Hogar Protegido;2020-05-12;22:12:44;Visitado
14179522;8;PAULA LORETO;SIERRALTA;PSIERRALTA@ELBARRIO.CL;0942427613;Hogar Protegido;2020-05-12;11:07:04;Visitado
10511084;7;PAULA LORETO;SIERRALTA;PSIERRALTA@ELBARRIO.CL;0942427613;Hospitalización;2020-05-12;11:29:07;Visitado
17670457;8;PAULA LORETO;SIERRALTA;PSIERRALTA@ELBARRIO.CL;0942427613;Hospitalización;2020-05-12;13:53:52;Visitado
25365967;K;PAULA LORETO;SIERRALTA;PSIERRALTA@ELBARRIO.CL;0942427613;Hospitalización;2020-05-12;10:26:34;Visitado
16096611;4;PAULA LORETO;SIERRALTA;PSIERRALTA@ELBARRIO.CL;0942427613;Hospitalización;2020-05-12;08:20:02;Visitado
17411332;7;PAULA LORETO;SIERRALTA;PSIERRALTA@ELBARRIO.CL;0942427613;Hogar Protegido;2020-05-12;20:55:58;Visitado
17411332;7;PAULA LORETO;SIERRALTA;PSIERRALTA@ELBARRIO.CL;0942427613;Hogar Protegido;2020-05-12;20:56:54;Visitado
15695324;5;PAULA LORETO;SIERRALTA;PSIERRALTA@ELBARRIO.CL;0942427613;Hogar Protegido;2020-05-12;20:59:49;Visitado
13898382;K;PAULA LORETO;SIERRALTA;PSIERRALTA@ELBARRIO.CL;0942427613;Hospitalización;2020-05-12;21:17:48;Visitado
15242328;4;PAULA LORETO;SIERRALTA;PSIERRALTA@ELBARRIO.CL;0942427613;Hospitalización;2020-05-12;22:58:57;Visitado
18384700;7;PAULA LORETO;SIERRALTA;PSIERRALTA@ELBARRIO.CL;0942427613;Hogar Protegido;2020-05-12;19:13:30;Visitado
27134267;5;PAULA LORETO;SIERRALTA;PSIERRALTA@ELBARRIO.CL;0942427613;Hogar Protegido;2020-05-12;10:02:22;Visitado
27134267;5;PAULA LORETO;SIERRALTA;PSIERRALTA@ELBARRIO.CL;0942427613;Hospitalización;2020-05-12;10:03:13;Visitado
10364978;1;PAULA LORETO;SIERRALTA;PSIERRALTA@ELBARRIO.CL;0942427613;Hospitalización;2020-05-12;19:42:41;Visitado
20353802;2;PAULA LORETO;SIERRALTA;PSIERRALTA@ELBARRIO.CL;0942427613;Catastrófico Familiar;2020-05-12;22:00:51;Visitado
20080413;9;PAULA LORETO;SIERRALTA;PSIERRALTA@ELBARRIO.CL;0942427613;Hogar Protegido;2020-05-12;22:12:04;Visitado
10325039;0;PAULA LORETO;SIERRALTA;PSIERRALTA@ELBARRIO.CL;0942427613;Hogar Protegido;2020-05-12;19:33:10;Visitado
15293887;K;PAULA LORETO;SIERRALTA;PSIERRALTA@ELBARRIO.CL;0942427613;Catastrófico Familiar;2020-05-12;16:47:17;Visitado
13903096;6;PAULA LORETO;SIERRALTA;PSIERRALTA@ELBARRIO.CL;0942427613;Hogar Protegido;2020-05-12;09:51:16;Visitado
16272405;3;PAULA LORETO;SIERRALTA;PSIERRALTA@ELBARRIO.CL;0942427613;Hogar Protegido;2020-05-12;10:39:33;Visitado
13863811;1;PAULA LORETO;SIERRALTA;PSIERRALTA@ELBARRIO.CL;0942427613;Hogar Protegido;2020-05-12;11:08:05;Visitado
10793227;5;PAULA LORETO;SIERRALTA;PSIERRALTA@ELBARRIO.CL;0942427613;Hogar Protegido;2020-05-12;12:47:04;Visitado
12448310;7;PAULA LORETO;SIERRALTA;PSIERRALTA@ELBARRIO.CL;0942427613;Hogar Protegido;2020-05-12;16:48:08;Visitado
18274983;4;PAULA LORETO;SIERRALTA;PSIERRALTA@ELBARRIO.CL;0942427613;Hogar Protegido;2020-05-12;12:46:00;Visitado
14710840;0;PAULA LORETO;SIERRALTA;PSIERRALTA@ELBARRIO.CL;0942427613;Fraude;2020-05-12;13:30:44;Visitado
19326398;4;PAULA LORETO;SIERRALTA;PSIERRALTA@ELBARRIO.CL;0942427613;Fraude;2020-05-12;11:17:05;Visitado
17933892;0;PAULA LORETO;SIERRALTA;PSIERRALTA@ELBARRIO.CL;0942427613;Fraude;2020-05-12;16:46:16;Visitado
18312753;5;PAULA LORETO;SIERRALTA;PSIERRALTA@ELBARRIO.CL;0942427613;Fraude;2020-05-12;19:17:05;Visitado
20415887;8;PAULA LORETO;SIERRALTA;PSIERRALTA@ELBARRIO.CL;0942427613;Fraude;2020-05-12;17:21:06;Visitado
16470020;8;PAULA LORETO;SIERRALTA;PSIERRALTA@ELBARRIO.CL;0942427613;Fraude;2020-05-12;20:46:19;Visitado
5505170;4;PAULA LORETO;SIERRALTA;PSIERRALTA@ELBARRIO.CL;0942427613;Fraude;2020-05-12;10:46:10;Visitado
16389476;9;PAULA LORETO;SIERRALTA;PSIERRALTA@ELBARRIO.CL;0942427613;Fraude;2020-05-12;09:22:44;Visitado
10793227;5;PAULA LORETO;SIERRALTA;PSIERRALTA@ELBARRIO.CL;0942427613;Fraude;2020-05-12;12:45:59;Visitado
12124789;5;PAULA LORETO;SIERRALTA;PSIERRALTA@ELBARRIO.CL;0942427613;Fraude;2020-05-12;13:03:51;Visitado
13926866;0;PAULA LORETO;SIERRALTA;PSIERRALTA@ELBARRIO.CL;0942427613;Fraude;2020-05-12;17:45:21;Visitado
20192139;2;PAULA LORETO;SIERRALTA;PSIERRALTA@ELBARRIO.CL;0942427613;Fraude;2020-05-12;14:50:28;Visitado
18312753;5;PAULA LORETO;SIERRALTA;PSIERRALTA@ELBARRIO.CL;0942427613;Fraude;2020-05-12;19:18:42;Visitado
16389476;9;PAULA LORETO;SIERRALTA;PSIERRALTA@ELBARRIO.CL;0942427613;Fraude;2020-05-12;09:23:44;Visitado
13926866;0;PAULA LORETO;SIERRALTA;PSIERRALTA@ELBARRIO.CL;0942427613;Fraude;2020-05-12;17:46:06;Visitado
16389476;9;PAULA LORETO;SIERRALTA;PSIERRALTA@ELBARRIO.CL;0942427613;Fraude;2020-05-12;09:26:15;Visitado
10046891;3;PAULA LORETO;SIERRALTA;PSIERRALTA@ELBARRIO.CL;0942427613;Fraude;2020-05-12;09:53:09;Visitado
17150095;8;PAULA LORETO;SIERRALTA;PSIERRALTA@ELBARRIO.CL;0942427613;Fraude;2020-05-12;14:16:02;Visitado
16471899;9;PAULA LORETO;SIERRALTA;PSIERRALTA@ELBARRIO.CL;0942427613;Fraude;2020-05-12;21:10:02;Visitado
18384700;7;PAULA LORETO;SIERRALTA;PSIERRALTA@ELBARRIO.CL;0942427613;Fraude;2020-05-12;19:12:12;Visitado
18274983;4;PAULA LORETO;SIERRALTA;PSIERRALTA@ELBARRIO.CL;0942427613;Fraude;2020-05-12;12:47:07;Visitado

