C20190319242                                                                                                                                     000
D2019031900000330720068129PAG000003813778600
D2019031900000330720068129CON000003813778600
D2019031900000330720068129ASE000003813778600
D2019031900000330720068129ASE020003946641407
D2019031900000330720068164PAG000006616306700
D2019031900000330720068164CON000006616306700
D2019031900000330720068164ASE000006616306700
D2019031900000330720068164ASE020017533623003
T20190319242    8               
