C20191003242                                                                                                                                     000
D20191003242001000WP 00330720089950004779000000V  20191002UF 0000000563900000000201005000                9195INBCOEJE   000000019               000 EJE249          NO DISPONIBLE EN WEBT20191004              N                                                                                                                                                                                                                                                                           
T20191003242    1        2.01   
