C20190805242                                                                                                                                     000
D20190805242001000WP 00330720083714007733000000H  20190804UF 0000000478000000000171005000                7235INBCOEJE   000000019               000 EJE249          NO DISPONIBLE EN WEBT20190804              N                                                                                                                                                                                                                                                                           
D20190805242001000WP 00331320083749297592000000F  20190804UF 0000003256600000001165005000                5944INBCOEJE   000000019               000 EJE249          NO DISPONIBLE EN WEBT20190910              N                                                                                                                                                                                                                                                                           
T20190805242    2       13.36   
