C20190611242                                                                                                                                     000
D2019061100000330720077362PAG000016898941500
D2019061100000330720077362CON000016898941500
D2019061100000330720077362ASE000016898941500
D2019061100000330720077419PAG000018335131100
D2019061100000330720077419CON000018335131100
D2019061100000330720077419ASE000018335131100
T20190611242    6               
