C20200131242                                                                                                                                     000
D2020013100000330720101643PAG000019407063200
D2020013100000330720101643CON000019407063200
D2020013100000330720101643ASE000019407063200
T20200131242    3               
