C20200309242                                                                                                                                     000
D20200309242001000WP 00331320106709003187000000B  20200308UF 0000002206800000000774005000                6021INBCOEJE   000000019               000 EJE249          NO DISPONIBLE EN WEBT20200308              N                                                                                                                                                                                                                                                                           
T20200309242    1        7.74   
