C20190801242                                                                                                                                     000
D20190801  008081870K               ATALA             MATHIEU                     RAUL19630602MC000000000009322643190004000285                                                                   ARAUCARIAS 25000000000000
D20190801  0106034818             SALAZAR               LORCA                    YASNA19680413MC000000000009344221810000100001                                                    ALAMEDA 1449 TORRE 2 PISO 12000000000000
D20190801  0094106710             MELLADO            AGUILERA                  MARCELO19620919                       000000000                                                                                000000000000
D20190801  020297578K              ZAPATA             SALAZAR                FRANCISCO19991018                       000000000                                                                                000000000000
D20190801  0219047762             MELLADO             SALAZAR                  DOMINGO20050805                       000000000                                                                                000000000000
T20190801242    5               
