C20200212242                                                                                                                                     000
D20200212242001000WP 00330720103549913108000000V  20200211UF 0000000570000000000201005000                0621INBCOEJE   000000019               000 EJE249          NO DISPONIBLE EN WEBT20200316              N                                                                                                                                                                                                                                                                           
D20200212242001000WP 00331320103624473597000000B  20200211UF 0000002195000000000774005000                5836INBCOEJE   000000019               000 EJE249          NO DISPONIBLE EN WEBT20200219              N                                                                                                                                                                                                                                                                           
D20200212242001000WP 00330720103634463448000000F  20200211UF 0000000519000000000183005000                2322INBCOEJE   000000019               000 EJE249          NO DISPONIBLE EN WEBT20200215              N                                                                                                                                                                                                                                                                           
T20200212242    3       11.58   
