C20190821242                                                                                                                                     000
D20190821  0159320790            carvajal              scholz                    jorge19860410MC000000000009999974490000100026                                                        segunda transversal 2950000000000000
D20190821  0183962051            Hinojosa              Zavala                  Daniela19930702MC000000000009664739940003700243                                                                          Colima000000000000
T20190821242    2               
