C20190828242                                                                                                                                     000
D2019082800000330720085994PAG000015503489000
D2019082800000330720085994CON000015503489000
D2019082800000330720085994ASE000015503489000
D2019082800000330720085994ASE020005030381019
D2019082800000330720085994ASE030009081942930
D2019082800000330720085994ASE040022653638803
T20190828242    6               
