C20200210242                                                                                                                                     000
D20200210242001000WP 00330720103318006411000000B  20200209UF 0000000190000000000067005000                1189INBCOEJE   000000019               000 EJE249          NO DISPONIBLE EN WEBT20200212              N                                                                                                                                                                                                                                                                           
D20200210242001000WP 00330720103272027184000000I  20200209UF 0000000637800000000225005000                4695INBCOEJE   000000019               000 EJE249          NO DISPONIBLE EN WEBT20200209              N                                                                                                                                                                                                                                                                           
D20200210242001000WP 00330720103283456424000000T  20200209UF 0000000816400000000288005000                1456INBCOEJE   000000019               000 EJE249          NO DISPONIBLE EN WEBT20200215              N                                                                                                                                                                                                                                                                           
D20200210242001000WP 00330720103285005716000000J  20200209UF 0000000513100000000181005000                5884INBCOEJE   000000019               000 EJE249          NO DISPONIBLE EN WEBT20200209              N                                                                                                                                                                                                                                                                           
T20200210242    4        7.61   
