C20190518242                                                                                                                                     000
D2019051800000330720074230PAG000008232123300
D2019051800000330720074230CON000008232123300
D2019051800000330720074230ASE000008232123300
D2019051800000330720074230ASE020015822425903
D2019051800000330720074227PAG000015822425900
D2019051800000330720074227CON000015822425900
D2019051800000330720074227ASE000015822425900
D2019051800000330720074227ASE020012917927907
T20190518242    8               
