C20191108242                                                                                                                                     000
D2019110800000330720092823PAG000015960605800
D2019110800000330720092823CON000015960605800
D2019110800000330720092823ASE000015960605800
D2019110800000331320092830PAG000019941499200
D2019110800000331320092830CON000019941499200
D2019110800000331320092830ASE000019941499200
T20191108242    6               
