C20190319242                                                                                                                                     000
D20190319242001000WP 00330720068129011984000000Q  20190318UF 0000000476900000000173005000                6250INBCOEJE   000000019               000 EJE249          NO DISPONIBLE EN WEBT20190324              N                                                                                                                                                                                                                                                                           
D20190319242001000WP 00330720068164923400000000H  20190318UF 0000000471400000000171005000                3841INBCOEJE   000000019               000 EJE249          NO DISPONIBLE EN WEBT20190318              N                                                                                                                                                                                                                                                                           
T20190319242    2        3.44   
