C20190601242                                                                                                                                     000
D2019060100000330720076237PAG000008044414100
D2019060100000330720076237CON000008044414100
D2019060100000330720076237ASE000008044414100
T20190601242    3               
