C20191230242                                                                                                                                     000
D2019123000000330720097774PAG000009538604000
D2019123000000330720097774CON000009538604000
D2019123000000330720097774ASE000009538604000
D2019123000000330720097774ASE020009011321607
D2019123000000330720097774ASE030019333974303
D2019123000000330720097774ASE040020039263903
T20191230242    6               
