C20200206242                                                                                                                                     000
D20200206242001000WP 00330720102601007638000000D  20200205UF 0000000249500000000088005000                5609INBCOEJE   000000019               000 EJE249          NO DISPONIBLE EN WEBT20200207              N                                                                                                                                                                                                                                                                           
D20200206242001000WP 00330720102612457869000000L  20200205UF 0000001207400000000426005000                9086INBCOEJE   000000019               000 EJE249          NO DISPONIBLE EN WEBT20200205              N                                                                                                                                                                                                                                                                           
D20200206242001000WP 00330720102688000308000000D  20200205UF 0000000249500000000088005000                9731INBCOEJE   000000019               000 EJE249          NO DISPONIBLE EN WEBT20200211              N                                                                                                                                                                                                                                                                           
D20200206242001000WP 00330720102784642447000000I  20200205UF 0000000637800000000225005000                0056INBCOEJE   000000019               000 EJE249          NO DISPONIBLE EN WEBT20200222              N                                                                                                                                                                                                                                                                           
T20200206242    4        8.27   
