C20190712242                                                                                                                                     000
D2019071200000331320081165PAG000017948351300
D2019071200000331320081165CON000017948351300
D2019071200000331320081165ASE000017948351300
D2019071200000330720081275PAG000014181013800
D2019071200000330720081275CON000014181013800
D2019071200000330720081275ASE000014181013800
D2019071200000330720081275ASE020015313000007
D2019071200000330720081275ASE030023458692003
D2019071200000330720081275ASE040025350907403
T20190712242    9               
