C20200127242                                                                                                                                     000
D20200127  0055207232                MOLL               BEYER         PATRICIA  MONICA19451108MC000000000009863082990000100009                                                PEHUEN 7254 DEPTO 200 LAS CONDES000000000000
D20200127  0132954119                Real              Rivera                    Marco19770531MC000000000009954249080000100013                                               Parque Conguillio Sur 9126 Casa C000000000000
D20200127  0058133051              Rivera             Ramirez                  Casilda19480901                       000000000                                                                                000000000000
D20200127  0128014543                Jara              Vargas                    Paula19750324                       000000000                                                                                000000000000
D20200127  0225179042                Real                Jara                   Josefa20071003                       000000000                                                                                000000000000
D20200127  0237270436                Real                Jara                   Amanda20110823                       000000000                                                                                000000000000
D20200127  0257243583             Langdon                   -                   Morgan19870606MC000000000009838339000000100006                                                            Llewellyn Jones 1381000000000000
D20200127  0102204778                Leon                 Roa                    Ramon19650115MC000000000009836066660000100032                                                                   Antumalal 588000000000000
D20200127  0098039376            Carvajal               Araya               Jacqueline19640125                       000000000                                                                                000000000000
D20200127  0254352047              Romero           Gutierrez                  Pascual20160707                       000000000                                                                                000000000000
D20200127  0166204070           Gutierrez               Parra                   Marlen19870625                       000000000                                                                                000000000000
D20200127  0159048411           hernandez               rojas                   ivania19850511MC000000000009836417440005300335                                                    av pedro aguirres cerda 0426000000000000
D20200127  0236172619            castillo           hernandez                 catalina20110413                       000000000                                                                                000000000000
T20200127242   13               
