C20190901242                                                                                                                                     000
D2019090100000330720086481PAG000018409569600
D2019090100000330720086481CON000018409569600
D2019090100000330720086481ASE000018409569600
D2019090100000330720086496PAG000008952899200
D2019090100000330720086496CON000008952899200
D2019090100000330720086496ASE000008952899200
D2019090100000330720086496ASE020012945072K30
D2019090100000330720086496ASE030012964755830
D2019090100000330720086496ASE040022012583130
D2019090100000330720086496ASE050022697134330
T20190901242   10               
