C20190611242                                                                                                                                     000
D20190611  0168989415             Alarcon             Vasquez                 Gabriela19890115MC000000000006991238890000100009                                                             Cerro colorado 6036000000000000
D20190611  0183351311                MOYA               BELLO                  MARIANA19930203MC000000000009746831890002700152                                                                LAS AZUCENAS 290000000000000
T20190611242    2               
