C20190203242                                                                                                                                     000
D20190203242001000WP 00330720063754000691000000H  20190202UF 0000000471100000000171005000                3009INBCOEJE   000000019               000 EJE249          NO DISPONIBLE EN WEBT20190224              N                                                                                                                                                                                                                                                                           
D20190203242001000WP 00330720063767355929000000V  20190202UF 0000000553700000000201005000                5095INBCOEJE   000000019               000 EJE249          NO DISPONIBLE EN WEBT20190204              N                                                                                                                                                                                                                                                                           
T20190203242    2        3.72   
