C20181230242                                                                                                                                     000
D20181230  0193810012           Astudillo              Astete            Jorge enrique19970327MC000000000009767917010000100012                                                         Madreselva 3071 dep 608000000000000
T20181230242    1               
