C20191207242                                                                                                                                     000
D20191207242001000WP 00331320095500569900000000E  20191206UF 0000001659300000000587005000                5940INBCOEJE   000000019               000 EJE249          NO DISPONIBLE EN WEBT20200103              N                                                                                                                                                                                                                                                                           
D20191207242001000WP 00331320095530002576000000E  20191206UF 0000001659300000000587005000                5499INBCOEJE   000000019               000 EJE249          NO DISPONIBLE EN WEBT20200114              N                                                                                                                                                                                                                                                                           
D20191207242001000WP 00330720095479881163000000J  20191206UF 0000000511700000000181005000                3667INBCOEJE   000000019               000 EJE249          NO DISPONIBLE EN WEBT20191208              N                                                                                                                                                                                                                                                                           
D20191207242001000WP 00331320095531002489000000E  20191206UF 0000001659300000000587005000                3256INBCOEJE   000000019               000 EJE249          NO DISPONIBLE EN WEBT20200116              N                                                                                                                                                                                                                                                                           
D20191207242001000WP 00330720095512021557000000G  20191206UF 0000000305300000000108005000                0776INBCOEJE   000000019               000 EJE249          NO DISPONIBLE EN WEBT20191206              N                                                                                                                                                                                                                                                                           
T20191207242    5        20.5   
