C20200123242                                                                                                                                     000
D2020012300000331320100412PAG000019448332500
D2020012300000331320100412CON000019448332500
D2020012300000331320100412ASE000019448332500
D2020012300000330720100453PAG000017266756200
D2020012300000330720100453CON000017266756200
D2020012300000330720100453ASE000017266756200
D2020012300000330720100358PAG000017701777900
D2020012300000330720100358CON000017701777900
D2020012300000330720100358ASE000017701777900
D2020012300000330720100358ASE020018636524033
D2020012300000331320100450PAG000019640140700
D2020012300000331320100450CON000019640140700
D2020012300000331320100450ASE000019640140700
D2020012300000330720100292PAG000012402292400
D2020012300000330720100292CON000012402292400
D2020012300000330720100292ASE000012402292400
D2020012300000330720100292ASE020010370856733
T20200123242   17               
