C20191003242                                                                                                                                     000
D2019100300000330720089950PAG000016576250900
D2019100300000330720089950CON000016576250900
D2019100300000330720089950ASE000016576250900
T20191003242    3               
