C20181030242                                                                                                                                     000
D2018103000000330720054184PAG000014182957200
D2018103000000330720054184CON000014182957200
D2018103000000330720054184ASE000014182957200
D2018103000000330720054191PAG000017293357200
D2018103000000330720054191CON000017293357200
D2018103000000330720054191ASE000017293357200
T20181030242    6               
