C20200126242                                                                                                                                     000
D20200126242001000WP 00330720100782003344000000A  20200125UF 0000000155900000000055005000                0141INBCOEJE   000000019               000 EJE249          NO DISPONIBLE EN WEBT20200409              N                                                                                                                                                                                                                                                                           
D20200126242001000WP 00330720100833701224000000I  20200125UF 0000000637500000000225005000                4378INBCOEJE   000000019               000 EJE249          NO DISPONIBLE EN WEBT20200203              N                                                                                                                                                                                                                                                                           
T20200126242    2         2.8   
