C20190720242                                                                                                                                     000
D20190720242001000WP 00330720082129888170000000D  20190719UF 0000000246000000000088005000                9978INBCOEJE   000000019               000 EJE249          NO DISPONIBLE EN WEBT20190720              N                                                                                                                                                                                                                                                                           
D20190720242001000WP 00331320082135229324000000J  20190719UF 0000005534800000001980005000                5862INBCOEJE   000000019               000 EJE249          NO DISPONIBLE EN WEBT20190924              N                                                                                                                                                                                                                                                                           
D20190720242001000WP 00330720082141738080000000I  20190719UF 0000000629000000000225005000                9748INBCOEJE   000000019               000 EJE249          NO DISPONIBLE EN WEBT20190723              N                                                                                                                                                                                                                                                                           
T20190720242    3       22.93   
