C20190808242                                                                                                                                     000
D2019080800000331320084144PAG000019961961600
D2019080800000331320084144CON000019961961600
D2019080800000331320084144ASE000019961961600
D2019080800000331320084133PAG000019729773500
D2019080800000331320084133CON000019729773500
D2019080800000331320084133ASE000019729773500
T20190808242    6               
