C20190303242                                                                                                                                     000
D2019030300000330720066795PAG000018622703400
D2019030300000330720066795CON000018622703400
D2019030300000330720066795ASE000018622703400
D2019030300000330720066803PAG000018784052K00
D2019030300000330720066803CON000018784052K00
D2019030300000330720066803ASE000018784052K00
T20190303242    6               
