C20190705242                                                                                                                                     000
D2019070500000330720080375PAG000006743426900
D2019070500000330720080375CON000006743426900
D2019070500000330720080375ASE000006743426900
D2019070500000330720080375ASE020008421514730
T20190705242    4               
