C20190429242                                                                                                                                     000
D2019042900000330720072083PAG000010469151K00
D2019042900000330720072083CON000010469151K00
D2019042900000330720072083ASE000010469151K00
D2019042900000330720072083ASE020008281042007
D2019042900000330720072083ASE030018254319503
D2019042900000330720072083ASE040017442978203
D2019042900000330720072053PAG000003253033800
D2019042900000330720072053CON000003253033800
D2019042900000330720072053ASE000003253033800
T20190429242    9               
