C20190529242                                                                                                                                     000
D2019052900000330720075727PAG000006750980300
D2019052900000330720075727CON000006750980300
D2019052900000330720075727ASE000006750980300
D2019052900000330720075698PAG000007732189600
D2019052900000330720075698CON000007732189600
D2019052900000330720075698ASE000007732189600
D2019052900000330720075795PAG000005933005500
D2019052900000330720075795CON000005933005500
D2019052900000330720075795ASE000005933005500
D2019052900000330720075701PAG000020345793600
D2019052900000330720075701CON000020345793600
D2019052900000330720075701ASE000020345793600
D2019052900000330720075688PAG000004337240800
D2019052900000330720075688CON000004337240800
D2019052900000330720075688ASE000004337240800
D2019052900000330720075688ASE020005587226019
T20190529242   16               
