C20190715242                                                                                                                                     000
D2019071500000330720081485PAG000004842533K00
D2019071500000330720081485CON000004842533K00
D2019071500000330720081485ASE000004842533K00
D2019071500000330720081485ASE020004842532130
D2019071500000331320081522PAG000019220128400
D2019071500000331320081522CON000019220128400
D2019071500000331320081522ASE000019220128400
D2019071500000330720081527PAG000008678222700
D2019071500000330720081527CON000008678222700
D2019071500000330720081527ASE000008678222700
T20190715242   10               
