C20190113242                                                                                                                                     000
D20190113242001000WP 00330720061297344361000000I  20190112UF 0000000620200000000225005000                9343INBCOEJE   000000019               000 EJE249          NO DISPONIBLE EN WEBT20190114              N                                                                                                                                                                                                                                                                           
T20190113242    1        2.25   
