C20190407242                                                                                                                                     000
D2019040700000330720070042PAG000010165178900
D2019040700000330720070042CON000010165178900
D2019040700000330720070042ASE000010165178900
D2019040700000330720070042ASE020010903499107
D2019040700000330720070042ASE030022289844703
D2019040700000330720070038PAG000013329275600
D2019040700000330720070038CON000013329275600
D2019040700000330720070038ASE000013329275600
D2019040700000330720070038ASE020013535144K19
D2019040700000330720070038ASE030020091779003
D2019040700000330720070038ASE040022901777203
D2019040700000330720070030PAG000009291717700
D2019040700000330720070030CON000009291717700
D2019040700000330720070030ASE000009291717700
D2019040700000330720070030ASE020006784848907
T20190407242   15               
