C20191129242                                                                                                                                     000
D2019112900000330720094653PAG000010682923300
D2019112900000330720094653CON000010682923300
D2019112900000330720094653ASE000010682923300
D2019112900000330720094653ASE020013191103333
T20191129242    4               
