C20190721242                                                                                                                                     000
D2019072100000331320082266PAG000018526084400
D2019072100000331320082266CON000018526084400
D2019072100000331320082266ASE000018526084400
T20190721242    3               
