C20190428242                                                                                                                                     000
D2019042800000330720072012PAG000008427542500
D2019042800000330720072012CON000008427542500
D2019042800000330720072012ASE000008427542500
T20190428242    3               
