C20190722242                                                                                                                                     000
D2019072200000330720082368PAG000018022529300
D2019072200000330720082368CON000018022529300
D2019072200000330720082368ASE000018022529300
D2019072200000331320082382PAG000009187161000
D2019072200000331320082382CON000009187161000
D2019072200000331320082382ASE000009187161000
D2019072200000331320082361PAG000019292122800
D2019072200000331320082361CON000019292122800
D2019072200000331320082361ASE000019292122800
T20190722242    9               
