C20190121242                                                                                                                                     000
D20190121242001000WP 00331320062009674675000000A  20190120UF 0000001237300000000449005000                9019INBCOEJE   000000019               000 EJE249          NO DISPONIBLE EN WEBT20190123              N                                                                                                                                                                                                                                                                           
T20190121242    1        4.49   
