C20200203242                                                                                                                                     000
D2020020300000330720102059PAG000015666074400
D2020020300000330720102059CON000015666074400
D2020020300000330720102059ASE000015666074400
D2020020300000330720102059ASE020023319511103
T20200203242    4               
