C20190409242                                                                                                                                     000
D2019040900000331320070194PAG000018586253400
D2019040900000331320070194CON000018586253400
D2019040900000331320070194ASE000018586253400
T20190409242    3               
