C20190722242                                                                                                                                     000
D20190722242001000WP 00330720082368407059000000V  20190721UF 0000000561900000000201005000                8171INBCOEJE   000000019               000 EJE249          NO DISPONIBLE EN WEBT20190722              N                                                                                                                                                                                                                                                                           
D20190722242001000WP 00331320082382530440000000E  20190721UF 0000001640900000000587005000                2364INBCOEJE   000000019               000 EJE249          NO DISPONIBLE EN WEBT20190725              N                                                                                                                                                                                                                                                                           
D20190722242001000WP 00331320082361019054000000E  20190721UF 0000001640900000000587005000                9274INBCOEJE   000000019               000 EJE249          NO DISPONIBLE EN WEBT20190731              N                                                                                                                                                                                                                                                                           
T20190722242    3       13.75   
