C20200228242                                                                                                                                     000
D20200228242001000WP 00330720105589002421000000G  20200227UF 0000000307300000000108005000                4009INBCOEJE   000000019               000 EJE249          NO DISPONIBLE EN WEBT20200229              N                                                                                                                                                                                                                                                                           
D20200228242001000WP 00330720105678372255000000F  20200227UF 0000000520700000000183005000                0193INBCOEJE   000000019               000 EJE249          NO DISPONIBLE EN WEBT20200229              N                                                                                                                                                                                                                                                                           
D20200228242001000WP 00330720105627004587000000H  20200227UF 0000000486600000000171005000                4691INBCOEJE   000000019               000 EJE249          NO DISPONIBLE EN WEBT20200228              N                                                                                                                                                                                                                                                                           
T20200228242    3        4.62   
