C20200122242                                                                                                                                     000
D2020012200000330720100206PAG000015150032300
D2020012200000330720100206CON000015150032300
D2020012200000330720100206ASE000015150032300
T20200122242    3               
