C20190602242                                                                                                                                     000
D20190602242001000WP 00330720076369290553000000A  20190601UF 0000000152800000000055005000                5485INBCOEJE   000000019               000 EJE249          NO DISPONIBLE EN WEBT20190602              N                                                                                                                                                                                                                                                                           
T20190602242    1        0.55   
