C20200217242                                                                                                                                     000
D20200217  0200997875                Soto          Fuentealba           Maria Fernanda19990301MC000000000009875095480000100014                                                                   Traiguen 8999000000000000
D20200217  0200464125              Armijo             Reinoso                   Matias19981015                       000000000                                                                                000000000000
D20200217  0130784038          Fuentealba              Valdes            Oriana noelia19760901MC000000000009852774760002900165                                                                    Rodríguez 63000000000000
D20200217  0090231081               Milad            Abusleme            Pablo Antonio19640215                       000000000                                                                                000000000000
T20200217242    4               
