C20190111242                                                                                                                                     000
D2019011100000330720060943PAG000009547103K00
D2019011100000330720060943CON000009547103K00
D2019011100000330720060943ASE000009547103K00
D2019011100000330720060876PAG000013057285500
D2019011100000330720060876CON000013057285500
D2019011100000330720060876ASE000013057285500
D2019011100000330720060876ASE020024136870K03
D2019011100000330720060876ASE030005926962333
D2019011100000330720060876ASE040015619102719
D2019011100000330720060876ASE050024171451903
D2019011100000330720060876ASE060021562408003
D2019011100000330720060965PAG000020555769500
D2019011100000330720060965CON000020555769500
D2019011100000330720060965ASE000020555769500
T20190111242   14               
