C20190628242                                                                                                                                     000
D20190628242001000WP 00330720079481618478000000D  20190627UF 0000000245400000000088005000                1186INBCOEJE   000000019               000 EJE249          NO DISPONIBLE EN WEBT20190627              N                                                                                                                                                                                                                                                                           
D20190628242001000WP 0033132007954000336200000099920190627UF 0000001252200000000449005000                4488INBCOEJE   000000019               000 EJE249          NO DISPONIBLE EN WEBT20190809              N                                                                                                                                                                                                                                                                           
T20190628242    2        5.37   
