C20190510242                                                                                                                                     000
D20190510242001000WP 00330720073327016206000000D  20190509UF 0000000243800000000088005000                0876INBCOEJE   000000019               000 EJE249          NO DISPONIBLE EN WEBT20190512              N                                                                                                                                                                                                                                                                           
T20190510242    1        0.88   
