C20190823242                                                                                                                                     000
D20190823242001000WP 00330720085547626258000000F  20190822UF 0000000512000000000183005000                4043INBCOEJE   000000019               000 EJE249          NO DISPONIBLE EN WEBT20190902              N                                                                                                                                                                                                                                                                           
D20190823242001000WP 00330720085569013609000000K  20190822UF 0000000744200000000266005000                5813INBCOEJE   000000019               000 EJE249          NO DISPONIBLE EN WEBT20190930              N                                                                                                                                                                                                                                                                           
D20190823242001000WP 00330720085549289169000000A  20190822UF 0000000153900000000055005000                9017INBCOEJE   000000019               000 EJE249          NO DISPONIBLE EN WEBT20191004              N                                                                                                                                                                                                                                                                           
D20190823242001000WP 00330720085589014498000000H  20190822UF 0000000478400000000171005000                6831INBCOEJE   000000019               000 EJE249          NO DISPONIBLE EN WEBT20190823              N                                                                                                                                                                                                                                                                           
D20190823242001000WP 00330720085529005079000000E  20190822UF 0000000302200000000108005000                8400INBCOEJE   000000019               000 EJE249          NO DISPONIBLE EN WEBT20190824              N                                                                                                                                                                                                                                                                           
T20190823242    5        7.83   
