C20190528242                                                                                                                                     000
D20190528242001000WP 00331320075564282703000000B  20190527UF 0000002148000000000774005000                3765INBCOEJE   000000019               000 EJE249          NO DISPONIBLE EN WEBT20190528              N                                                                                                                                                                                                                                                                           
D20190528242001000WP 00331320075398461021000000B  20190527UF 0000002148000000000774005000                4745INBCOEJE   000000019               000 EJE249          NO DISPONIBLE EN WEBT20190528              N                                                                                                                                                                                                                                                                           
D20190528242001000WP 00330720075516167607000000V  20190527UF 0000000557900000000201005000                9010INBCOEJE   000000019               000 EJE249          NO DISPONIBLE EN WEBT20190701              N                                                                                                                                                                                                                                                                           
D20190528242001000WP 00331320075548028292000000B  20190527UF 0000002148000000000774005000                9034INBCOEJE   000000019               000 EJE249          NO DISPONIBLE EN WEBT20190604              N                                                                                                                                                                                                                                                                           
D20190528242001000WP 00330720075417000945000000K  20190527UF 0000000738200000000266005000                0271INBCOEJE   000000019               000 EJE249          NO DISPONIBLE EN WEBT20190531              N                                                                                                                                                                                                                                                                           
T20190528242    5       27.89   
