C20200225242                                                                                                                                     000
D2020022500000331320105141PAG000017477470600
D2020022500000331320105141CON000017477470600
D2020022500000331320105141ASE000017477470600
T20200225242    3               
