C20190122242                                                                                                                                     000
D20190122242001000WP 00330720062142021203000000E  20190121UF 0000000297600000000108005000                1532INBCOEJE   000000019               000 EJE249          NO DISPONIBLE EN WEBT20190127              N                                                                                                                                                                                                                                                                           
D20190122242001000WP 00330720062116102702000000K  20190121UF 0000000733000000000266005000                0156INBCOEJE   000000019               000 EJE249          NO DISPONIBLE EN WEBT20190201              N                                                                                                                                                                                                                                                                           
T20190122242    2        3.74   
