C20191105242                                                                                                                                     000
D2019110500000330720092616PAG000017267695200
D2019110500000330720092616CON000017267695200
D2019110500000330720092616ASE000017267695200
D2019110500000330720092616ASE020012722969430
D2019110500000330720092616ASE030006702182730
D2019110500000330720092616ASE040005673844430
T20191105242    6               
