C20191212242                                                                                                                                     000
D20191212242001000WP 00330720096011089082000000F  20191211UF 0000000517800000000183005000                0054INBCOEJE   000000019               000 EJE249          NO DISPONIBLE EN WEBT20191215              N                                                                                                                                                                                                                                                                           
T20191212242    1        1.83   
