C20190310242                                                                                                                                     000
D2019031000000330720067448PAG000017638820K00
D2019031000000330720067448CON000017638820K00
D2019031000000330720067448ASE000017638820K00
T20190310242    3               
