C20190909242                                                                                                                                     000
D2019090900000330720087433PAG000012890973700
D2019090900000330720087433CON000012890973700
D2019090900000330720087433ASE000012890973700
T20190909242    3               
