C20181105242                                                                                                                                     000
D2018110500000331320054838PAG000017355841400
D2018110500000331320054838CON000017355841400
D2018110500000331320054838ASE000017355841400
D2018110500000330720054667PAG000015308473400
D2018110500000330720054667CON000015308473400
D2018110500000330720054667ASE000015308473400
D2018110500000330720054441PAG000012012850700
D2018110500000330720054441CON000012012850700
D2018110500000330720054441ASE000012012850700
D2018110500000330720054441ASE020011830877807
T20181105242   10               
