C20200215242                                                                                                                                     000
D20200215242001000WP 00330720104014004577000000D  20200214UF 0000000249800000000088005000                4354INBCOEJE   000000019               000 EJE249          NO DISPONIBLE EN WEBT20200214              N                                                                                                                                                                                                                                                                           
T20200215242    1        0.88   
