C20190514242                                                                                                                                     000
D2019051400000330720073618PAG000017558883300
D2019051400000330720073618CON000017558883300
D2019051400000330720073618ASE000017558883300
T20190514242    3               
