C20190624242                                                                                                                                     000
D2019062400000330720079076PAG000007447652K00
D2019062400000330720079076CON000007447652K00
D2019062400000330720079076ASE000007447652K00
D2019062400000330720079076ASE020009285689519
D2019062400000330720079076ASE030021665991030
D2019062400000330720079072PAG000019304751300
D2019062400000330720079072CON000019304751300
D2019062400000330720079072ASE000019304751300
T20190624242    8               
