C20190813242                                                                                                                                     000
D20190813242001000WP 00330720084604028644000000A  20190812UF 0000000153800000000055005000                4198INBCOEJE   000000019               000 EJE249          NO DISPONIBLE EN WEBT20190813              N                                                                                                                                                                                                                                                                           
D20190813242001000WP 00331320084521712177000000F  20190812UF 0000003257200000001165005000                0709INBCOEJE   000000019               000 EJE249          NO DISPONIBLE EN WEBT20190927              N                                                                                                                                                                                                                                                                           
T20190813242    2        12.2   
