C20200219242                                                                                                                                     000
D20200219242001000WP 00330720104551457866000000F  20200218UF 0000000519700000000183005000                2538INBCOEJE   000000019               000 EJE249          NO DISPONIBLE EN WEBT20200221              N                                                                                                                                                                                                                                                                           
T20200219242    1        1.83   
