C20190416242                                                                                                                                     000
D20190416  0088918045              asenjo               silva                elisabeth19661214MC000000000009882792810004000285                                                               emilio feres 1243000000000000
D20190416  011139668K                caro          santibaņez            jorge rodrigo19670319                       000000000                                                                                000000000000
D20190416  006621897K              cooper          ganequines                  winston19541006MC000000000009984951100000100006                                                         Almirante Riveros 084-3000000000000
D20190416  0184512548           Henriquez          Valenzuela                 Carolina19930623MC000000000009543672170000100006                                                          Amapolas 1625 dpto 209000000000000
D20190416  0191712145          Norambuena             Caceres                   Renato19950705MC000000000009568141050000100012                                                         Castillo Urizar Su 6846000000000000
T20190416242    5               
