C20181018242                                                                                                                                     000
D20181018  0145280095              DUFFOO             CORZANO                    JORGE19700926MC000000000009963001500000100011                                                        JOSE ZAPIOLA 7621 CASA I000000000000
D20181018  0100345544           ZANINOVIC               LOPEZ          SANDRA PATRICIA19700127                       000000000                                                                                000000000000
D20181018  0220110605              DUFFOO           ZANINOVIC                    DIEGO20051228                       000000000                                                                                000000000000
D20181018  0237958241              DUFFOO           ZANINOVIC                   FRANCO20111114                       000000000                                                                                000000000000
D20181018  0069631231                mohr             ziegler                   alicia19550625MC000000000009940079690004000285                                                                      freire 389000000000000
D20181018  0235859580              CHACON              ESPEJO         SUSANA KATHERINE19880107MC000000000009630744650001200067                                                    VIRGILIO ARIAS 650 DPTO 1103000000000000
T20181018242    6               
