C20200108242                                                                                                                                     000
D20200108242001000WP 00330720098746003955000000G  20200107UF 0000000305900000000108005000                1808INBCOEJE   000000019               000 EJE249          NO DISPONIBLE EN WEBT20200212              N                                                                                                                                                                                                                                                                           
D20200108242001000WP 00331320098809513510000000B  20200107UF 0000002191700000000774005000                3706INBCOEJE   000000019               000 EJE249          NO DISPONIBLE EN WEBT20200303              N                                                                                                                                                                                                                                                                           
D20200108242001000WP 00330720098709326766000000I  20200107UF 0000000637200000000225005000                8981INBCOEJE   000000019               000 EJE249          NO DISPONIBLE EN WEBT20200113              N                                                                                                                                                                                                                                                                           
T20200108242    3       11.07   
