C20191209242                                                                                                                                     000
D2019120900000331320095635PAG000019232629K00
D2019120900000331320095635CON000019232629K00
D2019120900000331320095635ASE000019232629K00
T20191209242    3               
