C20190419242                                                                                                                                     000
D20190419242001000WP 00330720071106003523000000H  20190418UF 0000000472100000000171005000                5253INBCOEJE   000000019               000 EJE249          NO DISPONIBLE EN WEBT20190425              N                                                                                                                                                                                                                                                                           
T20190419242    1        1.71   
