C20190116242                                                                                                                                     000
D20190116242001000WP 00330720061625005948000000G  20190115UF 0000000297700000000108005000                2319INBCOEJE   000000019               000 EJE249          NO DISPONIBLE EN WEBT20190121              N                                                                                                                                                                                                                                                                           
D20190116242001000WP 00331320061552550373000000A  20190115UF 0000001237500000000449005000                9665INBCOEJE   000000019               000 EJE249          NO DISPONIBLE EN WEBT20190116              N                                                                                                                                                                                                                                                                           
T20190116242    2        5.57   
