C20190918242                                                                                                                                     000
D20190918  0180605398              Luengo               Rojas                  Nicolas19911008MC000000000009863002500000100025                                                                   Las flores 79000000000000
T20190918242    1               
