C20200316242                                                                                                                                     000
D20200316242001000WP 00331320107458216697000000B  20200315UF 0000002208900000000774005000                3822INBCOEJE   000000019               000 EJE249          NO DISPONIBLE EN WEBT20200428              N                                                                                                                                                                                                                                                                           
D20200316242001000WP 00330720107414006035000000S  20200315UF 0000000513700000000180005000                7996INBCOEJE   000000019               000 EJE249          NO DISPONIBLE EN WEBT20200317              N                                                                                                                                                                                                                                                                           
D20200316242001000WP 00331320107432009992000000A  20200315UF 0000001281400000000449005000                1502INBCOEJE   000000019               000 EJE249          NO DISPONIBLE EN WEBT20200317              N                                                                                                                                                                                                                                                                           
D20200316242001000WP 00330720107425219562000000E  20200315UF 0000000308300000000108005000                5101INBCOEJE   000000019               000 EJE249          NO DISPONIBLE EN WEBT20200315              N                                                                                                                                                                                                                                                                           
T20200316242    4       15.11   
