C20190917242                                                                                                                                     000
D20190917  0071440087                roca            casanova        alicia del carmen19540903MC000000000009418983050066600254                                                        abelardo bustamante 1650000000000000
D20190917  0167729347           MALDONADO              SEGUEL                   CAMILA19880603MC000000000009858521320000700052                                                                   SOTOMAYOR 490000000000000
D20190917  0164687589                BOKE              HUERTA                    PABLO19870128                       000000000                                                                                000000000000
D20190917  0230652848                BOKE           MALDONADO                 CATALINA20090603                       000000000                                                                                000000000000
D20190917  0243124239                BOKE           MALDONADO                    LUCAS20130622                       000000000                                                                                000000000000
D20190917  0252134301                BOKE           MALDONADO                      PIA20151130                       000000000                                                                                000000000000
D20190917  0131635605             aguilar                roca              juan carlos19770804MC000000000009950945690066600254                                                        abelardo bustamante 1650000000000000
D20190917  0238735459             aguilar               rivas            alonso emilio20120215                       000000000                                                                                000000000000
D20190917  0212369039             aguilar               rivas          barbara javiera20030218                       000000000                                                                                000000000000
D20190917  0133973702               rivas             fuentes              edit andrea19780902                       000000000                                                                                000000000000
D20190917  0058273767             fuentes             jimenez            leontina edit19500907                       000000000                                                                                000000000000
D20190917  0065859785             aguilar               linay              geo modesto19520212                       000000000                                                                                000000000000
T20190917242   12               
