C20191110242                                                                                                                                     000
D2019111000000331320092949PAG000016937925400
D2019111000000331320092949CON000016937925400
D2019111000000331320092949ASE000016937925400
T20191110242    3               
