C20190617242                                                                                                                                     000
D20190617242001000WP 00330720078168007943000000F  20190616UF 0000000509300000000183005000                1845INBCOEJE   000000019               000 EJE249          NO DISPONIBLE EN WEBT20190616              N                                                                                                                                                                                                                                                                           
D20190617242001000WP 00330720078225009120000000H  20190616UF 0000000475900000000171005000                0012INBCOEJE   000000019               000 EJE249          NO DISPONIBLE EN WEBT20190617              N                                                                                                                                                                                                                                                                           
D20190617242001000WP 00330720078185008281000000E  20190616UF 0000000300600000000108005000                0882INBCOEJE   000000019               000 EJE249          NO DISPONIBLE EN WEBT20190621              N                                                                                                                                                                                                                                                                           
T20190617242    3        4.62   
