C20200303242                                                                                                                                     000
D2020030300000330720105994PAG000020340504900
D2020030300000330720105994CON000020340504900
D2020030300000330720105994ASE000020340504900
T20200303242    3               
