C20190608242                                                                                                                                     000
D2019060800000330720077125PAG000026773446100
D2019060800000330720077125CON000026773446100
D2019060800000330720077125ASE000026773446100
T20190608242    3               
