C20190916242                                                                                                                                     000
D2019091600000330720088412PAG000018525927700
D2019091600000330720088412CON000018525927700
D2019091600000330720088412ASE000018525927700
D2019091600000330720088412ASE020019472398919
D2019091600000330720088434PAG000010385027400
D2019091600000330720088434CON000010385027400
D2019091600000330720088434ASE000010385027400
T20190916242    7               
