C20200222242                                                                                                                                     000
D20200222  0108515619           REBOLLEDO            CARVAJAL                    JORGE19710321MC000000000009905193260030900042                                                 CONDOMINIO LOS JESUITAS CASA 13000000000000
D20200222  0111523703             HEREDIA              ROMERO                  MARILUZ19660814                       000000000                                                                                000000000000
D20200222  0193630065           REBOLLEDO             HEREDIA                  VICENTE19970612                       000000000                                                                                000000000000
D20200222  0213054430           REBOLLEDO             HEREDIA                    SOFIA20030526                       000000000                                                                                000000000000
D20200222  0174037523           Calvanese              Carril                Christian19891206MC000000000009961582630000100013                                                                  Av Quilin 6775000000000000
D20200222  0199322265             Vasquez              Abatte         Catalina Antonia19980213MC000000000009796995480000100019                                                             Novena Avenida 1199000000000000
D20200222  0174074771                meza          valenzuela                   pamela19900606MC000000000009780757560000100007                                                     juan XXIII 6181 depto 802 B000000000000
T20200222242    7               
