C20191029242                                                                                                                                     000
D2019102900000330720092114PAG000017285265300
D2019102900000330720092114CON000017285265300
D2019102900000330720092114ASE000017285265300
D2019102900000330720092114ASE020016355104719
D2019102900000331320092122PAG000019879984K00
D2019102900000331320092122CON000019879984K00
D2019102900000331320092122ASE000019879984K00
D2019102900000330720092131PAG000004032483600
D2019102900000330720092131CON000004032483600
D2019102900000330720092131ASE000004032483600
D2019102900000330720092095PAG000015129550900
D2019102900000330720092095CON000015129550900
D2019102900000330720092095ASE000015129550900
D2019102900000330720092095ASE020016840489107
D2019102900000330720092095ASE030006581784530
D2019102900000330720092095ASE040007774573430
D2019102900000330720092095ASE050016335045930
D2019102900000330720092117PAG000017399045600
D2019102900000330720092117CON000017399045600
D2019102900000330720092117ASE000017399045600
T20191029242   20               
