C20190412242                                                                                                                                     000
D20190412  0135297372              Donoso             Fuentes             Luis Gonzalo19791109MC000000000009747818000001200067                                                                    Chumil 01482000000000000
T20190412242    1               
