C20190924242                                                                                                                                     000
D2019092400000330720089069PAG000019174535300
D2019092400000330720089069CON000019174535300
D2019092400000330720089069ASE000019174535300
T20190924242    3               
