C20181127242                                                                                                                                     000
D20181127242001000WP 00330720056846231019000000S  20181126UF 0000000495400000000180005000                9013INBCOEJE   000000019               000 EJE249          NO DISPONIBLE EN WEBT20181127              N                                                                                                                                                                                                                                                                           
T20181127242    1         1.8   
