C20190419242                                                                                                                                     000
D20190419  016672239K              Avalos              Ovando                 Carolina19870923MC000000000009843912260001200067                                                                      Aysen 5655000000000000
D20190419  0183123181              Avalos              Ovando                 Vladimir19930317                       000000000                                                                                000000000000
T20190419242    2               
