C20191022242                                                                                                                                     000
D20191022  0051662954            BLEIBERG          DEL FIERRO           MYRIAM CYNTHIA19550501MC000000000009915999140000100009                                             AMERICO VESPUCIO NORTE 767 DEPTO 92000000000000
T20191022242    1               
