C20200111242                                                                                                                                     000
D2020011100000330720099131PAG000020413413800
D2020011100000330720099131CON000020413413800
D2020011100000330720099131ASE000020413413800
D2020011100000330720099133PAG000007924222500
D2020011100000330720099133CON000007924222500
D2020011100000330720099133ASE000007924222500
D2020011100000330720099133ASE020009566116507
D2020011100000330720099134PAG000019637443400
D2020011100000330720099134CON000019637443400
D2020011100000330720099134ASE000019637443400
D2020011100000330720099203PAG000008234959600
D2020011100000330720099203CON000008234959600
D2020011100000330720099203ASE000008234959600
D2020011100000330720099203ASE020007034216207
D2020011100000330720099203ASE030019489836303
D2020011100000330720099203ASE040020360670203
D2020011100000330720099203ASE050020360669903
D2020011100000331320099208PAG000017792101700
D2020011100000331320099208CON000017792101700
D2020011100000331320099208ASE000017792101700
T20200111242   20               
