C20190605242                                                                                                                                     000
D20190605  015023512K          BRACAMONTE            ARELLANO                  GABRIEL19830214MC000000000009847977040001200067                                                      BELLAVISTA 3781 DEPTO 173B000000000000
D20190605  0179392933                PAEZ             SAGREDO                  NATALIA19920321                       000000000                                                                                000000000000
D20190605  0264278341          BRACAMONTE                PAEZ              MAXIMILIANO20180821                       000000000                                                                                000000000000
D20190605  0184111659                DIAZ             JIMENEZ         VALENTINA ISABEL19930815MC000000000009824275230003500227                                                            SINFONIA DEL MAR 937000000000000
D20190605  0257665712            FERRADAS                DIAZ           LUCAS EMILIANO20170517                       000000000                                                                                000000000000
D20190605  0185925250            FERRADAS             BECERRA              LUIS MANUEL19931006                       000000000                                                                                000000000000
D20190605  0241460614             MALZAHN            FERRADAS               LEON DAVID20121221                       000000000                                                                                000000000000
T20190605242    7               
