C20190103242                                                                                                                                     000
D20190103242001000WP 00330720060177710115000000T  20190102UF 0000000793900000000288005000                3606INBCOEJE   000000019               000 EJE249          NO DISPONIBLE EN WEBT20190103              N                                                                                                                                                                                                                                                                           
D20190103242001000WP 00330720060117009281000000F  20190102UF 0000000504500000000183005000                0769INBCOEJE   000000019               000 EJE249          NO DISPONIBLE EN WEBT20190104              N                                                                                                                                                                                                                                                                           
T20190103242    2        4.71   
