C20200208242                                                                                                                                     000
D20200208242001000WP 00330720103007412469000000S  20200207UF 0000000510200000000180005000                9085INBCOEJE   000000019               000 EJE249          NO DISPONIBLE EN WEBT20200208              N                                                                                                                                                                                                                                                                           
D20200208242001000WP 00330720103030007020000000X  20200207UF 0000001607200000000567005000                3747INBCOEJE   000000019               000 EJE249          NO DISPONIBLE EN WEBT20200216              N                                                                                                                                                                                                                                                                           
D20200208242001000WP 00330720103086014381000000E  20200207UF 0000000306200000000108005000                4239INBCOEJE   000000019               000 EJE249          NO DISPONIBLE EN WEBT20200302              N                                                                                                                                                                                                                                                                           
D20200208242001000WP 00330720103165000744000000E  20200207UF 0000000306200000000108005000                2367INBCOEJE   000000019               000 EJE249          NO DISPONIBLE EN WEBT20200210              N                                                                                                                                                                                                                                                                           
T20200208242    4        9.63   
