C20191014242                                                                                                                                     000
D20191014242001000WP 00330720091133595569000000X  20191013UF 0000001591400000000567005000                9855INBCOEJE   000000019               000 EJE249          NO DISPONIBLE EN WEBT20191106              N                                                                                                                                                                                                                                                                           
T20191014242    1        5.67   
