C20191228242                                                                                                                                     000
D2019122800000331320097613PAG000017786832900
D2019122800000331320097613CON000017786832900
D2019122800000331320097613ASE000017786832900
D2019122800000330720097633PAG000022074666600
D2019122800000330720097633CON000022074666600
D2019122800000330720097633ASE000022074666600
D2019122800000330720097633ASE020008655424007
D2019122800000330720097633ASE030022793816103
D2019122800000330720097633ASE040024818406K03
D2019122800000331320097544PAG000019672530K00
D2019122800000331320097544CON000019672530K00
D2019122800000331320097544ASE000019672530K00
T20191228242   12               
