C20190911242                                                                                                                                     000
D2019091100000330720087655PAG000017710137000
D2019091100000330720087655CON000017710137000
D2019091100000330720087655ASE000017710137000
D2019091100000330720087656PAG000006688078800
D2019091100000330720087656CON000006688078800
D2019091100000330720087656ASE000006688078800
D2019091100000330720087656ASE020007305423007
D2019091100000331320087702PAG000016942902200
D2019091100000331320087702CON000016942902200
D2019091100000331320087702ASE000016942902200
D2019091100000330720087739PAG000010101912800
D2019091100000330720087739CON000010101912800
D2019091100000330720087739ASE000010101912800
D2019091100000330720087739ASE020010101913630
D2019091100000330720087739ASE030022557606830
D2019091100000330720087638PAG000014315931000
D2019091100000330720087638CON000014315931000
D2019091100000330720087638ASE000014315931000
D2019091100000330720087638ASE020021753065230
T20190911242   19               
