C20181124242                                                                                                                                     000
D20181124242001000WP 00330720056694890883000000E  20181123UF 0000000297100000000108005000                0207INBCOEJE   000000019               000 EJE249          NO DISPONIBLE EN WEBT20181129              N                                                                                                                                                                                                                                                                           
D20181124242001000WP 00330720056710008441000000P  20181123UF 0000000415400000000151005000                2560INBCOEJE   000000019               000 EJE249          NO DISPONIBLE EN WEBT20181126              N                                                                                                                                                                                                                                                                           
D20181124242001000WP 00330720056702008761000000D  20181123UF 0000000242100000000088005000                2339INBCOEJE   000000019               000 EJE249          NO DISPONIBLE EN WEBT20181125              N                                                                                                                                                                                                                                                                           
D20181124242001000WP 00330720056596471998000000F  20181123UF 0000000503400000000183005000                8894INBCOEJE   000000019               000 EJE249          NO DISPONIBLE EN WEBT20181124              N                                                                                                                                                                                                                                                                           
T20181124242    4         5.3   
