C20191108242                                                                                                                                     000
D20191108242001000WP 00330720092823007248000000D  20191107UF 0000000247000000000088005000                1703INBCOEJE   000000019               000 EJE249          NO DISPONIBLE EN WEBT20191107              N                                                                                                                                                                                                                                                                           
D20191108242001000WP 00331320092830808556000000A  20191107UF 0000001260200000000449005000                6960INBCOEJE   000000019               000 EJE249          NO DISPONIBLE EN WEBT20200110              N                                                                                                                                                                                                                                                                           
T20191108242    2        5.37   
