C20190718242                                                                                                                                     000
D2019071800000330720081943PAG000014668151400
D2019071800000330720081943CON000014668151400
D2019071800000330720081943ASE000014668151400
T20190718242    3               
