C20190510242                                                                                                                                     000
D2019051000000330720073327PAG000007981664700
D2019051000000330720073327CON000007981664700
D2019051000000330720073327ASE000007981664700
T20190510242    3               
