C20190920242                                                                                                                                     000
D20190920  0077443185                FERJ             ALEGRIA                    LIDIA19570818MC000000000009987094220000100006                                                        HERNANDO DE AGUIRRE 1546000000000000
T20190920242    1               
