C20181218242                                                                                                                                     000
D20181218242001000WP 00331320058595065698000000B  20181217UF 0000002133600000000774005000                0703INBCOEJE   000000019               000 EJE249          NO DISPONIBLE EN WEBT20181217              N                                                                                                                                                                                                                                                                           
D20181218242001000WP 00330720058620981783000000J  20181217UF 0000000499000000000181005000                5849INBCOEJE   000000019               000 EJE249          NO DISPONIBLE EN WEBT20181220              N                                                                                                                                                                                                                                                                           
D20181218242001000WP 00330720058638822503000000G  20181217UF 0000000297800000000108005000                5849INBCOEJE   000000019               000 EJE249          NO DISPONIBLE EN WEBT20190120              N                                                                                                                                                                                                                                                                           
T20181218242    3       10.63   
