C20200313242                                                                                                                                     000
D2020031300000330720107259PAG000007647317K00
D2020031300000330720107259CON000007647317K00
D2020031300000330720107259ASE000007647317K00
D2020031300000330720107259ASE020014531048207
T20200313242    4               
