C20190727242                                                                                                                                     000
D2019072700000330720082881PAG000007013303200
D2019072700000330720082881CON000007013303200
D2019072700000330720082881ASE000007013303200
T20190727242    3               
