C20190214242                                                                                                                                     000
D20190214242001000WP 00330720065143839675000000F  20190213UF 0000000504100000000183005000                3925INBCOEJE   000000019               000 EJE249          NO DISPONIBLE EN WEBT20190214              N                                                                                                                                                                                                                                                                           
D20190214242001000WP 00330720065121021705000000H  20190213UF 0000000471000000000171005000                5027INBCOEJE   000000019               000 EJE249          NO DISPONIBLE EN WEBT20190215              N                                                                                                                                                                                                                                                                           
T20190214242    2        3.54   
