C20190310242                                                                                                                                     000
D20190310  017638820K              Neuber               Galaz            Mariana Paula19900601MC000000000009913027240004300293                                              Alfonso Brintrup 1515 Dpto 401 - B000000000000
T20190310242    1               
