C20200104242                                                                                                                                     000
D20200104242001000WP 00330720098395283698000000S  20200103UF 0000000509700000000180005000                3424INBCOEJE   000000019               000 EJE249          NO DISPONIBLE EN WEBT20200105              N                                                                                                                                                                                                                                                                           
D20200104242001000WP 00330720098372024871000000F  20200103UF 0000000518200000000183005000                9802INBCOEJE   000000019               000 EJE249          NO DISPONIBLE EN WEBT20200119              N                                                                                                                                                                                                                                                                           
D20200104242001000WP 00330720098383058547000000I  20200103UF 0000000637100000000225005000                2802INBCOEJE   000000019               000 EJE249          NO DISPONIBLE EN WEBT20200108              N                                                                                                                                                                                                                                                                           
T20200104242    3        5.88   
