C20181226242                                                                                                                                     000
D20181226  0183568671           Sepulveda               Barra                   Camila19921229MC000000000009581868960000100019                                                Avenida Centenario 890 Depto H32000000000000
D20181226  0181229896                Baez             Verdugo                    Jaime19920905MC000000000009815940790000100022                                               Manuela Errazuriz 3960 Depto 213G000000000000
D20181226  0051784936              Asenjo               Vidal                    Cesar19451230MC000000000009780687420066600254                                                                      Francia 36000000000000
D20181226  0053356729               Lobos            Olivares                  Dominga19450716                       000000000                                                                                000000000000
T20181226242    4               
