C20181018242                                                                                                                                     000
D2018101800000330720052316PAG000014528009500
D2018101800000330720052316CON000014528009500
D2018101800000330720052316ASE000014528009500
D2018101800000330720052316ASE020010034554407
D2018101800000330720052316ASE030022011060503
D2018101800000330720052316ASE040023795824103
D2018101800000330720052583PAG000006963123100
D2018101800000330720052583CON000006963123100
D2018101800000330720052583ASE000006963123100
D2018101800000330720052497PAG000023585958000
D2018101800000330720052497CON000023585958000
D2018101800000330720052497ASE000023585958000
T20181018242   12               
