C20190614242                                                                                                                                     000
D20190614242001000WP 00330720077830008510000000D  20190613UF 0000000244800000000088005000                4047INBCOEJE   000000019               000 EJE249          NO DISPONIBLE EN WEBT20190613              N                                                                                                                                                                                                                                                                           
D20190614242001000WP 00330720077884448012000000W  20190613UF 0000000962200000000346005000                7995INBCOEJE   000000019               000 EJE249          NO DISPONIBLE EN WEBT20190623              N                                                                                                                                                                                                                                                                           
T20190614242    2        4.34   
