C20190119242                                                                                                                                     000
D20190119242001000WP 00330720061917397130000000F  20190118UF 0000000504400000000183005000                7909INBCOEJE   000000019               000 EJE249          NO DISPONIBLE EN WEBT20190214              N                                                                                                                                                                                                                                                                           
T20190119242    1        1.83   
