C20190314242                                                                                                                                     000
D20190314  0174582238               Silva           Monsalves                   Fabian19890606MC000000000009310485470057800679                                                                Luis Araneda 560000000000000
T20190314242    1               
