C20181209242                                                                                                                                     000
D2018120900000330720057928PAG000006291130100
D2018120900000330720057928CON000006291130100
D2018120900000330720057928ASE000006291130100
D2018120900000330720057928ASE020005893146207
D2018120900000330720057928ASE030006234739233
D2018120900000330720057924PAG000017085634100
D2018120900000330720057924CON000017085634100
D2018120900000330720057924ASE000017085634100
T20181209242    8               
