C20190129242                                                                                                                                     000
D2019012900000330720063009PAG000018118945200
D2019012900000330720063009CON000018118945200
D2019012900000330720063009ASE000018118945200
D2019012900000330720063011PAG000019647002600
D2019012900000330720063011CON000019647002600
D2019012900000330720063011ASE000019647002600
D2019012900000330720062895PAG000018856868800
D2019012900000330720062895CON000018856868800
D2019012900000330720062895ASE000018856868800
D2019012900000330720063020PAG000018953475200
D2019012900000330720063020CON000018953475200
D2019012900000330720063020ASE000018953475200
D2019012900000330720062920PAG000017276389800
D2019012900000330720062920CON000017276389800
D2019012900000330720062920ASE000017276389800
D2019012900000330720062918PAG000008826312K00
D2019012900000330720062918CON000008826312K00
D2019012900000330720062918ASE000008826312K00
T20190129242   18               
