C20191227242                                                                                                                                     000
D2019122700000330720097381PAG000003340341000
D2019122700000330720097381CON000003340341000
D2019122700000330720097381ASE000003340341000
D2019122700000330720097381ASE020004664435207
D2019122700000330720097465PAG000018730275700
D2019122700000330720097465CON000018730275700
D2019122700000330720097465ASE000018730275700
T20191227242    7               
