C20200112242                                                                                                                                     000
D2020011200000330720099247PAG000017380040100
D2020011200000330720099247CON000017380040100
D2020011200000330720099247ASE000017380040100
D2020011200000331320099242PAG000019636327000
D2020011200000331320099242CON000019636327000
D2020011200000331320099242ASE000019636327000
D2020011200000330720099248PAG000017923574900
D2020011200000330720099248CON000017923574900
D2020011200000330720099248ASE000017923574900
T20200112242    9               
