C20200316242                                                                                                                                     000
D2020031600000331320107458PAG000017319519200
D2020031600000331320107458CON000017319519200
D2020031600000331320107458ASE000017319519200
D2020031600000330720107414PAG000018172380700
D2020031600000330720107414CON000018172380700
D2020031600000330720107414ASE000018172380700
D2020031600000331320107432PAG000016761857K00
D2020031600000331320107432CON000016761857K00
D2020031600000331320107432ASE000016761857K00
D2020031600000330720107425PAG000017501456K00
D2020031600000330720107425CON000017501456K00
D2020031600000330720107425ASE000017501456K00
D2020031600000330720107425ASE020017815124K30
T20200316242   13               
