C20190120242                                                                                                                                     000
D20190120242001000WP 00331320061968006869000000E  20190119UF 0000001617600000000587005000                8553INBCOEJE   000000019               000 EJE249          NO DISPONIBLE EN WEBT20190205              N                                                                                                                                                                                                                                                                           
T20190120242    1        5.87   
