C20200218242                                                                                                                                     000
D2020021800000330720104340PAG000017797169300
D2020021800000330720104340CON000017797169300
D2020021800000330720104340ASE000017797169300
D2020021800000330720104340ASE020017673632119
D2020021800000330720104372PAG000004687137500
D2020021800000330720104372CON000004687137500
D2020021800000330720104372ASE000004687137500
D2020021800000330720104372ASE020020440449630
T20200218242    8               
