C20200303242                                                                                                                                     000
D20200303  0203405049             Robledo               Bravo            Mauro Rodrigo19930803MC000000000009906561780000100014                                                                    Blanca 12460000000000000
T20200303242    1               
