C20190623242                                                                                                                                     000
D20190623242001000WP 00330720079001291916000000G  20190622UF 0000000300900000000108005000                3676INBCOEJE   000000019               000 EJE249          NO DISPONIBLE EN WEBT20190713              N                                                                                                                                                                                                                                                                           
D20190623242001000WP 00330720078980009500000000I  20190622UF 0000000626900000000225005000                5062INBCOEJE   000000019               000 EJE249          NO DISPONIBLE EN WEBT20190713              N                                                                                                                                                                                                                                                                           
T20190623242    2        3.33   
