C20191114242                                                                                                                                     000
D2019111400000330720092902PAG000006787415300
D2019111400000330720092902CON000006787415300
D2019111400000330720092902ASE000006787415300
T20191114242    3               
