C20200221242                                                                                                                                     000
D2020022100000330720104830PAG000010807305500
D2020022100000330720104830CON000010807305500
D2020022100000330720104830ASE000010807305500
D2020022100000330720104830ASE020009932899107
D2020022100000330720104830ASE030021290893203
D2020022100000330720104816PAG000019109881100
D2020022100000330720104816CON000019109881100
D2020022100000330720104816ASE000019109881100
D2020022100000330720104816ASE020021667502930
D2020022100000330720104808PAG000017227843400
D2020022100000330720104808CON000017227843400
D2020022100000330720104808ASE000017227843400
T20200221242   12               
