C20200124242                                                                                                                                     000
D2020012400000330720100506PAG000021604984500
D2020012400000330720100506CON000021604984500
D2020012400000330720100506ASE000021604984500
D2020012400000330720100506ASE020012264483907
D2020012400000330720100506ASE030024439356K03
D2020012400000330720100506ASE040025058069K03
T20200124242    6               
