C20190506242                                                                                                                                     000
D2019050600000330720072848PAG000014203492100
D2019050600000330720072848CON000014203492100
D2019050600000330720072848ASE000014203492100
D2019050600000330720072848ASE020018422176419
D2019050600000330720072850PAG000008263552100
D2019050600000330720072850CON000008263552100
D2019050600000330720072850ASE000008263552100
T20190506242    7               
