C20190907242                                                                                                                                     000
D2019090700000330720087304PAG000017671644400
D2019090700000330720087304CON000017671644400
D2019090700000330720087304ASE000017671644400
D2019090700000330720087304ASE020018120876730
D2019090700000330720087304ASE030020163001030
T20190907242    5               
