C20191225242                                                                                                                                     000
D20191225  0155801700           sotomayor           conejeros               carola paz19831010MC000000000009974874140003500338                                                           orosimbo barboza #239000000000000
T20191225242    1               
