C20190608242                                                                                                                                     000
D20190608242001000WP 00330720077125232994000000G  20190607UF 0000000300100000000108005000                8296INBCOEJE   000000019               000 EJE249          NO DISPONIBLE EN WEBT20190609              N                                                                                                                                                                                                                                                                           
T20190608242    1        1.08   
