C20190124242                                                                                                                                     000
D20190124242001000WP 00330720062440793875000000G  20190123UF 0000000297600000000108005000                5769INBCOEJE   000000019               000 EJE249          NO DISPONIBLE EN WEBT20190124              N                                                                                                                                                                                                                                                                           
T20190124242    1        1.08   
