C20181024242                                                                                                                                     000
D20181024  0132725187              CAMPOS          VALENZUELA                    PABLO19770915MC000000000009905294130066800033                                                    PSJE SIERRA DE CABRERA 10513000000000000
D20181024  0092131807              KREFFT              MORENO                 CAROLINA19790316                       000000000                                                                                000000000000
D20181024  0240352842              CAMPOS              KREFFT                   AMANDA20120813                       000000000                                                                                000000000000
D20181024  024602281K              CAMPOS              KREFFT                  ANTONIA20140418                       000000000                                                                                000000000000
D20181024  0251252556              CAMPOS              KREFFT                  VICENTE20150924                       000000000                                                                                000000000000
D20181024  0114778109                Vita           Haeussler                 Carolina19691123MC000000000009921906350000100008                                                            Camino la Tagua 3617000000000000
D20181024  0191861574                Vega               Vidal          Constanza Sofia19950924MC000000000009509820940000100019                                                  Vargas  Buston  760   Dpto 801000000000000
D20181024  0046136225               Godoy                Cruz                    Hilda19440417MC000000000009932719380000100021                                                                  Las dalias 193000000000000
D20181024  0187327024              Romero             Ramirez                   Camila19950130MC000000000009776411200000100010                                                           Horcon 4595 depto 205000000000000
D20181024  0107494979               lopez           fernandez           maria angelica19630623MC000000000009672885440001900095                                                 parcela 13 quebradilla la ligua000000000000
D20181024  0164015777               lopez               lopez        carolina angelica19860828                       000000000                                                                                000000000000
T20181024242   11               
