C20190218242                                                                                                                                     000
D2019021800000330720065456PAG000010214402300
D2019021800000330720065456CON000010214402300
D2019021800000330720065456ASE000010214402300
T20190218242    3               
