C20190726242                                                                                                                                     000
D20190726242001000WP 00330720082781002365000000A  20190725UF 0000000153800000000055005000                2716INBCOEJE   000000019               000 EJE249          NO DISPONIBLE EN WEBT20190728              N                                                                                                                                                                                                                                                                           
D20190726242001000WP 00330720082768516177000000E  20190725UF 0000000301900000000108005000                5860INBCOEJE   000000019               000 EJE249          NO DISPONIBLE EN WEBT20190726              N                                                                                                                                                                                                                                                                           
D20190726242001000WP 00330720082756917851000000G  20190725UF 0000000301900000000108005000                9018INBCOEJE   000000019               000 EJE249          NO DISPONIBLE EN WEBT20190726              N                                                                                                                                                                                                                                                                           
T20190726242    3        2.71   
