C20190629242                                                                                                                                     000
D20190629242001000WP 00330720079653798747000000E  20190628UF 0000000301300000000108005000                9168INBCOEJE   000000019               000 EJE249          NO DISPONIBLE EN WEBT20190722              N                                                                                                                                                                                                                                                                           
D20190629242001000WP 00330720079729855874000000I  20190628UF 0000000627600000000225005000                5998INBCOEJE   000000019               000 EJE249          NO DISPONIBLE EN WEBT20190705              N                                                                                                                                                                                                                                                                           
D20190629242001000WP 00330720079622008403000000D  20190628UF 0000000245500000000088005000                2415INBCOEJE   000000019               000 EJE249          NO DISPONIBLE EN WEBT20190630              N                                                                                                                                                                                                                                                                           
D20190629242001000WP 00330720079713007842000000U  20190628UF 0000001129700000000405005000                7228INBCOEJE   000000019               000 EJE249          NO DISPONIBLE EN WEBT20190629              N                                                                                                                                                                                                                                                                           
T20190629242    4        8.26   
