C20191021242                                                                                                                                     000
D2019102100000330720091634PAG000017187029100
D2019102100000330720091634CON000017187029100
D2019102100000330720091634ASE000017187029100
D2019102100000330720091634ASE020015596783819
T20191021242    4               
