C20191229242                                                                                                                                     000
D20191229242001000WP 00330720097668007171000000S  20191228UF 0000000509600000000180005000                0819INBCOEJE   000000019               000 EJE249          NO DISPONIBLE EN WEBT20191228              N                                                                                                                                                                                                                                                                           
D20191229242001000WP 00331320097721536771000000B  20191228UF 0000002191000000000774005000                4886INBCOEJE   000000019               000 EJE249          NO DISPONIBLE EN WEBT20200301              N                                                                                                                                                                                                                                                                           
T20191229242    2        9.54   
