C20190824242                                                                                                                                     000
D20190824242001000WP 00330720085679168994000000D  20190823UF 0000000246300000000088005000                9655INBCOEJE   000000019               000 EJE249          NO DISPONIBLE EN WEBT20190826              N                                                                                                                                                                                                                                                                           
D20190824242001000WP 00331320085694305012000000E  20190823UF 0000001642400000000587005000                2517INBCOEJE   000000019               000 EJE249          NO DISPONIBLE EN WEBT20190903              N                                                                                                                                                                                                                                                                           
T20190824242    2        6.75   
