C20190110242                                                                                                                                     000
D20190110242001000WP 00331320060869215770000000E  20190109UF 0000001618200000000587005000                5297INBCOEJE   000000019               000 EJE249          NO DISPONIBLE EN WEBT20190115              N                                                                                                                                                                                                                                                                           
D20190110242001000WP 00331320060858029672000000B  20190109UF 0000002133600000000774005000                6913INBCOEJE   000000019               000 EJE249          NO DISPONIBLE EN WEBT20190228              N                                                                                                                                                                                                                                                                           
T20190110242    2       13.61   
