C20181205242                                                                                                                                     000
D20181205  0055580790               Baeza                Jara                Dagoberto19470815MC000000000009541400660000100006                                                Hernando de Aguirre 600 depto 42000000000000
D20181205  0174072221              Mendez            Corrales           Noemi Angelina19900515MC000000000009742391130000100013                                                                Los Lingues 4715000000000000
T20181205242    2               
