C20190615242                                                                                                                                     000
D20190615242001000WP 00331320078096161400000000A  20190615UF 0000001248900000000449005000                9014INBCOEJE   000000019               000 EJE249          NO DISPONIBLE EN WEBT20190617              N                                                                                                                                                                                                                                                                           
D20190615242001000WP 00330720077968006750000000B  20190614UF 0000000186400000000067005000                7668INBCOEJE   000000019               000 EJE249          NO DISPONIBLE EN WEBT20190615              N                                                                                                                                                                                                                                                                           
T20190615242    2        5.16   
