C20190206242                                                                                                                                     000
D2019020600000330720064145PAG000019524205400
D2019020600000330720064145CON000019524205400
D2019020600000330720064145ASE000019524205400
D2019020600000330720064145ASE020004617333333
D2019020600000330720064226PAG000008156088900
D2019020600000330720064226CON000008156088900
D2019020600000330720064226ASE000008156088900
T20190206242    7               
