C20191008242                                                                                                                                     000
D20191008242001000WP 00330720090318002971000000V  20191007UF 0000000564100000000201005000                3307INBCOEJE   000000019               000 EJE249          NO DISPONIBLE EN WEBT20191217              N                                                                                                                                                                                                                                                                           
D20191008242001000WP 00330720090394622103000000F  20191007UF 0000000513600000000183005000                0375INBCOEJE   000000019               000 EJE249          NO DISPONIBLE EN WEBT20191011              N                                                                                                                                                                                                                                                                           
D20191008242001000WP 00330720090278003925000000G  20191007UF 0000000303100000000108005000                1621INBCOEJE   000000019               000 EJE249          NO DISPONIBLE EN WEBT20191007              N                                                                                                                                                                                                                                                                           
T20191008242    3        4.92   
