C20181211242                                                                                                                                     000
D20181211  0063711233           BERENDSEN               MOYLA                MARIANELA19490519MC000000000009989510200000100006                                                HERNANDO DE AGUIRRE 600 DEPTO 42000000000000
D20181211  0176808136               Stipo               Sapag            Diego Ignacio19910923MC000000000009882369200000100009                                                         Campanario Interior 440000000000000
T20181211242    2               
