C20190202242                                                                                                                                     000
D2019020200000331320063662PAG000017993691700
D2019020200000331320063662CON000017993691700
D2019020200000331320063662ASE000017993691700
D2019020200000330720063692PAG000015910724800
D2019020200000330720063692CON000015910724800
D2019020200000330720063692ASE000015910724800
D2019020200000330720063699PAG000007373041400
D2019020200000330720063699CON000007373041400
D2019020200000330720063699ASE000007373041400
T20190202242    9               
