C20181105242                                                                                                                                     000
D20181105242001000WP 00331320054838023893000000B  20181104UF 0000002124100000000774005000                8363INBCOEJE   000000019               000 EJE249          NO DISPONIBLE EN WEBT20181106              N                                                                                                                                                                                                                                                                           
D20181105242001000WP 00330720054667006226000000G  20181101UF 0000000296300000000108005000                0436INBCOEJE   000000019               000 EJE249          NO DISPONIBLE EN WEBT20181101              N                                                                                                                                                                                                                                                                           
D20181105242001000WP 00330720054441225799000000H  20181031UF 0000000469100000000171005000                6658INBCOEJE   000000019               000 EJE249          NO DISPONIBLE EN WEBT20181031              N                                                                                                                                                                                                                                                                           
T20181105242    3       10.53   
