C20181230242                                                                                                                                     000
D20181230242001000WP 00330720059826028615000000G  20181229UF 0000000297800000000108005000                3951INBCOEJE   000000019               000 EJE249          NO DISPONIBLE EN WEBT20181229              N                                                                                                                                                                                                                                                                           
T20181230242    1        1.08   
