C20200227242                                                                                                                                     000
D2020022700000331320105414PAG000019578556200
D2020022700000331320105414CON000019578556200
D2020022700000331320105414ASE000019578556200
D2020022700000331320105423PAG000017729831K00
D2020022700000331320105423CON000017729831K00
D2020022700000331320105423ASE000017729831K00
D2020022700000330720105370PAG000012011702500
D2020022700000330720105370CON000012011702500
D2020022700000330720105370ASE000012011702500
D2020022700000330720105370ASE020010340565330
T20200227242   10               
