C20181031242                                                                                                                                     000
D20181031  0046033965                  li                leon                   victor19420207MC000000000009815540730000100019                                                 fernando lazcano 1249 depto 103000000000000
D20181031  0066981487               marin               uribe           maria doraliza19490804                       000000000                                                                                000000000000
T20181031242    2               
