C20200205242                                                                                                                                     000
D2020020500000330720102545PAG000017849357400
D2020020500000330720102545CON000017849357400
D2020020500000330720102545ASE000017849357400
D2020020500000330720102545ASE020025068874103
D2020020500000330720102545ASE030024251636203
D2020020500000330720102545ASE040015572340819
D2020020500000331320102512PAG000019408385800
D2020020500000331320102512CON000019408385800
D2020020500000331320102512ASE000019408385800
T20200205242    9               
