C20190122242                                                                                                                                     000
D2019012200000330720062142PAG000010009974800
D2019012200000330720062142CON000010009974800
D2019012200000330720062142ASE000010009974800
D2019012200000330720062142ASE020009910632819
D2019012200000330720062116PAG000024958283200
D2019012200000330720062116CON000024958283200
D2019012200000330720062116ASE000024958283200
D2019012200000330720062116ASE020024906086019
T20190122242    8               
