C20191107242                                                                                                                                     000
D20191107242001000WP 00330720092771668181000000C  20191106UF 0000000322800000000115005000                0049INBCOEJE   000000019               000 EJE249          NO DISPONIBLE EN WEBT20191107              N                                                                                                                                                                                                                                                                           
D20191107242001000WP 00330720092769380058000000V  20191106UF 0000000564200000000201005000                9608INBCOEJE   000000019               000 EJE249          NO DISPONIBLE EN WEBT20191106              N                                                                                                                                                                                                                                                                           
D20191107242001000WP 00330720092774005570000000B  20191106UF 0000000188100000000067005000                8807INBCOEJE   000000019               000 EJE249          NO DISPONIBLE EN WEBT20191107              N                                                                                                                                                                                                                                                                           
T20191107242    3        3.83   
