C20191215242                                                                                                                                     000
D20191215242001000WP 00330720096200030397000000X  20191214UF 0000001604300000000567005000                4556INBCOEJE   000000019               000 EJE249          NO DISPONIBLE EN WEBT20191215              N                                                                                                                                                                                                                                                                           
D20191215242001000WP 0033072009623300359D000000J  20191214UF 0000000512200000000181005000                3631INBCOEJE   000000019               000 EJE249          NO DISPONIBLE EN WEBT20191215              N                                                                                                                                                                                                                                                                           
D20191215242001000WP 00330720096221162454000000D  20191214UF 0000000249000000000088005000                7141INBCOEJE   000000019               000 EJE249          NO DISPONIBLE EN WEBT20191215              N                                                                                                                                                                                                                                                                           
D20191215242001000WP 00330720096222262954000000D  20191214UF 0000000249000000000088005000                7141INBCOEJE   000000019               000 EJE249          NO DISPONIBLE EN WEBT20191215              N                                                                                                                                                                                                                                                                           
D20191215242001000WP 00330720096223312854000000D  20191214UF 0000000249000000000088005000                7141INBCOEJE   000000019               000 EJE249          NO DISPONIBLE EN WEBT20191215              N                                                                                                                                                                                                                                                                           
T20191215242    5       10.12   
