C20190907242                                                                                                                                     000
D20190907242001000WP 00330720087304020051000000I  20190906UF 0000000630100000000225005000                4994INBCOEJE   000000019               000 EJE249          NO DISPONIBLE EN WEBT20190912              N                                                                                                                                                                                                                                                                           
T20190907242    1        2.25   
