C20191005242                                                                                                                                     000
D20191005242001000WP 0033072009014705053I000000T  20191004UF 0000000808100000000288005000                4261INBCOEJE   000000019               000 EJE249          NO DISPONIBLE EN WEBT20191008              N                                                                                                                                                                                                                                                                           
D20191005242001000WP 00330720090157001031000000D  20191004UF 0000000246900000000088005000                1510INBCOEJE   000000019               000 EJE249          NO DISPONIBLE EN WEBT20191005              N                                                                                                                                                                                                                                                                           
D20191005242001000WP 00331320090102025146000000A  20191004UF 0000001259800000000449005000                9856INBCOEJE   000000019               000 EJE249          NO DISPONIBLE EN WEBT20191006              N                                                                                                                                                                                                                                                                           
D20191005242001000WP 00331320090109989665000000B  20191004UF 0000002171600000000774005000                2986INBCOEJE   000000019               000 EJE249          NO DISPONIBLE EN WEBT20191104              N                                                                                                                                                                                                                                                                           
D20191005242001000WP 00331320090104027701000000A  20191004UF 0000001259800000000449005000                8521INBCOEJE   000000019               000 EJE249          NO DISPONIBLE EN WEBT20191006              N                                                                                                                                                                                                                                                                           
T20191005242    5       20.48   
