C20200107242                                                                                                                                     000
D20200107242001000WP 00330720098640189577000000V  20200106UF 0000000569200000000201005000                9016INBCOEJE   000000019               000 EJE249          NO DISPONIBLE EN WEBT20200124              N                                                                                                                                                                                                                                                                           
D20200107242001000WP 00331320098649091188000000B  20200106UF 0000002191700000000774005000                8359INBCOEJE   000000019               000 EJE249          NO DISPONIBLE EN WEBT20200205              N                                                                                                                                                                                                                                                                           
T20200107242    2        9.75   
