C20190829242                                                                                                                                     000
D20190829242001000WP 00330720086135005448000000H  20190828UF 0000000478600000000171005000                7188INBCOEJE   000000019               000 EJE249          NO DISPONIBLE EN WEBT20191001              N                                                                                                                                                                                                                                                                           
D20190829242001000WP 00330720086147003712000000B  20190828UF 0000000187600000000067005000                5464INBCOEJE   000000019               000 EJE249          NO DISPONIBLE EN WEBT20190830              N                                                                                                                                                                                                                                                                           
T20190829242    2        2.38   
