C20200114242                                                                                                                                     000
D20200114242001000WP 00330720099469127102000000E  20200113UF 0000000305900000000108005000                9010INBCOEJE   000000019               000 EJE249          NO DISPONIBLE EN WEBT20200224              N                                                                                                                                                                                                                                                                           
T20200114242    1        1.08   
