C20191112242                                                                                                                                     000
D20191112242001000WP 00331320093043046393000000A  20191111UF 0000001260800000000449005000                4318INBCOEJE   000000019               000 EJE249          NO DISPONIBLE EN WEBT20191112              N                                                                                                                                                                                                                                                                           
T20191112242    1        4.49   
