C20191115242                                                                                                                                     000
D2019111500000330720093237PAG000018169186700
D2019111500000330720093237CON000018169186700
D2019111500000330720093237ASE000018169186700
D2019111500000330720093240PAG000018606183700
D2019111500000330720093240CON000018606183700
D2019111500000330720093240ASE000018606183700
D2019111500000330720093240ASE020018644098619
T20191115242    7               
