C20190129242                                                                                                                                     000
D20190129242001000WP 00330720063009374925000000V  20190128UF 0000000553800000000201005000                7390INBCOEJE   000000019               000 EJE249          NO DISPONIBLE EN WEBT20190129              N                                                                                                                                                                                                                                                                           
D20190129242001000WP 00330720063011556632000000V  20190128UF 0000000553800000000201005000                7390INBCOEJE   000000019               000 EJE249          NO DISPONIBLE EN WEBT20190129              N                                                                                                                                                                                                                                                                           
D20190129242001000WP 00330720062895000472000000V  20190128UF 0000000553800000000201005000                8034INBCOEJE   000000019               000 EJE249          NO DISPONIBLE EN WEBT20190203              N                                                                                                                                                                                                                                                                           
D20190129242001000WP 00330720063020009061000000D  20190128UF 0000000242500000000088005000                1904INBCOEJE   000000019               000 EJE249          NO DISPONIBLE EN WEBT20190129              N                                                                                                                                                                                                                                                                           
D20190129242001000WP 00330720062920010807000000J  20190128UF 0000000498700000000181005000                9272INBCOEJE   000000019               000 EJE249          NO DISPONIBLE EN WEBT20190129              N                                                                                                                                                                                                                                                                           
D20190129242001000WP 00330720062918776212000000G  20190128UF 0000000297600000000108005000                6265INBCOEJE   000000019               000 EJE249          NO DISPONIBLE EN WEBT20190202              N                                                                                                                                                                                                                                                                           
T20190129242    6         9.8   
