C20190724242                                                                                                                                     000
D20190724242001000WP 00331320082580462852000000F  20190723UF 0000003256600000001165005000                5205INBCOEJE   000000019               000 EJE249          NO DISPONIBLE EN WEBT20190908              N                                                                                                                                                                                                                                                                           
D20190724242001000WP 00330720082586018694000000T  20190723UF 0000000805100000000288005000                5132INBCOEJE   000000019               000 EJE249          NO DISPONIBLE EN WEBT20190801              N                                                                                                                                                                                                                                                                           
T20190724242    2       14.53   
