C20200201242                                                                                                                                     000
D2020020100000330720101772PAG000009055774200
D2020020100000330720101772CON000009055774200
D2020020100000330720101772ASE000009055774200
D2020020100000330720101772ASE020017697355203
D2020020100000330720101772ASE030018569616203
D2020020100000330720101779PAG000018241887000
D2020020100000330720101779CON000018241887000
D2020020100000330720101779ASE000018241887000
D2020020100000330720101779ASE020017315815719
D2020020100000330720101738PAG000015468524300
D2020020100000330720101738CON000015468524300
D2020020100000330720101738ASE000015468524300
D2020020100000330720101738ASE020024943838303
D2020020100000330720101738ASE030009971011K07
T20200201242   14               
