C20191126242                                                                                                                                     000
D2019112600000330720094346PAG000008108413000
D2019112600000330720094346CON000008108413000
D2019112600000330720094346ASE000008108413000
D2019112600000330720094346ASE020007813956007
D2019112600000330720094346ASE030018463627103
D2019112600000330720094346ASE040018768020403
D2019112600000330720094322PAG000026753694500
D2019112600000330720094322CON000026753694500
D2019112600000330720094322ASE000026753694500
D2019112600000331320094333PAG000017441181600
D2019112600000331320094333CON000017441181600
D2019112600000331320094333ASE000017441181600
D2019112600000331320094333ASE020025315946403
D2019112600000331320094333ASE030022821527930
D2019112600000331320094333ASE040017315010519
D2019112600000330720094305PAG000009575092300
D2019112600000330720094305CON000009575092300
D2019112600000330720094305ASE000009575092300
D2019112600000330720094256PAG000015071126600
D2019112600000330720094256CON000015071126600
D2019112600000330720094256ASE000015071126600
D2019112600000330720094256ASE020026697331403
D2019112600000330720094256ASE030004531190230
T20191126242   23               
