C20181226242                                                                                                                                     000
D2018122600000331320059351PAG000018356867100
D2018122600000331320059351CON000018356867100
D2018122600000331320059351ASE000018356867100
D2018122600000331320059350PAG000018122989600
D2018122600000331320059350CON000018122989600
D2018122600000331320059350ASE000018122989600
D2018122600000330720059334PAG000005178493600
D2018122600000330720059334CON000005178493600
D2018122600000330720059334ASE000005178493600
D2018122600000330720059334ASE020005335672907
T20181226242   10               
