C20191216242                                                                                                                                     000
D20191216242001000WP 00330720096243007107000000F  20191215UF 0000000517800000000183005000                6192INBCOEJE   000000019               000 EJE249          NO DISPONIBLE EN WEBT20191215              N                                                                                                                                                                                                                                                                           
D20191216242001000WP 00330720096284213750000000P  20191215UF 0000000427300000000151005000                1014INBCOEJE   000000019               000 EJE249          NO DISPONIBLE EN WEBT20191215              N                                                                                                                                                                                                                                                                           
T20191216242    2        3.34   
