C20190909242                                                                                                                                     000
D20190909  0128909737             VASQUEZ          VALENZUELA                   MARTIN19750815MC000000000009991146960000100010                                                                IRARRAZAVAL 1401000000000000
T20190909242    1               
