C20200103242                                                                                                                                     000
D2020010300000330720098102PAG000019993221700
D2020010300000330720098102CON000019993221700
D2020010300000330720098102ASE000019993221700
D2020010300000330720098213PAG000005779011300
D2020010300000330720098213CON000005779011300
D2020010300000330720098213ASE000005779011300
T20200103242    6               
