C20191204242                                                                                                                                     000
D20191204242001000WP 00330720095200176163000000G  20191203UF 0000000305100000000108005000                7467INBCOEJE   000000019               000 EJE249          NO DISPONIBLE EN WEBT20191205              N                                                                                                                                                                                                                                                                           
T20191204242    1        1.08   
