C20190713242                                                                                                                                     000
D2019071300000330720081317PAG000012451267000
D2019071300000330720081317CON000012451267000
D2019071300000330720081317ASE000012451267000
D2019071300000330720081317ASE020004033271530
D2019071300000330720081317ASE030004477199333
D2019071300000330720081317ASE040020179761603
D2019071300000330720081317ASE050010398422K19
D2019071300000330720081382PAG000016344951K00
D2019071300000330720081382CON000016344951K00
D2019071300000330720081382ASE000016344951K00
D2019071300000330720081382ASE020016781957519
D2019071300000330720081357PAG000008055103700
D2019071300000330720081357CON000008055103700
D2019071300000330720081357ASE000008055103700
T20190713242   14               
