C20190705242                                                                                                                                     000
D20190705242001000WP 00330720080375828071000000H  20190704UF 0000000477600000000171005000                0087INBCOEJE   000000019               000 EJE249          NO DISPONIBLE EN WEBT20190709              N                                                                                                                                                                                                                                                                           
T20190705242    1        1.71   
