C20190331242                                                                                                                                     000
D20190331242001000WP 00330720069279110609000000I  20190330UF 0000000620300000000225005000                7001INBCOEJE   000000019               000 EJE249          NO DISPONIBLE EN WEBT20190409              N                                                                                                                                                                                                                                                                           
D20190331242001000WP 00330720069282590739000000F  20190330UF 0000000504500000000183005000                8955INBCOEJE   000000019               000 EJE249          NO DISPONIBLE EN WEBT20190401              N                                                                                                                                                                                                                                                                           
T20190331242    2        4.08   
