C20190807242                                                                                                                                     000
D20190807  0124692016              Otondo                Ruiz                  Maritxu19730906MC000000000009922731900004300293                                                                   La Avena 1805000000000000
T20190807242    1               
