C20190303242                                                                                                                                     000
D20190303242001000WP 00330720066795005658000000G  20190302UF 0000000297700000000108005000                8112INBCOEJE   000000019               000 EJE249          NO DISPONIBLE EN WEBT20190302              N                                                                                                                                                                                                                                                                           
D20190303242001000WP 00330720066803709035000000G  20190302UF 0000000297700000000108005000                1337INBCOEJE   000000019               000 EJE249          NO DISPONIBLE EN WEBT20190304              N                                                                                                                                                                                                                                                                           
T20190303242    2        2.16   
