C20180607242                                                                                                                                     000
D2018060700000330720015275PAG000023750247700
D2018060700000330720015275CON000023750247700
D2018060700000330720015275ASE000023750247700
D2018060700000330720015275ASE020023750240K19
D2018060700000330720015275ASE030023750246903
D2018060700000328220015289PAG000023750260400
D2018060700000328220015289CON000023750260400
D2018060700000328220015289ASE000023750260400
D2018060700000328220015289ASE020023750252307
D2018060700000330720015282PAG000000000002700
D2018060700000330720015282CON000000000002700
D2018060700000330720015282ASE000000000002700
D2018060700000330720015285PAG000023750251500
D2018060700000330720015285CON000023750251500
D2018060700000330720015285ASE000023750251500
D2018060700000330720015285ASE020023750243407
D2018060700000330720015285ASE030023750266303
D2018060700000328220015278PAG000000000001900
D2018060700000328220015278CON000000000001900
D2018060700000328220015278ASE000000000001900
D2018060700000328220015292PAG000023750255800
D2018060700000328220015292CON000023750255800
D2018060700000328220015292ASE000023750255800
D2018060700000330720015279PAG000023750250700
D2018060700000330720015279CON000023750250700
D2018060700000330720015279ASE000023750250700
D2018060700000330720015279ASE020023750241807
D2018060700000330720015279ASE030023750266303
D2018060700000328220015295PAG000023750259000
D2018060700000328220015295CON000023750259000
D2018060700000328220015295ASE000023750259000
D2018060700000330720015268PAG000023750246900
D2018060700000330720015268CON000023750246900
D2018060700000330720015268ASE000023750246900
D2018060700000330720015268ASE020023750242607
D2018060700000330720015268ASE030023750240K03
D2018060700000330720015284PAG000023750260400
D2018060700000330720015284CON000023750260400
D2018060700000330720015284ASE000023750260400
D2018060700000330720015284ASE020023750239607
D2018060700000330720015284ASE030023750247703
D2018060700000328220015291PAG000023750251500
D2018060700000328220015291CON000023750251500
D2018060700000328220015291ASE000023750251500
D2018060700000330720015269PAG000023750239600
D2018060700000330720015269CON000023750239600
D2018060700000330720015269ASE000023750239600
D2018060700000328220015296PAG000023750259000
D2018060700000328220015296CON000023750259000
D2018060700000328220015296ASE000023750259000
D2018060700000330720015271PAG000023750246900
D2018060700000330720015271CON000023750246900
D2018060700000330720015271ASE000023750246900
D2018060700000330720015271ASE020023750244207
D2018060700000330720015271ASE030023750240K03
D2018060700000328220015297PAG000023750265500
D2018060700000328220015297CON000023750265500
D2018060700000328220015297ASE000023750265500
D2018060700000328220015297ASE020023750240K07
D2018060700000328220015297ASE030023750241803
D2018060700000328220015297ASE040023750266303
D2018060700000328220015297ASE050023750264703
D2018060700000330720015274PAG000023750247700
D2018060700000330720015274CON000023750247700
D2018060700000330720015274ASE000023750247700
D2018060700000330720015274ASE020023750249307
D2018060700000330720015274ASE030023750250703
D2018060700000330720015283PAG000023750251500
D2018060700000330720015283CON000023750251500
D2018060700000330720015283ASE000023750251500
D2018060700000330720015283ASE020023750250719
D2018060700000330720015283ASE030023750260403
D2018060700000328220015288PAG000016998263500
D2018060700000328220015288CON000016998263500
D2018060700000328220015288ASE000016998263500
T20180607242   75               
