C20191227242                                                                                                                                     000
D20191227242001000WP 00330720097381985301000000W  20191226UF 0000000979400000000346005000                4090INBCOEJE   000000019               000 EJE249          NO DISPONIBLE EN WEBT20200116              N                                                                                                                                                                                                                                                                           
D20191227242001000WP 00330720097465473756000000A  20191226UF 0000000155700000000055005000                3094INBCOEJE   000000019               000 EJE249          NO DISPONIBLE EN WEBT20191227              N                                                                                                                                                                                                                                                                           
T20191227242    2        4.01   
