C20191112242                                                                                                                                     000
D2019111200000331320093043PAG000017346289100
D2019111200000331320093043CON000017346289100
D2019111200000331320093043ASE000017346289100
T20191112242    3               
