C20190808242                                                                                                                                     000
D20190808242001000WP 00331320084144947883000000A  20190807UF 0000001255200000000449005000                9887INBCOEJE   000000019               000 EJE249          NO DISPONIBLE EN WEBT20190808              N                                                                                                                                                                                                                                                                           
D20190808242001000WP 00331320084133452969000000A  20190807UF 0000001255200000000449005000                9409INBCOEJE   000000019               000 EJE249          NO DISPONIBLE EN WEBT20190819              N                                                                                                                                                                                                                                                                           
T20190808242    2        8.98   
