C20190821242                                                                                                                                     000
D20190821242001000WP 00331320085363481239000000B  20190820UF 0000002165200000000774005000                7580INBCOEJE   000000019               000 EJE249          NO DISPONIBLE EN WEBT20190821              N                                                                                                                                                                                                                                                                           
D20190821242001000WP 00331320085384888579000000B  20190820UF 0000002165200000000774005000                6022INBCOEJE   000000019               000 EJE249          NO DISPONIBLE EN WEBT20191007              N                                                                                                                                                                                                                                                                           
T20190821242    2       15.48   
