C20200229242                                                                                                                                     000
D2020022900000330720105811PAG000017995550400
D2020022900000330720105811CON000017995550400
D2020022900000330720105811ASE000017995550400
T20200229242    3               
