C20190705242                                                                                                                                     000
D20190705  0067434269               Ramos              Concha       Soledad Del Carmen19580420MC000000000009837232360000100014                                                                 El chercan 4632000000000000
D20190705  0084215147             Quezada          San Martin              Maria Elena19570522                       000000000                                                                                000000000000
T20190705242    2               
