C20190103242                                                                                                                                     000
D20190103  0031979587             Ramirez             Ullarte                     Omar19360519MC000000000009915555110066900038                                                                 Santa Rita 2878000000000000
D20190103  004133892K              Cortes             Caceres                   Silvia19401003                       000000000                                                                                000000000000
D20190103  0086719010            Bidegain            Gonzalez             Luis Ignacio19621120MC000000000009922614810018800132                                                            Salvador peralta 936000000000000
D20190103  0101465683               Gaete            Villagra             Elena Rebeca19630604                       000000000                                                                                000000000000
D20190103  0181044616            Bidegain               Gaete           Maite Gabriela19920324                       000000000                                                                                000000000000
D20190103  0187987733            Bidegain               Gaete           Malu del Pilar19940719                       000000000                                                                                000000000000
T20190103242    6               
