<?xml version="1.0" standalone="no"?>
<!DOCTYPE svg PUBLIC "-//W3C//DTD SVG 1.1//EN" "http://www.w3.org/Graphics/SVG/1.1/DTD/svg11.dtd" >
<svg xmlns="http://www.w3.org/2000/svg">
<metadata>Generated by IcoMoon</metadata>
<defs>
<font id="icon_info_santander" horiz-adv-x="1024">
<font-face units-per-em="1024" ascent="960" descent="-64" />
<missing-glyph horiz-adv-x="1024" />
<glyph unicode="&#x20;" horiz-adv-x="512" d="" />
<glyph unicode="&#xe900;" glyph-name="info" horiz-adv-x="401" d="M231.438 203.137l19.002 104.711 42.055 231.871c7.491 41.306-10.923 83.096-41.126 93.345l-5.473 1.854c-3.674 1.248-7.348 1.94-10.985 2.184l0.048 1.531c0 0-0.904-0.554-2.459-1.515-17.309 0.085-42.602-22.89-42.602-22.89-49.14-46.841-116.367-108.973-106.418-138.57 15.092-44.816 88.74 73.115 71.099-24.131l-18.99-104.697-42.069-231.874c-7.498-41.315 8.473-82.264 38.674-92.517l5.468-1.85c3.665-1.248 7.346-1.956 10.985-2.184l-0.044-1.524c0 0 0.913 0.551 2.47 1.511 17.304-0.092 42.595 22.885 42.595 22.885 49.14 46.853 117.592 108.565 107.638 138.164-15.095 44.802-87.506-73.539-69.87 23.695zM223.673 899.877c43.575 0 78.883-48.303 78.883-107.882 0-59.59-35.31-107.887-78.883-107.887-43.548 0-78.878 48.294-78.878 107.887 0 59.579 35.333 107.882 78.878 107.882z" />
</font></defs></svg>