<?xml version="1.0" standalone="no"?>
<!DOCTYPE svg PUBLIC "-//W3C//DTD SVG 1.1//EN" "http://www.w3.org/Graphics/SVG/1.1/DTD/svg11.dtd" >
<svg xmlns="http://www.w3.org/2000/svg">
<metadata>Generated by IcoMoon</metadata>
<defs>
<font id="icomoon" horiz-adv-x="1024">
<font-face units-per-em="1024" ascent="960" descent="-64" />
<missing-glyph horiz-adv-x="1024" />
<glyph unicode="&#x20;" horiz-adv-x="512" d="" />
<glyph unicode="&#xe900;" glyph-name="SYS16" horiz-adv-x="945" d="M681.074 554.618c15.381 15.381 40.318 15.381 55.698 0s15.381-40.318 0-55.698l-236.308-236.308c-15.381-15.381-40.318-15.381-55.698 0l-236.308 236.308c-15.381 15.381-15.381 40.318 0 55.698s40.318 15.381 55.698 0l208.459-208.459 208.459 208.459z" />
<glyph unicode="&#xe901;" glyph-name="SYS16-1" d="M286.17 332.497c-16.662-16.662-43.677-16.662-60.34 0s-16.662 43.677 0 60.34l256 256c16.662 16.662 43.677 16.662 60.34 0l256-256c16.662-16.662 16.662-43.677 0-60.34s-43.677-16.662-60.34 0l-225.83 225.83-225.83-225.83z" />
<glyph unicode="&#xe902;" glyph-name="SYS16-11" d="M396.497 673.83c-16.662 16.662-16.662 43.677 0 60.34s43.677 16.662 60.34 0l256-256c16.662-16.662 16.662-43.677 0-60.34l-256-256c-16.662-16.662-43.677-16.662-60.34 0s-16.662 43.677 0 60.34l225.83 225.83-225.83 225.83z" />
<glyph unicode="&#xe903;" glyph-name="image2vector" d="M484.503 874.414c-0.261-0.246-4.314-0.724-9.006-1.060-43.863-3.141-89.193-14.612-134.164-33.951-9.129-3.927-38.228-18.58-42.639-21.471-1.324-0.868-3.256-2.092-4.298-2.719-15.639-9.446-20.46-12.6-32.233-21.102-7.567-5.468-20.941-15.867-23.8-18.509-0.573-0.532-3.346-2.88-6.162-5.22-6.63-5.512-37.071-35.953-42.583-42.583-2.34-2.816-4.895-5.768-5.676-6.561-4.165-4.229-30.341-39.895-30.341-41.341 0-0.159-2.132-3.523-4.741-7.478-2.606-3.953-4.741-7.468-4.741-7.805 0-0.34-0.817-1.764-1.812-3.167-5.171-7.258-20.319-38.612-27.773-57.477-46.113-116.716-37.384-252.997 23.14-361.244 4.244-7.588 4.987-8.852 11.187-19.018 4.782-7.839 4.746-7.785 10.125-15.747 6.359-9.408 21.947-30.144 24.957-33.201 0.781-0.794 3.336-3.745 5.676-6.561 5.512-6.63 35.953-37.071 42.583-42.583 2.816-2.34 5.768-4.895 6.561-5.676 4.229-4.165 39.895-30.341 41.341-30.341 0.159 0 3.523-2.132 7.478-4.741 3.953-2.606 7.468-4.741 7.805-4.741 0.34 0 1.764-0.817 3.167-1.812 7.258-5.171 38.612-20.319 57.477-27.773 116.71-46.111 252.948-37.386 361.244 23.14 12.367 6.909 14.766 8.325 20.314 11.973 2.908 1.91 5.714 3.689 6.236 3.953 5.322 2.683 35.218 24.704 41.815 30.799 0.573 0.532 3.346 2.88 6.162 5.22 6.63 5.512 37.071 35.953 42.583 42.583 2.34 2.816 4.687 5.588 5.22 6.162 2.642 2.86 13.041 16.233 18.509 23.8 8.745 12.111 11.197 15.872 22.162 33.984 57.367 94.776 73.641 217.413 43.617 328.684-8.538 31.634-29.084 80.842-41.958 100.477-0.868 1.324-2.092 3.256-2.719 4.298-1.846 3.054-7.311 11.999-8.34 13.647-3.026 4.849-11.494 17.011-16.013 23.007-8.991 11.922-13.327 17.482-14.802 18.98-0.781 0.794-3.336 3.745-5.676 6.561-5.468 6.579-35.914 36.997-42.609 42.57-2.819 2.348-5.588 4.7-6.154 5.233-2.665 2.501-16.115 12.969-23.782 18.509-11.773 8.502-16.594 11.656-32.233 21.102-1.042 0.627-2.975 1.851-4.298 2.719-4.411 2.89-33.51 17.544-42.639 21.471-40.932 17.6-85.24 29.476-122.785 32.906-3.651 0.333-7.706 0.832-9.009 1.111-3.049 0.648-65.741 1.587-66.371 0.993zM539.497 830.592c4.954-0.333 10.286-0.783 11.85-1.001 1.564-0.215 8.044-1.055 14.4-1.861 6.354-0.806 15.526-2.327 20.385-3.382 4.856-1.052 10.109-2.161 11.676-2.46 5.66-1.088 23.913-6.213 33.183-9.321 17.413-5.837 32.512-11.965 49.779-20.211 7.421-3.543 32.86-17.902 37.926-21.404 2.345-1.623 4.951-3.379 5.791-3.899 3.336-2.079 9.492-6.277 11.049-7.537 0.906-0.735 6.769-5.299 13.025-10.143 23.063-17.856 46.956-41.748 64.812-64.812 4.844-6.257 9.408-12.119 10.143-13.025 1.26-1.556 5.458-7.713 7.537-11.049 0.52-0.84 2.276-3.446 3.899-5.791 9.815-14.193 25.324-44.623 33.82-66.371 7.383-18.893 14.833-42.621 17.116-54.518 0.3-1.567 1.408-6.82 2.46-11.676 1.055-4.859 2.575-14.031 3.382-20.385 0.806-6.356 1.646-12.836 1.861-14.4 2.248-16.202 2.33-60.547 0.146-77.537-0.282-2.202-1.18-9.201-1.994-15.557-0.812-6.354-2.34-15.526-3.395-20.385-1.052-4.856-2.161-10.109-2.46-11.676-3.287-17.116-15.657-53.307-25.080-73.372-2.109-4.493-4.534-9.661-5.386-11.487-2.593-5.553-17.326-31.483-20.47-36.029-1.623-2.345-3.379-4.951-3.899-5.791-2.079-3.336-6.277-9.492-7.537-11.049-0.735-0.906-5.299-6.769-10.143-13.025-17.856-23.063-41.748-46.956-64.812-64.812-6.257-4.844-12.119-9.408-13.025-10.143-1.556-1.26-7.713-5.458-11.049-7.537-0.84-0.52-3.446-2.276-5.791-3.899-14.193-9.815-44.623-25.324-66.371-33.82-18.893-7.383-42.621-14.833-54.518-17.116-1.567-0.3-6.82-1.408-11.676-2.46-4.859-1.055-14.031-2.575-20.385-3.382-6.356-0.806-12.836-1.646-14.4-1.861-16.202-2.248-60.547-2.33-77.537-0.146-2.202 0.282-9.201 1.18-15.557 1.994-6.354 0.812-15.526 2.34-20.385 3.395-4.856 1.052-10.109 2.161-11.676 2.46-16.246 3.118-56.351 16.76-73.48 24.998-2.348 1.126-6.615 3.169-9.482 4.536-7.398 3.528-32.847 17.889-37.926 21.402-2.345 1.623-4.951 3.379-5.791 3.899-3.336 2.079-9.492 6.277-11.049 7.537-0.906 0.735-6.769 5.299-13.025 10.143-23.063 17.856-46.956 41.748-64.812 64.812-4.844 6.257-9.408 12.119-10.143 13.025-1.26 1.556-5.458 7.713-7.537 11.049-0.52 0.84-2.276 3.446-3.899 5.791-3.144 4.547-17.876 30.477-20.47 36.029-0.852 1.825-3.277 6.994-5.386 11.487-9.423 20.065-21.793 56.256-25.080 73.372-0.3 1.567-1.408 6.82-2.46 11.676-1.055 4.859-2.583 14.031-3.395 20.385-0.814 6.356-1.713 13.356-1.994 15.557-5.773 44.915 1.49 111.017 17.326 157.658 3.876 11.412 12.493 33.526 15.521 39.821 1.126 2.348 3.169 6.615 4.536 9.482 3.528 7.398 17.889 32.847 21.402 37.926 1.623 2.345 3.379 4.951 3.899 5.791 2.079 3.336 6.277 9.492 7.537 11.049 0.735 0.906 5.299 6.769 10.143 13.025 17.856 23.063 41.748 46.956 64.812 64.812 6.257 4.844 12.119 9.408 13.025 10.143 1.556 1.26 7.713 5.458 11.049 7.537 0.84 0.52 3.446 2.276 5.791 3.899 14.356 9.93 45.261 25.649 67.054 34.104 18.58 7.209 42.237 14.605 53.834 16.832 1.567 0.3 6.82 1.408 11.676 2.46 4.859 1.055 14.031 2.583 20.385 3.395 6.356 0.814 13.435 1.723 15.731 2.020 13.174 1.695 46.372 2.117 65.513 0.829zM502.991 702.231c-11.205-5.102-12.787-10.168-12.787-40.899 0-26.99 0.415-29.65 5.504-35.295 11.182-12.403 32.768-8.041 37.082 7.496 1.334 4.797 1.334 50.801 0 55.601-2.294 8.264-11.494 14.825-20.79 14.825-3.026 0-6.807-0.727-9.009-1.728zM502.991 531.564c-4.877-2.22-10.496-8.468-11.781-13.097-1.408-5.071-1.408-306.529 0-311.601 5.358-19.302 36.221-19.302 41.58 0 1.408 5.071 1.408 306.529 0 311.601-2.294 8.264-11.494 14.825-20.79 14.825-3.026 0-6.807-0.724-9.009-1.728z" />
<glyph unicode="&#xe904;" glyph-name="DOC14" d="M361.563 404.854c24.125 0 41.542-5.125 52.167-15.458 10.625-10.292 15.917-23.833 15.917-40.625 0-11.833-2.5-22.125-7.542-30.917s-12.458-15.625-22.292-20.5c-9.833-4.875-21.708-7.333-35.583-7.333h-18v-55.125h-31.167v165.917c6.542 1.083 14.167 2.042 22.792 2.875 8.625 0.792 16.542 1.167 23.708 1.167zM389.021 323.938c5.667 5.708 8.5 13.583 8.5 23.625 0 21.125-11.75 31.667-35.208 31.667-5.458 0-10.792-0.333-16.083-0.958v-62.833h17.75c11 0 19.375 2.833 25.042 8.5zM501.312 405.104c28.792 0 49.958-7.667 63.542-23s20.375-36.208 20.375-62.583c0-17.917-3.125-33.167-9.333-45.792-6.25-12.625-15.5-22.25-27.833-28.875-12.292-6.625-27.542-9.958-45.792-9.958h-49.375v165.667c13.917 3.042 30.042 4.542 48.417 4.542zM540.646 276.021c8 9.5 12 24 12 43.5 0 19.333-4.125 33.958-12.375 43.875-8.208 9.917-21.125 14.875-38.708 14.875-6.375 0-12.208-0.333-17.5-0.958v-115.583h18.958c17.083 0 29.625 4.75 37.625 14.292zM611.854 234.896v165.917h97.083c0-4-0.208-8.542-0.708-13.583-0.458-5-1.125-9.375-1.917-13.042h-63.292v-42.917h59.917c0-3.833-0.208-8.375-0.708-13.542-0.458-5.208-1.125-9.625-1.917-13.292h-57.292v-69.542h-31.167zM811.208 490.667c46.75 0 84.792-38.042 84.792-84.792v-171.75c0-46.75-38.042-84.792-84.792-84.792h-0.542v-106.667c0-11.792-9.542-21.333-21.333-21.333h-554.667c-11.792 0-21.333 9.542-21.333 21.333v106.667h-0.542c-46.75 0-84.792 38.042-84.792 84.792v171.75c0 46.75 38.042 84.792 84.792 84.792h0.542v320c0 11.792 9.542 21.333 21.333 21.333h340.333c0.161 0 0.305-0.091 0.466-0.094 0.159 0.005 0.292 0.094 0.451 0.094 0 0 0.042 0 0.083 0 7.232 0 13.315-3.836 17.174-9.341l210.221-210.221c4.383-3.909 7.271-9.437 7.271-15.771v-106h0.542zM737.341 618.159l-139.755 139.755 0.664-139.331 139.091-0.424zM256 789.333v-298.667h512v84.75l-191.083 0.583c-11.708 0.042-21.208 9.5-21.25 21.25l-0.901 192.083h-298.766zM768 64v85.333h-512v-85.333h512zM853.333 234.125v171.75c0 23.208-18.917 42.125-42.125 42.125h-598.417c-23.208 0-42.125-18.917-42.125-42.125v-171.75c0-23.208 18.917-42.125 42.125-42.125h598.417c23.208 0 42.125 18.917 42.125 42.125z" />
</font></defs></svg>